GAS LISTING C:\Users\Bart\AppData\Local\Temp/ccXMp9ek.s 			page 1


   1               		.file	"fclose.c"
   2               		.arch atmega2561
   3               	__SREG__ = 0x3f
   4               	__SP_H__ = 0x3e
   5               	__SP_L__ = 0x3d
   6               	__tmp_reg__ = 0
   7               	__zero_reg__ = 1
   8               		.global __do_copy_data
   9               		.global __do_clear_bss
  10               		.text
  11               	.global	fclose
  12               		.type	fclose, @function
  13               	fclose:
  14               	/* prologue: frame size=0 */
  15 0000 EF92      		push r14
  16 0002 FF92      		push r15
  17 0004 0F93      		push r16
  18 0006 1F93      		push r17
  19 0008 CF93      		push r28
  20 000a DF93      		push r29
  21               	/* prologue end (size=6) */
  22 000c 8C01      		movw r16,r24
  23 000e 892B      		or r24,r25
  24 0010 01F4      		brne .L2
  25 0012 00C0      		rjmp .L15
  26               	.L5:
  27 0014 2196      		adiw r28,1
  28 0016 3296      		adiw r30,2
  29 0018 C830      		cpi r28,8
  30 001a D105      		cpc r29,__zero_reg__
  31 001c 01F4      		brne .L6
  32               	.L15:
  33 001e 89E0      		ldi r24,lo8(9)
  34 0020 90E0      		ldi r25,hi8(9)
  35 0022 9093 0000 		sts (errno)+1,r25
  36 0026 8093 0000 		sts errno,r24
  37 002a 2FEF      		ldi r18,lo8(-1)
  38 002c E22E      		mov r14,r18
  39 002e F22E      		mov r15,r18
  40 0030 00C0      		rjmp .L4
  41               	.L2:
  42 0032 C0E0      		ldi r28,lo8(0)
  43 0034 D0E0      		ldi r29,hi8(0)
  44 0036 E0E0      		ldi r30,lo8(__iob)
  45 0038 F0E0      		ldi r31,hi8(__iob)
  46               	.L6:
  47 003a 8081      		ld r24,Z
  48 003c 9181      		ldd r25,Z+1
  49 003e 8017      		cp r24,r16
  50 0040 9107      		cpc r25,r17
  51 0042 01F4      		brne .L5
  52 0044 F801      		movw r30,r16
  53 0046 8081      		ld r24,Z
  54 0048 9181      		ldd r25,Z+1
  55 004a 0E94 0000 		call _close
  56 004e 892B      		or r24,r25
  57 0050 01F4      		brne .L9
GAS LISTING C:\Users\Bart\AppData\Local\Temp/ccXMp9ek.s 			page 2


  58 0052 EE24      		clr r14
  59 0054 FF24      		clr r15
  60 0056 00C0      		rjmp .L11
  61               	.L9:
  62 0058 9FEF      		ldi r25,lo8(-1)
  63 005a E92E      		mov r14,r25
  64 005c F92E      		mov r15,r25
  65               	.L11:
  66 005e C801      		movw r24,r16
  67 0060 0E94 0000 		call free
  68 0064 CC0F      		lsl r28
  69 0066 DD1F      		rol r29
  70 0068 C050      		subi r28,lo8(-(__iob))
  71 006a D040      		sbci r29,hi8(-(__iob))
  72 006c 1982      		std Y+1,__zero_reg__
  73 006e 1882      		st Y,__zero_reg__
  74               	.L4:
  75 0070 C701      		movw r24,r14
  76               	/* epilogue: frame size=0 */
  77 0072 DF91      		pop r29
  78 0074 CF91      		pop r28
  79 0076 1F91      		pop r17
  80 0078 0F91      		pop r16
  81 007a FF90      		pop r15
  82 007c EF90      		pop r14
  83 007e 0895      		ret
  84               	/* epilogue end (size=7) */
  85               	/* function fclose size 64 (51) */
  86               		.size	fclose, .-fclose
  87               	/* File "D:/Git/TI-2A3-InternetMediaCenter/tools/ethernut-4.3.3/nut/crt/fclose.c": code   64 = 0x00
GAS LISTING C:\Users\Bart\AppData\Local\Temp/ccXMp9ek.s 			page 3


DEFINED SYMBOLS
                            *ABS*:00000000 fclose.c
C:\Users\Bart\AppData\Local\Temp/ccXMp9ek.s:3      *ABS*:0000003f __SREG__
C:\Users\Bart\AppData\Local\Temp/ccXMp9ek.s:4      *ABS*:0000003e __SP_H__
C:\Users\Bart\AppData\Local\Temp/ccXMp9ek.s:5      *ABS*:0000003d __SP_L__
C:\Users\Bart\AppData\Local\Temp/ccXMp9ek.s:6      *ABS*:00000000 __tmp_reg__
C:\Users\Bart\AppData\Local\Temp/ccXMp9ek.s:7      *ABS*:00000001 __zero_reg__
C:\Users\Bart\AppData\Local\Temp/ccXMp9ek.s:13     .text:00000000 fclose

UNDEFINED SYMBOLS
__do_copy_data
__do_clear_bss
errno
__iob
_close
free
