GAS LISTING C:\Users\Bart\AppData\Local\Temp/ccn94rNw.s 			page 1


   1               		.file	"fgetc.c"
   2               		.arch atmega2561
   3               	__SREG__ = 0x3f
   4               	__SP_H__ = 0x3e
   5               	__SP_L__ = 0x3d
   6               	__tmp_reg__ = 0
   7               	__zero_reg__ = 1
   8               		.global __do_copy_data
   9               		.global __do_clear_bss
  10               		.text
  11               	.global	fgetc
  12               		.type	fgetc, @function
  13               	fgetc:
  14               	/* prologue: frame size=1 */
  15 0000 0F93      		push r16
  16 0002 1F93      		push r17
  17 0004 CF93      		push r28
  18 0006 DF93      		push r29
  19 0008 CDB7      		in r28,__SP_L__
  20 000a DEB7      		in r29,__SP_H__
  21 000c 2197      		sbiw r28,1
  22 000e 0FB6      		in __tmp_reg__,__SREG__
  23 0010 F894      		cli
  24 0012 DEBF      		out __SP_H__,r29
  25 0014 0FBE      		out __SREG__,__tmp_reg__
  26 0016 CDBF      		out __SP_L__,r28
  27               	/* prologue end (size=12) */
  28 0018 8C01      		movw r16,r24
  29 001a FC01      		movw r30,r24
  30 001c 8481      		ldd r24,Z+4
  31 001e 83FF      		sbrs r24,3
  32 0020 00C0      		rjmp .L2
  33 0022 877F      		andi r24,lo8(-9)
  34 0024 8483      		std Z+4,r24
  35 0026 8581      		ldd r24,Z+5
  36 0028 9681      		ldd r25,Z+6
  37 002a 00C0      		rjmp .L4
  38               	.L2:
  39 002c 41E0      		ldi r20,lo8(1)
  40 002e 50E0      		ldi r21,hi8(1)
  41 0030 BE01      		movw r22,r28
  42 0032 6F5F      		subi r22,lo8(-(1))
  43 0034 7F4F      		sbci r23,hi8(-(1))
  44 0036 F801      		movw r30,r16
  45 0038 8081      		ld r24,Z
  46 003a 9181      		ldd r25,Z+1
  47 003c 0E94 0000 		call _read
  48 0040 8130      		cpi r24,1
  49 0042 9105      		cpc r25,__zero_reg__
  50 0044 01F0      		breq .L5
  51 0046 F801      		movw r30,r16
  52 0048 2481      		ldd r18,Z+4
  53 004a 892B      		or r24,r25
  54 004c 01F0      		breq .L7
  55 004e 2061      		ori r18,lo8(16)
  56 0050 00C0      		rjmp .L10
  57               	.L7:
GAS LISTING C:\Users\Bart\AppData\Local\Temp/ccn94rNw.s 			page 2


  58 0052 2062      		ori r18,lo8(32)
  59 0054 F801      		movw r30,r16
  60               	.L10:
  61 0056 2483      		std Z+4,r18
  62 0058 8FEF      		ldi r24,lo8(-1)
  63 005a 9FEF      		ldi r25,hi8(-1)
  64 005c 00C0      		rjmp .L4
  65               	.L5:
  66 005e 8981      		ldd r24,Y+1
  67 0060 9927      		clr r25
  68               	.L4:
  69               	/* epilogue: frame size=1 */
  70 0062 2196      		adiw r28,1
  71 0064 0FB6      		in __tmp_reg__,__SREG__
  72 0066 F894      		cli
  73 0068 DEBF      		out __SP_H__,r29
  74 006a 0FBE      		out __SREG__,__tmp_reg__
  75 006c CDBF      		out __SP_L__,r28
  76 006e DF91      		pop r29
  77 0070 CF91      		pop r28
  78 0072 1F91      		pop r17
  79 0074 0F91      		pop r16
  80 0076 0895      		ret
  81               	/* epilogue end (size=11) */
  82               	/* function fgetc size 60 (37) */
  83               		.size	fgetc, .-fgetc
  84               	/* File "D:/Git/TI-2A3-InternetMediaCenter/tools/ethernut-4.3.3/nut/crt/fgetc.c": code   60 = 0x003
GAS LISTING C:\Users\Bart\AppData\Local\Temp/ccn94rNw.s 			page 3


DEFINED SYMBOLS
                            *ABS*:00000000 fgetc.c
C:\Users\Bart\AppData\Local\Temp/ccn94rNw.s:3      *ABS*:0000003f __SREG__
C:\Users\Bart\AppData\Local\Temp/ccn94rNw.s:4      *ABS*:0000003e __SP_H__
C:\Users\Bart\AppData\Local\Temp/ccn94rNw.s:5      *ABS*:0000003d __SP_L__
C:\Users\Bart\AppData\Local\Temp/ccn94rNw.s:6      *ABS*:00000000 __tmp_reg__
C:\Users\Bart\AppData\Local\Temp/ccn94rNw.s:7      *ABS*:00000001 __zero_reg__
C:\Users\Bart\AppData\Local\Temp/ccn94rNw.s:13     .text:00000000 fgetc

UNDEFINED SYMBOLS
__do_copy_data
__do_clear_bss
_read
