GAS LISTING C:\Users\Bart\AppData\Local\Temp/ccnbZmij.s 			page 1


   1               		.file	"ftell.c"
   2               		.arch atmega2561
   3               	__SREG__ = 0x3f
   4               	__SP_H__ = 0x3e
   5               	__SP_L__ = 0x3d
   6               	__tmp_reg__ = 0
   7               	__zero_reg__ = 1
   8               		.global __do_copy_data
   9               		.global __do_clear_bss
  10               		.text
  11               	.global	ftell
  12               		.type	ftell, @function
  13               	ftell:
  14               	/* prologue: frame size=0 */
  15               	/* prologue end (size=0) */
  16 0000 FC01      		movw r30,r24
  17 0002 8081      		ld r24,Z
  18 0004 9181      		ldd r25,Z+1
  19 0006 0E94 0000 		call _tell
  20               	/* epilogue: frame size=0 */
  21 000a 0895      		ret
  22               	/* epilogue end (size=1) */
  23               	/* function ftell size 6 (5) */
  24               		.size	ftell, .-ftell
  25               	/* File "D:/Git/TI-2A3-InternetMediaCenter/tools/ethernut-4.3.3/nut/crt/ftell.c": code    6 = 0x000
GAS LISTING C:\Users\Bart\AppData\Local\Temp/ccnbZmij.s 			page 2


DEFINED SYMBOLS
                            *ABS*:00000000 ftell.c
C:\Users\Bart\AppData\Local\Temp/ccnbZmij.s:3      *ABS*:0000003f __SREG__
C:\Users\Bart\AppData\Local\Temp/ccnbZmij.s:4      *ABS*:0000003e __SP_H__
C:\Users\Bart\AppData\Local\Temp/ccnbZmij.s:5      *ABS*:0000003d __SP_L__
C:\Users\Bart\AppData\Local\Temp/ccnbZmij.s:6      *ABS*:00000000 __tmp_reg__
C:\Users\Bart\AppData\Local\Temp/ccnbZmij.s:7      *ABS*:00000001 __zero_reg__
C:\Users\Bart\AppData\Local\Temp/ccnbZmij.s:13     .text:00000000 ftell

UNDEFINED SYMBOLS
__do_copy_data
__do_clear_bss
_tell
