GAS LISTING C:\Users\Bart\AppData\Local\Temp/ccrlQ8y3.s 			page 1


   1               		.file	"getchar.c"
   2               		.arch atmega2561
   3               	__SREG__ = 0x3f
   4               	__SP_H__ = 0x3e
   5               	__SP_L__ = 0x3d
   6               	__tmp_reg__ = 0
   7               	__zero_reg__ = 1
   8               		.global __do_copy_data
   9               		.global __do_clear_bss
  10               		.text
  11               	.global	getchar
  12               		.type	getchar, @function
  13               	getchar:
  14               	/* prologue: frame size=0 */
  15               	/* prologue end (size=0) */
  16 0000 8091 0000 		lds r24,__iob
  17 0004 9091 0000 		lds r25,(__iob)+1
  18 0008 0E94 0000 		call fgetc
  19               	/* epilogue: frame size=0 */
  20 000c 0895      		ret
  21               	/* epilogue end (size=1) */
  22               	/* function getchar size 7 (6) */
  23               		.size	getchar, .-getchar
  24               	/* File "D:/Git/TI-2A3-InternetMediaCenter/tools/ethernut-4.3.3/nut/crt/getchar.c": code    7 = 0x0
GAS LISTING C:\Users\Bart\AppData\Local\Temp/ccrlQ8y3.s 			page 2


DEFINED SYMBOLS
                            *ABS*:00000000 getchar.c
C:\Users\Bart\AppData\Local\Temp/ccrlQ8y3.s:3      *ABS*:0000003f __SREG__
C:\Users\Bart\AppData\Local\Temp/ccrlQ8y3.s:4      *ABS*:0000003e __SP_H__
C:\Users\Bart\AppData\Local\Temp/ccrlQ8y3.s:5      *ABS*:0000003d __SP_L__
C:\Users\Bart\AppData\Local\Temp/ccrlQ8y3.s:6      *ABS*:00000000 __tmp_reg__
C:\Users\Bart\AppData\Local\Temp/ccrlQ8y3.s:7      *ABS*:00000001 __zero_reg__
C:\Users\Bart\AppData\Local\Temp/ccrlQ8y3.s:13     .text:00000000 getchar

UNDEFINED SYMBOLS
__do_copy_data
__do_clear_bss
__iob
fgetc
