GAS LISTING C:\Users\Bart\AppData\Local\Temp/ccJl1iXd.s 			page 1


   1               		.file	"sscanf_p.c"
   2               		.arch atmega2561
   3               	__SREG__ = 0x3f
   4               	__SP_H__ = 0x3e
   5               	__SP_L__ = 0x3d
   6               	__tmp_reg__ = 0
   7               	__zero_reg__ = 1
   8               		.global __do_copy_data
   9               		.global __do_clear_bss
  10               		.text
  11               	.global	sscanf_P
  12               		.type	sscanf_P, @function
  13               	sscanf_P:
  14               	/* prologue: frame size=2 */
  15 0000 CF93      		push r28
  16 0002 DF93      		push r29
  17 0004 CDB7      		in r28,__SP_L__
  18 0006 DEB7      		in r29,__SP_H__
  19 0008 2297      		sbiw r28,2
  20 000a 0FB6      		in __tmp_reg__,__SREG__
  21 000c F894      		cli
  22 000e DEBF      		out __SP_H__,r29
  23 0010 0FBE      		out __SREG__,__tmp_reg__
  24 0012 CDBF      		out __SP_L__,r28
  25               	/* prologue end (size=10) */
  26 0014 AE01      		movw r20,r28
  27 0016 445F      		subi r20,lo8(-(12))
  28 0018 5F4F      		sbci r21,hi8(-(12))
  29 001a 5A83      		std Y+2,r21
  30 001c 4983      		std Y+1,r20
  31 001e 6A85      		ldd r22,Y+10
  32 0020 7B85      		ldd r23,Y+11
  33 0022 8885      		ldd r24,Y+8
  34 0024 9985      		ldd r25,Y+9
  35 0026 0E94 0000 		call vsscanf_P
  36               	/* epilogue: frame size=2 */
  37 002a 2296      		adiw r28,2
  38 002c 0FB6      		in __tmp_reg__,__SREG__
  39 002e F894      		cli
  40 0030 DEBF      		out __SP_H__,r29
  41 0032 0FBE      		out __SREG__,__tmp_reg__
  42 0034 CDBF      		out __SP_L__,r28
  43 0036 DF91      		pop r29
  44 0038 CF91      		pop r28
  45 003a 0895      		ret
  46               	/* epilogue end (size=9) */
  47               	/* function sscanf_P size 30 (11) */
  48               		.size	sscanf_P, .-sscanf_P
  49               	/* File "D:/Git/TI-2A3-InternetMediaCenter/tools/ethernut-4.3.3/nut/crt/sscanf_p.c": code   30 = 0x
GAS LISTING C:\Users\Bart\AppData\Local\Temp/ccJl1iXd.s 			page 2


DEFINED SYMBOLS
                            *ABS*:00000000 sscanf_p.c
C:\Users\Bart\AppData\Local\Temp/ccJl1iXd.s:3      *ABS*:0000003f __SREG__
C:\Users\Bart\AppData\Local\Temp/ccJl1iXd.s:4      *ABS*:0000003e __SP_H__
C:\Users\Bart\AppData\Local\Temp/ccJl1iXd.s:5      *ABS*:0000003d __SP_L__
C:\Users\Bart\AppData\Local\Temp/ccJl1iXd.s:6      *ABS*:00000000 __tmp_reg__
C:\Users\Bart\AppData\Local\Temp/ccJl1iXd.s:7      *ABS*:00000001 __zero_reg__
C:\Users\Bart\AppData\Local\Temp/ccJl1iXd.s:13     .text:00000000 sscanf_P

UNDEFINED SYMBOLS
__do_copy_data
__do_clear_bss
vsscanf_P
