GAS LISTING C:\Users\Bart\AppData\Local\Temp/ccIpggsi.s 			page 1


   1               		.file	"ungetc.c"
   2               		.arch atmega2561
   3               	__SREG__ = 0x3f
   4               	__SP_H__ = 0x3e
   5               	__SP_L__ = 0x3d
   6               	__tmp_reg__ = 0
   7               	__zero_reg__ = 1
   8               		.global __do_copy_data
   9               		.global __do_clear_bss
  10               		.text
  11               	.global	ungetc
  12               		.type	ungetc, @function
  13               	ungetc:
  14               	/* prologue: frame size=0 */
  15               	/* prologue end (size=0) */
  16 0000 FB01      		movw r30,r22
  17 0002 2481      		ldd r18,Z+4
  18 0004 23FF      		sbrs r18,3
  19 0006 00C0      		rjmp .L2
  20 0008 8FEF      		ldi r24,lo8(-1)
  21 000a 9FEF      		ldi r25,hi8(-1)
  22 000c 0895      		ret
  23               	.L2:
  24 000e 3FEF      		ldi r19,hi8(-1)
  25 0010 8F3F      		cpi r24,lo8(-1)
  26 0012 9307      		cpc r25,r19
  27 0014 01F0      		breq .L4
  28 0016 9683      		std Z+6,r25
  29 0018 8583      		std Z+5,r24
  30 001a 2860      		ori r18,lo8(8)
  31 001c 2483      		std Z+4,r18
  32               	.L4:
  33 001e 0895      		ret
  34               	/* epilogue: frame size=0 */
  35               	/* epilogue: noreturn */
  36               	/* epilogue end (size=0) */
  37               	/* function ungetc size 16 (16) */
  38               		.size	ungetc, .-ungetc
  39               	/* File "D:/Git/TI-2A3-InternetMediaCenter/tools/ethernut-4.3.3/nut/crt/ungetc.c": code   16 = 0x00
GAS LISTING C:\Users\Bart\AppData\Local\Temp/ccIpggsi.s 			page 2


DEFINED SYMBOLS
                            *ABS*:00000000 ungetc.c
C:\Users\Bart\AppData\Local\Temp/ccIpggsi.s:3      *ABS*:0000003f __SREG__
C:\Users\Bart\AppData\Local\Temp/ccIpggsi.s:4      *ABS*:0000003e __SP_H__
C:\Users\Bart\AppData\Local\Temp/ccIpggsi.s:5      *ABS*:0000003d __SP_L__
C:\Users\Bart\AppData\Local\Temp/ccIpggsi.s:6      *ABS*:00000000 __tmp_reg__
C:\Users\Bart\AppData\Local\Temp/ccIpggsi.s:7      *ABS*:00000001 __zero_reg__
C:\Users\Bart\AppData\Local\Temp/ccIpggsi.s:13     .text:00000000 ungetc

UNDEFINED SYMBOLS
__do_copy_data
__do_clear_bss
