GAS LISTING C:\Users\Bart\AppData\Local\Temp/ccb2wVWh.s 			page 1


   1               		.file	"pathops.c"
   2               		.arch atmega2561
   3               	__SREG__ = 0x3f
   4               	__SP_H__ = 0x3e
   5               	__SP_L__ = 0x3d
   6               	__tmp_reg__ = 0
   7               	__zero_reg__ = 1
   8               		.global __do_copy_data
   9               		.global __do_clear_bss
  10               		.text
  11               	.global	lseek
  12               		.type	lseek, @function
  13               	lseek:
  14               	/* prologue: frame size=0 */
  15               	/* prologue end (size=0) */
  16 0000 6FEF      		ldi r22,lo8(-1)
  17 0002 7FEF      		ldi r23,hi8(-1)
  18 0004 8FEF      		ldi r24,hlo8(-1)
  19 0006 9FEF      		ldi r25,hhi8(-1)
  20               	/* epilogue: frame size=0 */
  21 0008 0895      		ret
  22               	/* epilogue end (size=1) */
  23               	/* function lseek size 5 (4) */
  24               		.size	lseek, .-lseek
  25               	.global	fstat
  26               		.type	fstat, @function
  27               	fstat:
  28               	/* prologue: frame size=0 */
  29               	/* prologue end (size=0) */
  30 000a 8FEF      		ldi r24,lo8(-1)
  31 000c 9FEF      		ldi r25,hi8(-1)
  32               	/* epilogue: frame size=0 */
  33 000e 0895      		ret
  34               	/* epilogue end (size=1) */
  35               	/* function fstat size 3 (2) */
  36               		.size	fstat, .-fstat
  37               	.global	rename
  38               		.type	rename, @function
  39               	rename:
  40               	/* prologue: frame size=22 */
  41 0010 0F93      		push r16
  42 0012 1F93      		push r17
  43 0014 CF93      		push r28
  44 0016 DF93      		push r29
  45 0018 CDB7      		in r28,__SP_L__
  46 001a DEB7      		in r29,__SP_H__
  47 001c 6697      		sbiw r28,22
  48 001e 0FB6      		in __tmp_reg__,__SREG__
  49 0020 F894      		cli
  50 0022 DEBF      		out __SP_H__,r29
  51 0024 0FBE      		out __SREG__,__tmp_reg__
  52 0026 CDBF      		out __SP_L__,r28
  53               	/* prologue end (size=12) */
  54 0028 DC01      		movw r26,r24
  55 002a FE01      		movw r30,r28
  56 002c 3E96      		adiw r30,14
  57 002e AE01      		movw r20,r28
GAS LISTING C:\Users\Bart\AppData\Local\Temp/ccb2wVWh.s 			page 2


  58 0030 4A5E      		subi r20,lo8(-(22))
  59 0032 5F4F      		sbci r21,hi8(-(22))
  60 0034 00C0      		rjmp .L6
  61               	.L7:
  62 0036 2193      		st Z+,r18
  63 0038 1196      		adiw r26,1
  64               	.L6:
  65 003a 3A2F      		mov r19,r26
  66 003c 381B      		sub r19,r24
  67 003e 2C91      		ld r18,X
  68 0040 2223      		tst r18
  69 0042 01F0      		breq .L8
  70 0044 2A33      		cpi r18,lo8(58)
  71 0046 01F0      		breq .L8
  72 0048 E417      		cp r30,r20
  73 004a F507      		cpc r31,r21
  74 004c 01F4      		brne .L7
  75               	.L8:
  76 004e FE01      		movw r30,r28
  77 0050 E30F      		add r30,r19
  78 0052 F11D      		adc r31,__zero_reg__
  79 0054 1686      		std Z+14,__zero_reg__
  80 0056 8C91      		ld r24,X
  81 0058 8A33      		cpi r24,lo8(58)
  82 005a 01F0      		breq .+2
  83 005c 00C0      		rjmp .L11
  84 005e 1196      		adiw r26,1
  85 0060 BA83      		std Y+2,r27
  86 0062 A983      		std Y+1,r26
  87 0064 DB01      		movw r26,r22
  88 0066 FE01      		movw r30,r28
  89 0068 3596      		adiw r30,5
  90 006a 9E01      		movw r18,r28
  91 006c 235F      		subi r18,lo8(-(13))
  92 006e 3F4F      		sbci r19,hi8(-(13))
  93 0070 00C0      		rjmp .L13
  94               	.L14:
  95 0072 8193      		st Z+,r24
  96 0074 1196      		adiw r26,1
  97               	.L13:
  98 0076 9A2F      		mov r25,r26
  99 0078 961B      		sub r25,r22
 100 007a 8C91      		ld r24,X
 101 007c 8823      		tst r24
 102 007e 01F0      		breq .L15
 103 0080 8A33      		cpi r24,lo8(58)
 104 0082 01F0      		breq .L15
 105 0084 E217      		cp r30,r18
 106 0086 F307      		cpc r31,r19
 107 0088 01F4      		brne .L14
 108               	.L15:
 109 008a 9E01      		movw r18,r28
 110 008c 2B5F      		subi r18,lo8(-(5))
 111 008e 3F4F      		sbci r19,hi8(-(5))
 112 0090 F901      		movw r30,r18
 113 0092 E90F      		add r30,r25
 114 0094 F11D      		adc r31,__zero_reg__
GAS LISTING C:\Users\Bart\AppData\Local\Temp/ccb2wVWh.s 			page 3


 115 0096 1082      		st Z,__zero_reg__
 116 0098 8C91      		ld r24,X
 117 009a 8A33      		cpi r24,lo8(58)
 118 009c 01F4      		brne .L11
 119 009e 1196      		adiw r26,1
 120 00a0 BC83      		std Y+4,r27
 121 00a2 AB83      		std Y+3,r26
 122 00a4 8E01      		movw r16,r28
 123 00a6 025F      		subi r16,lo8(-(14))
 124 00a8 1F4F      		sbci r17,hi8(-(14))
 125 00aa B801      		movw r22,r16
 126 00ac C901      		movw r24,r18
 127 00ae 0E94 0000 		call strcmp
 128 00b2 892B      		or r24,r25
 129 00b4 01F4      		brne .L11
 130 00b6 C801      		movw r24,r16
 131 00b8 0E94 0000 		call NutDeviceLookup
 132 00bc 0097      		sbiw r24,0
 133 00be 01F4      		brne .L20
 134 00c0 82E0      		ldi r24,lo8(2)
 135 00c2 90E0      		ldi r25,hi8(2)
 136 00c4 9093 0000 		sts (errno)+1,r25
 137 00c8 8093 0000 		sts errno,r24
 138 00cc 00C0      		rjmp .L11
 139               	.L20:
 140 00ce FC01      		movw r30,r24
 141 00d0 2589      		ldd r18,Z+21
 142 00d2 3689      		ldd r19,Z+22
 143 00d4 AE01      		movw r20,r28
 144 00d6 4F5F      		subi r20,lo8(-(1))
 145 00d8 5F4F      		sbci r21,hi8(-(1))
 146 00da 62E3      		ldi r22,lo8(4402)
 147 00dc 71E1      		ldi r23,hi8(4402)
 148 00de F901      		movw r30,r18
 149 00e0 1995      		eicall
 150 00e2 00C0      		rjmp .L22
 151               	.L11:
 152 00e4 8FEF      		ldi r24,lo8(-1)
 153 00e6 9FEF      		ldi r25,hi8(-1)
 154               	.L22:
 155               	/* epilogue: frame size=22 */
 156 00e8 6696      		adiw r28,22
 157 00ea 0FB6      		in __tmp_reg__,__SREG__
 158 00ec F894      		cli
 159 00ee DEBF      		out __SP_H__,r29
 160 00f0 0FBE      		out __SREG__,__tmp_reg__
 161 00f2 CDBF      		out __SP_L__,r28
 162 00f4 DF91      		pop r29
 163 00f6 CF91      		pop r28
 164 00f8 1F91      		pop r17
 165 00fa 0F91      		pop r16
 166 00fc 0895      		ret
 167               	/* epilogue end (size=11) */
 168               	/* function rename size 119 (96) */
 169               		.size	rename, .-rename
 170               	.global	stat
 171               		.type	stat, @function
GAS LISTING C:\Users\Bart\AppData\Local\Temp/ccb2wVWh.s 			page 4


 172               	stat:
 173               	/* prologue: frame size=13 */
 174 00fe EF92      		push r14
 175 0100 FF92      		push r15
 176 0102 0F93      		push r16
 177 0104 1F93      		push r17
 178 0106 CF93      		push r28
 179 0108 DF93      		push r29
 180 010a CDB7      		in r28,__SP_L__
 181 010c DEB7      		in r29,__SP_H__
 182 010e 2D97      		sbiw r28,13
 183 0110 0FB6      		in __tmp_reg__,__SREG__
 184 0112 F894      		cli
 185 0114 DEBF      		out __SP_H__,r29
 186 0116 0FBE      		out __SREG__,__tmp_reg__
 187 0118 CDBF      		out __SP_L__,r28
 188               	/* prologue end (size=14) */
 189 011a 7B01      		movw r14,r22
 190 011c 8C01      		movw r16,r24
 191 011e FE01      		movw r30,r28
 192 0120 3596      		adiw r30,5
 193 0122 AE01      		movw r20,r28
 194 0124 435F      		subi r20,lo8(-(13))
 195 0126 5F4F      		sbci r21,hi8(-(13))
 196 0128 00C0      		rjmp .L25
 197               	.L26:
 198 012a 2193      		st Z+,r18
 199 012c 0F5F      		subi r16,lo8(-(1))
 200 012e 1F4F      		sbci r17,hi8(-(1))
 201               	.L25:
 202 0130 302F      		mov r19,r16
 203 0132 381B      		sub r19,r24
 204 0134 D801      		movw r26,r16
 205 0136 2C91      		ld r18,X
 206 0138 2223      		tst r18
 207 013a 01F0      		breq .L27
 208 013c 2A33      		cpi r18,lo8(58)
 209 013e 01F0      		breq .L27
 210 0140 E417      		cp r30,r20
 211 0142 F507      		cpc r31,r21
 212 0144 01F4      		brne .L26
 213               	.L27:
 214 0146 CE01      		movw r24,r28
 215 0148 0596      		adiw r24,5
 216 014a FC01      		movw r30,r24
 217 014c E30F      		add r30,r19
 218 014e F11D      		adc r31,__zero_reg__
 219 0150 1082      		st Z,__zero_reg__
 220 0152 0E94 0000 		call NutDeviceLookup
 221 0156 DC01      		movw r26,r24
 222 0158 892B      		or r24,r25
 223 015a 01F4      		brne .L30
 224 015c 8FEF      		ldi r24,lo8(-1)
 225 015e 9FEF      		ldi r25,hi8(-1)
 226 0160 00C0      		rjmp .L32
 227               	.L30:
 228 0162 F801      		movw r30,r16
GAS LISTING C:\Users\Bart\AppData\Local\Temp/ccb2wVWh.s 			page 5


 229 0164 8081      		ld r24,Z
 230 0166 8A33      		cpi r24,lo8(58)
 231 0168 01F4      		brne .L33
 232 016a 0F5F      		subi r16,lo8(-(1))
 233 016c 1F4F      		sbci r17,hi8(-(1))
 234               	.L33:
 235 016e 1A83      		std Y+2,r17
 236 0170 0983      		std Y+1,r16
 237 0172 FC82      		std Y+4,r15
 238 0174 EB82      		std Y+3,r14
 239 0176 FD01      		movw r30,r26
 240 0178 2589      		ldd r18,Z+21
 241 017a 3689      		ldd r19,Z+22
 242 017c AE01      		movw r20,r28
 243 017e 4F5F      		subi r20,lo8(-(1))
 244 0180 5F4F      		sbci r21,hi8(-(1))
 245 0182 61E0      		ldi r22,lo8(4353)
 246 0184 71E1      		ldi r23,hi8(4353)
 247 0186 CD01      		movw r24,r26
 248 0188 F901      		movw r30,r18
 249 018a 1995      		eicall
 250               	.L32:
 251               	/* epilogue: frame size=13 */
 252 018c 2D96      		adiw r28,13
 253 018e 0FB6      		in __tmp_reg__,__SREG__
 254 0190 F894      		cli
 255 0192 DEBF      		out __SP_H__,r29
 256 0194 0FBE      		out __SREG__,__tmp_reg__
 257 0196 CDBF      		out __SP_L__,r28
 258 0198 DF91      		pop r29
 259 019a CF91      		pop r28
 260 019c 1F91      		pop r17
 261 019e 0F91      		pop r16
 262 01a0 FF90      		pop r15
 263 01a2 EF90      		pop r14
 264 01a4 0895      		ret
 265               	/* epilogue end (size=13) */
 266               	/* function stat size 84 (57) */
 267               		.size	stat, .-stat
 268               	.global	access
 269               		.type	access, @function
 270               	access:
 271               	/* prologue: frame size=13 */
 272 01a6 CF93      		push r28
 273 01a8 DF93      		push r29
 274 01aa CDB7      		in r28,__SP_L__
 275 01ac DEB7      		in r29,__SP_H__
 276 01ae 2D97      		sbiw r28,13
 277 01b0 0FB6      		in __tmp_reg__,__SREG__
 278 01b2 F894      		cli
 279 01b4 DEBF      		out __SP_H__,r29
 280 01b6 0FBE      		out __SREG__,__tmp_reg__
 281 01b8 CDBF      		out __SP_L__,r28
 282               	/* prologue end (size=10) */
 283 01ba BE01      		movw r22,r28
 284 01bc 6F5F      		subi r22,lo8(-(1))
 285 01be 7F4F      		sbci r23,hi8(-(1))
GAS LISTING C:\Users\Bart\AppData\Local\Temp/ccb2wVWh.s 			page 6


 286 01c0 0E94 0000 		call stat
 287 01c4 892B      		or r24,r25
 288 01c6 01F0      		breq .L37
 289 01c8 8FEF      		ldi r24,lo8(-1)
 290 01ca 9FEF      		ldi r25,hi8(-1)
 291 01cc 00C0      		rjmp .L39
 292               	.L37:
 293 01ce 80E0      		ldi r24,lo8(0)
 294 01d0 90E0      		ldi r25,hi8(0)
 295               	.L39:
 296               	/* epilogue: frame size=13 */
 297 01d2 2D96      		adiw r28,13
 298 01d4 0FB6      		in __tmp_reg__,__SREG__
 299 01d6 F894      		cli
 300 01d8 DEBF      		out __SP_H__,r29
 301 01da 0FBE      		out __SREG__,__tmp_reg__
 302 01dc CDBF      		out __SP_L__,r28
 303 01de DF91      		pop r29
 304 01e0 CF91      		pop r28
 305 01e2 0895      		ret
 306               	/* epilogue end (size=9) */
 307               	/* function access size 31 (12) */
 308               		.size	access, .-access
 309               		.type	PathOperation, @function
 310               	PathOperation:
 311               	/* prologue: frame size=9 */
 312 01e4 EF92      		push r14
 313 01e6 FF92      		push r15
 314 01e8 0F93      		push r16
 315 01ea 1F93      		push r17
 316 01ec CF93      		push r28
 317 01ee DF93      		push r29
 318 01f0 CDB7      		in r28,__SP_L__
 319 01f2 DEB7      		in r29,__SP_H__
 320 01f4 2997      		sbiw r28,9
 321 01f6 0FB6      		in __tmp_reg__,__SREG__
 322 01f8 F894      		cli
 323 01fa DEBF      		out __SP_H__,r29
 324 01fc 0FBE      		out __SREG__,__tmp_reg__
 325 01fe CDBF      		out __SP_L__,r28
 326               	/* prologue end (size=14) */
 327 0200 7B01      		movw r14,r22
 328 0202 8C01      		movw r16,r24
 329 0204 FE01      		movw r30,r28
 330 0206 3196      		adiw r30,1
 331 0208 AE01      		movw r20,r28
 332 020a 475F      		subi r20,lo8(-(9))
 333 020c 5F4F      		sbci r21,hi8(-(9))
 334 020e 00C0      		rjmp .L42
 335               	.L43:
 336 0210 2193      		st Z+,r18
 337 0212 0F5F      		subi r16,lo8(-(1))
 338 0214 1F4F      		sbci r17,hi8(-(1))
 339               	.L42:
 340 0216 302F      		mov r19,r16
 341 0218 381B      		sub r19,r24
 342 021a D801      		movw r26,r16
GAS LISTING C:\Users\Bart\AppData\Local\Temp/ccb2wVWh.s 			page 7


 343 021c 2C91      		ld r18,X
 344 021e 2223      		tst r18
 345 0220 01F0      		breq .L44
 346 0222 2A33      		cpi r18,lo8(58)
 347 0224 01F0      		breq .L44
 348 0226 E417      		cp r30,r20
 349 0228 F507      		cpc r31,r21
 350 022a 01F4      		brne .L43
 351               	.L44:
 352 022c CE01      		movw r24,r28
 353 022e 0196      		adiw r24,1
 354 0230 FC01      		movw r30,r24
 355 0232 E30F      		add r30,r19
 356 0234 F11D      		adc r31,__zero_reg__
 357 0236 1082      		st Z,__zero_reg__
 358 0238 0E94 0000 		call NutDeviceLookup
 359 023c 0097      		sbiw r24,0
 360 023e 01F4      		brne .L47
 361 0240 82E0      		ldi r24,lo8(2)
 362 0242 90E0      		ldi r25,hi8(2)
 363 0244 9093 0000 		sts (errno)+1,r25
 364 0248 8093 0000 		sts errno,r24
 365 024c 8FEF      		ldi r24,lo8(-1)
 366 024e 9FEF      		ldi r25,hi8(-1)
 367 0250 00C0      		rjmp .L49
 368               	.L47:
 369 0252 0F5F      		subi r16,lo8(-(1))
 370 0254 1F4F      		sbci r17,hi8(-(1))
 371 0256 FC01      		movw r30,r24
 372 0258 2589      		ldd r18,Z+21
 373 025a 3689      		ldd r19,Z+22
 374 025c A801      		movw r20,r16
 375 025e B701      		movw r22,r14
 376 0260 F901      		movw r30,r18
 377 0262 1995      		eicall
 378               	.L49:
 379               	/* epilogue: frame size=9 */
 380 0264 2996      		adiw r28,9
 381 0266 0FB6      		in __tmp_reg__,__SREG__
 382 0268 F894      		cli
 383 026a DEBF      		out __SP_H__,r29
 384 026c 0FBE      		out __SREG__,__tmp_reg__
 385 026e CDBF      		out __SP_L__,r28
 386 0270 DF91      		pop r29
 387 0272 CF91      		pop r28
 388 0274 1F91      		pop r17
 389 0276 0F91      		pop r16
 390 0278 FF90      		pop r15
 391 027a EF90      		pop r14
 392 027c 0895      		ret
 393               	/* epilogue end (size=13) */
 394               	/* function PathOperation size 77 (50) */
 395               		.size	PathOperation, .-PathOperation
 396               	.global	mkdir
 397               		.type	mkdir, @function
 398               	mkdir:
 399               	/* prologue: frame size=0 */
GAS LISTING C:\Users\Bart\AppData\Local\Temp/ccb2wVWh.s 			page 8


 400               	/* prologue end (size=0) */
 401 027e 61E1      		ldi r22,lo8(4369)
 402 0280 71E1      		ldi r23,hi8(4369)
 403 0282 0E94 0000 		call PathOperation
 404               	/* epilogue: frame size=0 */
 405 0286 0895      		ret
 406               	/* epilogue end (size=1) */
 407               	/* function mkdir size 5 (4) */
 408               		.size	mkdir, .-mkdir
 409               	.global	unlink
 410               		.type	unlink, @function
 411               	unlink:
 412               	/* prologue: frame size=0 */
 413               	/* prologue end (size=0) */
 414 0288 62E2      		ldi r22,lo8(4386)
 415 028a 71E1      		ldi r23,hi8(4386)
 416 028c 0E94 0000 		call PathOperation
 417               	/* epilogue: frame size=0 */
 418 0290 0895      		ret
 419               	/* epilogue end (size=1) */
 420               	/* function unlink size 5 (4) */
 421               		.size	unlink, .-unlink
 422               	.global	rmdir
 423               		.type	rmdir, @function
 424               	rmdir:
 425               	/* prologue: frame size=0 */
 426               	/* prologue end (size=0) */
 427 0292 62E1      		ldi r22,lo8(4370)
 428 0294 71E1      		ldi r23,hi8(4370)
 429 0296 0E94 0000 		call PathOperation
 430               	/* epilogue: frame size=0 */
 431 029a 0895      		ret
 432               	/* epilogue end (size=1) */
 433               	/* function rmdir size 5 (4) */
 434               		.size	rmdir, .-rmdir
 435               	/* File "D:/Git/TI-2A3-InternetMediaCenter/tools/ethernut-4.3.3/nut/fs/pathops.c": code  334 = 0x01
GAS LISTING C:\Users\Bart\AppData\Local\Temp/ccb2wVWh.s 			page 9


DEFINED SYMBOLS
                            *ABS*:00000000 pathops.c
C:\Users\Bart\AppData\Local\Temp/ccb2wVWh.s:3      *ABS*:0000003f __SREG__
C:\Users\Bart\AppData\Local\Temp/ccb2wVWh.s:4      *ABS*:0000003e __SP_H__
C:\Users\Bart\AppData\Local\Temp/ccb2wVWh.s:5      *ABS*:0000003d __SP_L__
C:\Users\Bart\AppData\Local\Temp/ccb2wVWh.s:6      *ABS*:00000000 __tmp_reg__
C:\Users\Bart\AppData\Local\Temp/ccb2wVWh.s:7      *ABS*:00000001 __zero_reg__
C:\Users\Bart\AppData\Local\Temp/ccb2wVWh.s:13     .text:00000000 lseek
C:\Users\Bart\AppData\Local\Temp/ccb2wVWh.s:27     .text:0000000a fstat
C:\Users\Bart\AppData\Local\Temp/ccb2wVWh.s:39     .text:00000010 rename
C:\Users\Bart\AppData\Local\Temp/ccb2wVWh.s:172    .text:000000fe stat
C:\Users\Bart\AppData\Local\Temp/ccb2wVWh.s:270    .text:000001a6 access
C:\Users\Bart\AppData\Local\Temp/ccb2wVWh.s:310    .text:000001e4 PathOperation
C:\Users\Bart\AppData\Local\Temp/ccb2wVWh.s:398    .text:0000027e mkdir
C:\Users\Bart\AppData\Local\Temp/ccb2wVWh.s:411    .text:00000288 unlink
C:\Users\Bart\AppData\Local\Temp/ccb2wVWh.s:424    .text:00000292 rmdir

UNDEFINED SYMBOLS
__do_copy_data
__do_clear_bss
strcmp
NutDeviceLookup
errno
