GAS LISTING C:\DOCUME~1\Arlind\LOCALS~1\Temp/ccH6FvuY.s 			page 1


   1               		.file	"getc.c"
   2               		.arch atmega2561
   3               	__SREG__ = 0x3f
   4               	__SP_H__ = 0x3e
   5               	__SP_L__ = 0x3d
   6               	__tmp_reg__ = 0
   7               	__zero_reg__ = 1
   8               		.global __do_copy_data
   9               		.global __do_clear_bss
  10               		.text
  11               	.global	getc
  12               		.type	getc, @function
  13               	getc:
  14               	/* prologue: frame size=0 */
  15               	/* prologue end (size=0) */
  16 0000 0E94 0000 		call fgetc
  17               	/* epilogue: frame size=0 */
  18 0004 0895      		ret
  19               	/* epilogue end (size=1) */
  20               	/* function getc size 3 (2) */
  21               		.size	getc, .-getc
  22               	/* File "C:/ethernut-4.3.3/nut/crt/getc.c": code    3 = 0x0003 (   2), prologues   0, epilogues   1
GAS LISTING C:\DOCUME~1\Arlind\LOCALS~1\Temp/ccH6FvuY.s 			page 2


DEFINED SYMBOLS
                            *ABS*:00000000 getc.c
C:\DOCUME~1\Arlind\LOCALS~1\Temp/ccH6FvuY.s:3      *ABS*:0000003f __SREG__
C:\DOCUME~1\Arlind\LOCALS~1\Temp/ccH6FvuY.s:4      *ABS*:0000003e __SP_H__
C:\DOCUME~1\Arlind\LOCALS~1\Temp/ccH6FvuY.s:5      *ABS*:0000003d __SP_L__
C:\DOCUME~1\Arlind\LOCALS~1\Temp/ccH6FvuY.s:6      *ABS*:00000000 __tmp_reg__
C:\DOCUME~1\Arlind\LOCALS~1\Temp/ccH6FvuY.s:7      *ABS*:00000001 __zero_reg__
C:\DOCUME~1\Arlind\LOCALS~1\Temp/ccH6FvuY.s:13     .text:00000000 getc

UNDEFINED SYMBOLS
__do_copy_data
__do_clear_bss
fgetc
