GAS LISTING C:\DOCUME~1\Arlind\LOCALS~1\Temp/cc3hVtsf.s 			page 1


   1               		.file	"kbhit.c"
   2               		.arch atmega2561
   3               	__SREG__ = 0x3f
   4               	__SP_H__ = 0x3e
   5               	__SP_L__ = 0x3d
   6               	__tmp_reg__ = 0
   7               	__zero_reg__ = 1
   8               		.global __do_copy_data
   9               		.global __do_clear_bss
  10               		.text
  11               	.global	kbhit
  12               		.type	kbhit, @function
  13               	kbhit:
  14               	/* prologue: frame size=0 */
  15               	/* prologue end (size=0) */
  16 0000 8091 0000 		lds r24,__iob
  17 0004 9091 0000 		lds r25,(__iob)+1
  18 0008 0E94 0000 		call _fileno
  19 000c 0E94 0000 		call _filelength
  20 0010 20E0      		ldi r18,lo8(0)
  21 0012 30E0      		ldi r19,hi8(0)
  22 0014 1616      		cp __zero_reg__,r22
  23 0016 1706      		cpc __zero_reg__,r23
  24 0018 1806      		cpc __zero_reg__,r24
  25 001a 1906      		cpc __zero_reg__,r25
  26 001c 04F4      		brge .L2
  27 001e 21E0      		ldi r18,lo8(1)
  28 0020 30E0      		ldi r19,hi8(1)
  29               	.L2:
  30 0022 C901      		movw r24,r18
  31               	/* epilogue: frame size=0 */
  32 0024 0895      		ret
  33               	/* epilogue end (size=1) */
  34               	/* function kbhit size 19 (18) */
  35               		.size	kbhit, .-kbhit
  36               	/* File "C:/ethernut-4.3.3/nut/crt/kbhit.c": code   19 = 0x0013 (  18), prologues   0, epilogues   
GAS LISTING C:\DOCUME~1\Arlind\LOCALS~1\Temp/cc3hVtsf.s 			page 2


DEFINED SYMBOLS
                            *ABS*:00000000 kbhit.c
C:\DOCUME~1\Arlind\LOCALS~1\Temp/cc3hVtsf.s:3      *ABS*:0000003f __SREG__
C:\DOCUME~1\Arlind\LOCALS~1\Temp/cc3hVtsf.s:4      *ABS*:0000003e __SP_H__
C:\DOCUME~1\Arlind\LOCALS~1\Temp/cc3hVtsf.s:5      *ABS*:0000003d __SP_L__
C:\DOCUME~1\Arlind\LOCALS~1\Temp/cc3hVtsf.s:6      *ABS*:00000000 __tmp_reg__
C:\DOCUME~1\Arlind\LOCALS~1\Temp/cc3hVtsf.s:7      *ABS*:00000001 __zero_reg__
C:\DOCUME~1\Arlind\LOCALS~1\Temp/cc3hVtsf.s:13     .text:00000000 kbhit

UNDEFINED SYMBOLS
__do_copy_data
__do_clear_bss
__iob
_fileno
_filelength
