GAS LISTING C:\DOCUME~1\Arlind\LOCALS~1\Temp/ccadJ6jh.s 			page 1


   1               		.file	"vfprintf.c"
   2               		.arch atmega2561
   3               	__SREG__ = 0x3f
   4               	__SP_H__ = 0x3e
   5               	__SP_L__ = 0x3d
   6               	__tmp_reg__ = 0
   7               	__zero_reg__ = 1
   8               		.global __do_copy_data
   9               		.global __do_clear_bss
  10               		.text
  11               	.global	vfprintf
  12               		.type	vfprintf, @function
  13               	vfprintf:
  14               	/* prologue: frame size=0 */
  15               	/* prologue end (size=0) */
  16 0000 FC01      		movw r30,r24
  17 0002 CB01      		movw r24,r22
  18 0004 9A01      		movw r18,r20
  19 0006 6081      		ld r22,Z
  20 0008 7181      		ldd r23,Z+1
  21 000a AC01      		movw r20,r24
  22 000c 80E0      		ldi r24,lo8(gs(_write))
  23 000e 90E0      		ldi r25,hi8(gs(_write))
  24 0010 0E94 0000 		call _putf
  25               	/* epilogue: frame size=0 */
  26 0014 0895      		ret
  27               	/* epilogue end (size=1) */
  28               	/* function vfprintf size 11 (10) */
  29               		.size	vfprintf, .-vfprintf
  30               	/* File "C:/ethernut-4.3.3/nut/crt/vfprintf.c": code   11 = 0x000b (  10), prologues   0, epilogues
GAS LISTING C:\DOCUME~1\Arlind\LOCALS~1\Temp/ccadJ6jh.s 			page 2


DEFINED SYMBOLS
                            *ABS*:00000000 vfprintf.c
C:\DOCUME~1\Arlind\LOCALS~1\Temp/ccadJ6jh.s:3      *ABS*:0000003f __SREG__
C:\DOCUME~1\Arlind\LOCALS~1\Temp/ccadJ6jh.s:4      *ABS*:0000003e __SP_H__
C:\DOCUME~1\Arlind\LOCALS~1\Temp/ccadJ6jh.s:5      *ABS*:0000003d __SP_L__
C:\DOCUME~1\Arlind\LOCALS~1\Temp/ccadJ6jh.s:6      *ABS*:00000000 __tmp_reg__
C:\DOCUME~1\Arlind\LOCALS~1\Temp/ccadJ6jh.s:7      *ABS*:00000001 __zero_reg__
C:\DOCUME~1\Arlind\LOCALS~1\Temp/ccadJ6jh.s:13     .text:00000000 vfprintf

UNDEFINED SYMBOLS
__do_copy_data
__do_clear_bss
_write
_putf
