GAS LISTING C:\Users\Bart\AppData\Local\Temp/ccwjnTn8.s 			page 1


   1               		.file	"igmpin.c"
   2               		.arch atmega2561
   3               	__SREG__ = 0x3f
   4               	__SP_H__ = 0x3e
   5               	__SP_L__ = 0x3d
   6               	__tmp_reg__ = 0
   7               	__zero_reg__ = 1
   8               		.global __do_copy_data
   9               		.global __do_clear_bss
  10               		.text
  11               	.global	NutIgmpInput
  12               		.type	NutIgmpInput, @function
  13               	NutIgmpInput:
  14               	/* prologue: frame size=0 */
  15 0000 CF93      		push r28
  16 0002 DF93      		push r29
  17               	/* prologue end (size=2) */
  18 0004 DB01      		movw r26,r22
  19 0006 EB01      		movw r28,r22
  20 0008 8D85      		ldd r24,Y+13
  21 000a 9E85      		ldd r25,Y+14
  22 000c 0897      		sbiw r24,8
  23 000e 00F0      		brlo .L5
  24 0010 EB01      		movw r28,r22
  25 0012 EB85      		ldd r30,Y+11
  26 0014 FC85      		ldd r31,Y+12
  27 0016 E081      		ld r30,Z
  28 0018 E131      		cpi r30,lo8(17)
  29 001a 00F0      		brlo .L5
  30 001c E331      		cpi r30,lo8(19)
  31 001e 00F0      		brlo .L6
  32 0020 E631      		cpi r30,lo8(22)
  33 0022 01F0      		breq .L6
  34               	.L5:
  35 0024 CD01      		movw r24,r26
  36 0026 0E94 0000 		call NutNetBufFree
  37               	.L6:
  38               	/* epilogue: frame size=0 */
  39 002a DF91      		pop r29
  40 002c CF91      		pop r28
  41 002e 0895      		ret
  42               	/* epilogue end (size=3) */
  43               	/* function NutIgmpInput size 25 (20) */
  44               		.size	NutIgmpInput, .-NutIgmpInput
  45               	/* File "D:/Git/TI-2A3-InternetMediaCenter/tools/ethernut-4.3.3/nut/net/igmpin.c": code   25 = 0x00
GAS LISTING C:\Users\Bart\AppData\Local\Temp/ccwjnTn8.s 			page 2


DEFINED SYMBOLS
                            *ABS*:00000000 igmpin.c
C:\Users\Bart\AppData\Local\Temp/ccwjnTn8.s:3      *ABS*:0000003f __SREG__
C:\Users\Bart\AppData\Local\Temp/ccwjnTn8.s:4      *ABS*:0000003e __SP_H__
C:\Users\Bart\AppData\Local\Temp/ccwjnTn8.s:5      *ABS*:0000003d __SP_L__
C:\Users\Bart\AppData\Local\Temp/ccwjnTn8.s:6      *ABS*:00000000 __tmp_reg__
C:\Users\Bart\AppData\Local\Temp/ccwjnTn8.s:7      *ABS*:00000001 __zero_reg__
C:\Users\Bart\AppData\Local\Temp/ccwjnTn8.s:13     .text:00000000 NutIgmpInput

UNDEFINED SYMBOLS
__do_copy_data
__do_clear_bss
NutNetBufFree
