GAS LISTING C:\Users\Bart\AppData\Local\Temp/ccWH9I93.s 			page 1


   1               		.file	"papout.c"
   2               		.arch atmega2561
   3               	__SREG__ = 0x3f
   4               	__SP_H__ = 0x3e
   5               	__SP_L__ = 0x3d
   6               	__tmp_reg__ = 0
   7               	__zero_reg__ = 1
   8               		.global __do_copy_data
   9               		.global __do_clear_bss
  10               		.text
  11               	.global	NutPapOutput
  12               		.type	NutPapOutput, @function
  13               	NutPapOutput:
  14               	/* prologue: frame size=0 */
  15 0000 EF92      		push r14
  16 0002 FF92      		push r15
  17 0004 0F93      		push r16
  18 0006 1F93      		push r17
  19 0008 CF93      		push r28
  20 000a DF93      		push r29
  21               	/* prologue end (size=6) */
  22 000c 7C01      		movw r14,r24
  23 000e 162F      		mov r17,r22
  24 0010 042F      		mov r16,r20
  25 0012 C901      		movw r24,r18
  26 0014 44E0      		ldi r20,lo8(4)
  27 0016 50E0      		ldi r21,hi8(4)
  28 0018 60E2      		ldi r22,lo8(32)
  29 001a 0E94 0000 		call NutNetBufAlloc
  30 001e EC01      		movw r28,r24
  31 0020 892B      		or r24,r25
  32 0022 01F4      		brne .L2
  33 0024 8FEF      		ldi r24,lo8(-1)
  34 0026 9FEF      		ldi r25,hi8(-1)
  35 0028 00C0      		rjmp .L4
  36               	.L2:
  37 002a EF81      		ldd r30,Y+7
  38 002c F885      		ldd r31,Y+8
  39 002e 1083      		st Z,r17
  40 0030 0183      		std Z+1,r16
  41 0032 8985      		ldd r24,Y+9
  42 0034 9A85      		ldd r25,Y+10
  43 0036 2D85      		ldd r18,Y+13
  44 0038 3E85      		ldd r19,Y+14
  45 003a 820F      		add r24,r18
  46 003c 931F      		adc r25,r19
  47 003e 2989      		ldd r18,Y+17
  48 0040 3A89      		ldd r19,Y+18
  49 0042 820F      		add r24,r18
  50 0044 931F      		adc r25,r19
  51               	/* #APP */
  52 0046 082E      		mov __tmp_reg__, r24
  53 0048 892F      		mov r24, r25
  54 004a 902D      		mov r25, __tmp_reg__
  55               		
  56               	/* #NOAPP */
  57 004c 9383      		std Z+3,r25
GAS LISTING C:\Users\Bart\AppData\Local\Temp/ccWH9I93.s 			page 2


  58 004e 8283      		std Z+2,r24
  59 0050 9E01      		movw r18,r28
  60 0052 40E0      		ldi r20,lo8(0)
  61 0054 50E0      		ldi r21,hi8(0)
  62 0056 63E2      		ldi r22,lo8(-16349)
  63 0058 70EC      		ldi r23,hi8(-16349)
  64 005a C701      		movw r24,r14
  65 005c 0E94 0000 		call NutPppOutput
  66 0060 892B      		or r24,r25
  67 0062 01F4      		brne .L8
  68 0064 CE01      		movw r24,r28
  69 0066 0E94 0000 		call NutNetBufFree
  70               	.L8:
  71 006a 80E0      		ldi r24,lo8(0)
  72 006c 90E0      		ldi r25,hi8(0)
  73               	.L4:
  74               	/* epilogue: frame size=0 */
  75 006e DF91      		pop r29
  76 0070 CF91      		pop r28
  77 0072 1F91      		pop r17
  78 0074 0F91      		pop r16
  79 0076 FF90      		pop r15
  80 0078 EF90      		pop r14
  81 007a 0895      		ret
  82               	/* epilogue end (size=7) */
  83               	/* function NutPapOutput size 67 (54) */
  84               		.size	NutPapOutput, .-NutPapOutput
  85               	.global	PapTxAuthReq
  86               		.type	PapTxAuthReq, @function
  87               	PapTxAuthReq:
  88               	/* prologue: frame size=0 */
  89 007c AF92      		push r10
  90 007e BF92      		push r11
  91 0080 CF92      		push r12
  92 0082 DF92      		push r13
  93 0084 EF92      		push r14
  94 0086 FF92      		push r15
  95 0088 0F93      		push r16
  96 008a 1F93      		push r17
  97 008c CF93      		push r28
  98 008e DF93      		push r29
  99               	/* prologue end (size=10) */
 100 0090 5C01      		movw r10,r24
 101 0092 EC01      		movw r28,r24
 102 0094 E988      		ldd r14,Y+17
 103 0096 FA88      		ldd r15,Y+18
 104 0098 E701      		movw r28,r14
 105 009a ED8D      		ldd r30,Y+29
 106 009c FE8D      		ldd r31,Y+30
 107 009e 3097      		sbiw r30,0
 108 00a0 01F4      		brne .L10
 109 00a2 C2E0      		ldi r28,lo8(2)
 110 00a4 D0E0      		ldi r29,hi8(2)
 111 00a6 00C0      		rjmp .L12
 112               	.L10:
 113 00a8 EF01      		movw r28,r30
 114 00aa 0990      		ld __tmp_reg__,Y+
GAS LISTING C:\Users\Bart\AppData\Local\Temp/ccWH9I93.s 			page 3


 115 00ac 0020      		tst __tmp_reg__
 116 00ae 01F4      		brne .-6
 117 00b0 2197      		sbiw r28,1
 118 00b2 CE1B      		sub r28,r30
 119 00b4 DF0B      		sbc r29,r31
 120 00b6 2296      		adiw r28,2
 121               	.L12:
 122 00b8 F701      		movw r30,r14
 123 00ba A78D      		ldd r26,Z+31
 124 00bc B0A1      		ldd r27,Z+32
 125 00be 1097      		sbiw r26,0
 126 00c0 01F0      		breq .L13
 127 00c2 FD01      		movw r30,r26
 128 00c4 0190      		ld __tmp_reg__,Z+
 129 00c6 0020      		tst __tmp_reg__
 130 00c8 01F4      		brne .-6
 131 00ca 3197      		sbiw r30,1
 132 00cc EA1B      		sub r30,r26
 133 00ce FB0B      		sbc r31,r27
 134 00d0 CE0F      		add r28,r30
 135 00d2 DF1F      		adc r29,r31
 136               	.L13:
 137 00d4 AE01      		movw r20,r28
 138 00d6 60E8      		ldi r22,lo8(-128)
 139 00d8 80E0      		ldi r24,lo8(0)
 140 00da 90E0      		ldi r25,hi8(0)
 141 00dc 0E94 0000 		call NutNetBufAlloc
 142 00e0 6C01      		movw r12,r24
 143 00e2 0097      		sbiw r24,0
 144 00e4 01F4      		brne .+2
 145 00e6 00C0      		rjmp .L27
 146 00e8 EC01      		movw r28,r24
 147 00ea 0F85      		ldd r16,Y+15
 148 00ec 1889      		ldd r17,Y+16
 149 00ee F701      		movw r30,r14
 150 00f0 A58D      		ldd r26,Z+29
 151 00f2 B68D      		ldd r27,Z+30
 152 00f4 1097      		sbiw r26,0
 153 00f6 01F4      		brne .+2
 154 00f8 00C0      		rjmp .L17
 155 00fa FD01      		movw r30,r26
 156 00fc 0190      		ld __tmp_reg__,Z+
 157 00fe 0020      		tst __tmp_reg__
 158 0100 01F4      		brne .-6
 159 0102 3197      		sbiw r30,1
 160 0104 EA1B      		sub r30,r26
 161 0106 FB0B      		sbc r31,r27
 162 0108 4E2F      		mov r20,r30
 163 010a D801      		movw r26,r16
 164 010c EC93      		st X,r30
 165 010e EE23      		tst r30
 166 0110 01F0      		breq .L19
 167 0112 5527      		clr r21
 168 0114 47FD      		sbrc r20,7
 169 0116 5095      		com r21
 170 0118 E701      		movw r28,r14
 171 011a 6D8D      		ldd r22,Y+29
GAS LISTING C:\Users\Bart\AppData\Local\Temp/ccWH9I93.s 			page 4


 172 011c 7E8D      		ldd r23,Y+30
 173 011e C801      		movw r24,r16
 174 0120 0196      		adiw r24,1
 175 0122 0E94 0000 		call memcpy
 176               	.L19:
 177 0126 F801      		movw r30,r16
 178 0128 8081      		ld r24,Z
 179 012a C82F      		mov r28,r24
 180 012c DD27      		clr r29
 181 012e C7FD      		sbrc r28,7
 182 0130 D095      		com r29
 183 0132 C00F      		add r28,r16
 184 0134 D11F      		adc r29,r17
 185 0136 CE01      		movw r24,r28
 186 0138 0196      		adiw r24,1
 187 013a F701      		movw r30,r14
 188 013c A78D      		ldd r26,Z+31
 189 013e B0A1      		ldd r27,Z+32
 190 0140 1097      		sbiw r26,0
 191 0142 01F0      		breq .L22
 192 0144 FD01      		movw r30,r26
 193 0146 0190      		ld __tmp_reg__,Z+
 194 0148 0020      		tst __tmp_reg__
 195 014a 01F4      		brne .-6
 196 014c 3197      		sbiw r30,1
 197 014e EA1B      		sub r30,r26
 198 0150 FB0B      		sbc r31,r27
 199 0152 4E2F      		mov r20,r30
 200 0154 E983      		std Y+1,r30
 201 0156 EE23      		tst r30
 202 0158 01F0      		breq .L24
 203 015a 5527      		clr r21
 204 015c 47FD      		sbrc r20,7
 205 015e 5095      		com r21
 206 0160 E701      		movw r28,r14
 207 0162 6F8D      		ldd r22,Y+31
 208 0164 78A1      		ldd r23,Y+32
 209 0166 0196      		adiw r24,1
 210 0168 0E94 0000 		call memcpy
 211               	.L24:
 212 016c 83E0      		ldi r24,lo8(3)
 213 016e F701      		movw r30,r14
 214 0170 86AF      		std Z+62,r24
 215 0172 4381      		ldd r20,Z+3
 216 0174 4F5F      		subi r20,lo8(-(1))
 217 0176 4383      		std Z+3,r20
 218 0178 9601      		movw r18,r12
 219 017a 61E0      		ldi r22,lo8(1)
 220 017c C501      		movw r24,r10
 221 017e 0E94 0000 		call NutPapOutput
 222 0182 00C0      		rjmp .L27
 223               	.L17:
 224 0184 D801      		movw r26,r16
 225 0186 1C92      		st X,__zero_reg__
 226 0188 00C0      		rjmp .L19
 227               	.L22:
 228 018a 1982      		std Y+1,__zero_reg__
GAS LISTING C:\Users\Bart\AppData\Local\Temp/ccWH9I93.s 			page 5


 229 018c 00C0      		rjmp .L24
 230               	.L27:
 231               	/* epilogue: frame size=0 */
 232 018e DF91      		pop r29
 233 0190 CF91      		pop r28
 234 0192 1F91      		pop r17
 235 0194 0F91      		pop r16
 236 0196 FF90      		pop r15
 237 0198 EF90      		pop r14
 238 019a DF90      		pop r13
 239 019c CF90      		pop r12
 240 019e BF90      		pop r11
 241 01a0 AF90      		pop r10
 242 01a2 0895      		ret
 243               	/* epilogue end (size=11) */
 244               	/* function PapTxAuthReq size 148 (127) */
 245               		.size	PapTxAuthReq, .-PapTxAuthReq
 246               	/* File "D:/Git/TI-2A3-InternetMediaCenter/tools/ethernut-4.3.3/nut/net/papout.c": code  215 = 0x00
GAS LISTING C:\Users\Bart\AppData\Local\Temp/ccWH9I93.s 			page 6


DEFINED SYMBOLS
                            *ABS*:00000000 papout.c
C:\Users\Bart\AppData\Local\Temp/ccWH9I93.s:3      *ABS*:0000003f __SREG__
C:\Users\Bart\AppData\Local\Temp/ccWH9I93.s:4      *ABS*:0000003e __SP_H__
C:\Users\Bart\AppData\Local\Temp/ccWH9I93.s:5      *ABS*:0000003d __SP_L__
C:\Users\Bart\AppData\Local\Temp/ccWH9I93.s:6      *ABS*:00000000 __tmp_reg__
C:\Users\Bart\AppData\Local\Temp/ccWH9I93.s:7      *ABS*:00000001 __zero_reg__
C:\Users\Bart\AppData\Local\Temp/ccWH9I93.s:13     .text:00000000 NutPapOutput
C:\Users\Bart\AppData\Local\Temp/ccWH9I93.s:87     .text:0000007c PapTxAuthReq

UNDEFINED SYMBOLS
__do_copy_data
__do_clear_bss
NutNetBufAlloc
NutPppOutput
NutNetBufFree
memcpy
