GAS LISTING C:\DOCUME~1\Arlind\LOCALS~1\Temp/ccG5vzV3.s 			page 1


   1               		.file	"route.c"
   2               		.arch atmega2561
   3               	__SREG__ = 0x3f
   4               	__SP_H__ = 0x3e
   5               	__SP_L__ = 0x3d
   6               	__tmp_reg__ = 0
   7               	__zero_reg__ = 1
   8               		.global __do_copy_data
   9               		.global __do_clear_bss
  10               		.text
  11               		.type	NutIpRouteRecQuery, @function
  12               	NutIpRouteRecQuery:
  13               	/* prologue: frame size=0 */
  14 0000 EF92      		push r14
  15 0002 FF92      		push r15
  16 0004 0F93      		push r16
  17 0006 1F93      		push r17
  18 0008 CF93      		push r28
  19 000a DF93      		push r29
  20               	/* prologue end (size=6) */
  21 000c 7B01      		movw r14,r22
  22 000e 8C01      		movw r16,r24
  23 0010 EA01      		movw r28,r20
  24 0012 622F      		mov r22,r18
  25               	.L3:
  26 0014 6430      		cpi r22,lo8(4)
  27 0016 00F4      		brsh .L4
  28 0018 E091 0000 		lds r30,rteList
  29 001c F091 0000 		lds r31,(rteList)+1
  30 0020 00C0      		rjmp .L6
  31               	.L7:
  32 0022 8681      		ldd r24,Z+6
  33 0024 9781      		ldd r25,Z+7
  34 0026 A085      		ldd r26,Z+8
  35 0028 B185      		ldd r27,Z+9
  36 002a 8E21      		and r24,r14
  37 002c 9F21      		and r25,r15
  38 002e A023      		and r26,r16
  39 0030 B123      		and r27,r17
  40 0032 2281      		ldd r18,Z+2
  41 0034 3381      		ldd r19,Z+3
  42 0036 4481      		ldd r20,Z+4
  43 0038 5581      		ldd r21,Z+5
  44 003a 8217      		cp r24,r18
  45 003c 9307      		cpc r25,r19
  46 003e A407      		cpc r26,r20
  47 0040 B507      		cpc r27,r21
  48 0042 01F0      		breq .L8
  49 0044 0190      		ld __tmp_reg__,Z+
  50 0046 F081      		ld r31,Z
  51 0048 E02D      		mov r30,__tmp_reg__
  52               	.L6:
  53 004a 3097      		sbiw r30,0
  54 004c 01F4      		brne .L7
  55 004e 00C0      		rjmp .L10
  56               	.L8:
  57 0050 2097      		sbiw r28,0
GAS LISTING C:\DOCUME~1\Arlind\LOCALS~1\Temp/ccG5vzV3.s 			page 2


  58 0052 01F0      		breq .L11
  59 0054 8285      		ldd r24,Z+10
  60 0056 9385      		ldd r25,Z+11
  61 0058 A485      		ldd r26,Z+12
  62 005a B585      		ldd r27,Z+13
  63 005c 0097      		sbiw r24,0
  64 005e A105      		cpc r26,__zero_reg__
  65 0060 B105      		cpc r27,__zero_reg__
  66 0062 01F0      		breq .L11
  67 0064 8883      		st Y,r24
  68 0066 9983      		std Y+1,r25
  69 0068 AA83      		std Y+2,r26
  70 006a BB83      		std Y+3,r27
  71               	.L11:
  72 006c 8685      		ldd r24,Z+14
  73 006e 9785      		ldd r25,Z+15
  74 0070 892B      		or r24,r25
  75 0072 01F4      		brne .L10
  76 0074 6F5F      		subi r22,lo8(-(1))
  77 0076 E284      		ldd r14,Z+10
  78 0078 F384      		ldd r15,Z+11
  79 007a 0485      		ldd r16,Z+12
  80 007c 1585      		ldd r17,Z+13
  81 007e 00C0      		rjmp .L3
  82               	.L4:
  83 0080 E0E0      		ldi r30,lo8(0)
  84 0082 F0E0      		ldi r31,hi8(0)
  85               	.L10:
  86 0084 CF01      		movw r24,r30
  87               	/* epilogue: frame size=0 */
  88 0086 DF91      		pop r29
  89 0088 CF91      		pop r28
  90 008a 1F91      		pop r17
  91 008c 0F91      		pop r16
  92 008e FF90      		pop r15
  93 0090 EF90      		pop r14
  94 0092 0895      		ret
  95               	/* epilogue end (size=7) */
  96               	/* function NutIpRouteRecQuery size 74 (61) */
  97               		.size	NutIpRouteRecQuery, .-NutIpRouteRecQuery
  98               	.global	NutIpRouteQuery
  99               		.type	NutIpRouteQuery, @function
 100               	NutIpRouteQuery:
 101               	/* prologue: frame size=0 */
 102               	/* prologue end (size=0) */
 103 0094 FA01      		movw r30,r20
 104 0096 452B      		or r20,r21
 105 0098 01F0      		breq .L17
 106 009a 1082      		st Z,__zero_reg__
 107 009c 1182      		std Z+1,__zero_reg__
 108 009e 1282      		std Z+2,__zero_reg__
 109 00a0 1382      		std Z+3,__zero_reg__
 110               	.L17:
 111 00a2 6F3F      		cpi r22,lo8(-1)
 112 00a4 2FEF      		ldi r18,hi8(-1)
 113 00a6 7207      		cpc r23,r18
 114 00a8 2FEF      		ldi r18,hlo8(-1)
GAS LISTING C:\DOCUME~1\Arlind\LOCALS~1\Temp/ccG5vzV3.s 			page 3


 115 00aa 8207      		cpc r24,r18
 116 00ac 2FEF      		ldi r18,hhi8(-1)
 117 00ae 9207      		cpc r25,r18
 118 00b0 01F4      		brne .L19
 119 00b2 E091 0000 		lds r30,rteList
 120 00b6 F091 0000 		lds r31,(rteList)+1
 121 00ba 00C0      		rjmp .L21
 122               	.L19:
 123 00bc 20E0      		ldi r18,lo8(0)
 124 00be AF01      		movw r20,r30
 125 00c0 0E94 0000 		call NutIpRouteRecQuery
 126 00c4 FC01      		movw r30,r24
 127               	.L21:
 128 00c6 3097      		sbiw r30,0
 129 00c8 01F4      		brne .L22
 130 00ca 80E0      		ldi r24,lo8(0)
 131 00cc 90E0      		ldi r25,hi8(0)
 132 00ce 0895      		ret
 133               	.L22:
 134 00d0 8685      		ldd r24,Z+14
 135 00d2 9785      		ldd r25,Z+15
 136 00d4 0895      		ret
 137               	/* epilogue: frame size=0 */
 138               	/* epilogue: noreturn */
 139               	/* epilogue end (size=0) */
 140               	/* function NutIpRouteQuery size 33 (33) */
 141               		.size	NutIpRouteQuery, .-NutIpRouteQuery
 142               	.global	NutIpRouteAdd
 143               		.type	NutIpRouteAdd, @function
 144               	NutIpRouteAdd:
 145               	/* prologue: frame size=4 */
 146 00d6 4F92      		push r4
 147 00d8 5F92      		push r5
 148 00da 6F92      		push r6
 149 00dc 7F92      		push r7
 150 00de 8F92      		push r8
 151 00e0 9F92      		push r9
 152 00e2 AF92      		push r10
 153 00e4 BF92      		push r11
 154 00e6 CF92      		push r12
 155 00e8 DF92      		push r13
 156 00ea EF92      		push r14
 157 00ec FF92      		push r15
 158 00ee 0F93      		push r16
 159 00f0 1F93      		push r17
 160 00f2 CF93      		push r28
 161 00f4 DF93      		push r29
 162 00f6 CDB7      		in r28,__SP_L__
 163 00f8 DEB7      		in r29,__SP_H__
 164 00fa 2497      		sbiw r28,4
 165 00fc 0FB6      		in __tmp_reg__,__SREG__
 166 00fe F894      		cli
 167 0100 DEBF      		out __SP_H__,r29
 168 0102 0FBE      		out __SREG__,__tmp_reg__
 169 0104 CDBF      		out __SP_L__,r28
 170               	/* prologue end (size=24) */
 171 0106 2B01      		movw r4,r22
GAS LISTING C:\DOCUME~1\Arlind\LOCALS~1\Temp/ccG5vzV3.s 			page 4


 172 0108 3C01      		movw r6,r24
 173 010a 4901      		movw r8,r18
 174 010c 5A01      		movw r10,r20
 175 010e E982      		std Y+1,r14
 176 0110 FA82      		std Y+2,r15
 177 0112 0B83      		std Y+3,r16
 178 0114 1C83      		std Y+4,r17
 179 0116 E090 0000 		lds r14,rteList
 180 011a F090 0000 		lds r15,(rteList)+1
 181 011e 00E0      		ldi r16,lo8(rteList)
 182 0120 10E0      		ldi r17,hi8(rteList)
 183 0122 00C0      		rjmp .L27
 184               	.L28:
 185 0124 8701      		movw r16,r14
 186 0126 D701      		movw r26,r14
 187 0128 ED90      		ld r14,X+
 188 012a FC90      		ld r15,X
 189               	.L27:
 190 012c E114      		cp r14,__zero_reg__
 191 012e F104      		cpc r15,__zero_reg__
 192 0130 01F0      		breq .L29
 193 0132 F701      		movw r30,r14
 194 0134 8681      		ldd r24,Z+6
 195 0136 9781      		ldd r25,Z+7
 196 0138 A085      		ldd r26,Z+8
 197 013a B185      		ldd r27,Z+9
 198 013c 8816      		cp r8,r24
 199 013e 9906      		cpc r9,r25
 200 0140 AA06      		cpc r10,r26
 201 0142 BB06      		cpc r11,r27
 202 0144 00F0      		brlo .L28
 203               	.L29:
 204 0146 80E1      		ldi r24,lo8(16)
 205 0148 90E0      		ldi r25,hi8(16)
 206 014a 0E94 0000 		call NutHeapAlloc
 207 014e 9C01      		movw r18,r24
 208 0150 0097      		sbiw r24,0
 209 0152 01F4      		brne .L31
 210 0154 8FEF      		ldi r24,lo8(-1)
 211 0156 9FEF      		ldi r25,hi8(-1)
 212 0158 00C0      		rjmp .L33
 213               	.L31:
 214 015a 4820      		and r4,r8
 215 015c 5920      		and r5,r9
 216 015e 6A20      		and r6,r10
 217 0160 7B20      		and r7,r11
 218 0162 FC01      		movw r30,r24
 219 0164 4282      		std Z+2,r4
 220 0166 5382      		std Z+3,r5
 221 0168 6482      		std Z+4,r6
 222 016a 7582      		std Z+5,r7
 223 016c 8682      		std Z+6,r8
 224 016e 9782      		std Z+7,r9
 225 0170 A086      		std Z+8,r10
 226 0172 B186      		std Z+9,r11
 227 0174 8981      		ldd r24,Y+1
 228 0176 9A81      		ldd r25,Y+2
GAS LISTING C:\DOCUME~1\Arlind\LOCALS~1\Temp/ccG5vzV3.s 			page 5


 229 0178 AB81      		ldd r26,Y+3
 230 017a BC81      		ldd r27,Y+4
 231 017c 8287      		std Z+10,r24
 232 017e 9387      		std Z+11,r25
 233 0180 A487      		std Z+12,r26
 234 0182 B587      		std Z+13,r27
 235 0184 D786      		std Z+15,r13
 236 0186 C686      		std Z+14,r12
 237 0188 F182      		std Z+1,r15
 238 018a E082      		st Z,r14
 239 018c D801      		movw r26,r16
 240 018e 2D93      		st X+,r18
 241 0190 3C93      		st X,r19
 242 0192 80E0      		ldi r24,lo8(0)
 243 0194 90E0      		ldi r25,hi8(0)
 244               	.L33:
 245               	/* epilogue: frame size=4 */
 246 0196 2496      		adiw r28,4
 247 0198 0FB6      		in __tmp_reg__,__SREG__
 248 019a F894      		cli
 249 019c DEBF      		out __SP_H__,r29
 250 019e 0FBE      		out __SREG__,__tmp_reg__
 251 01a0 CDBF      		out __SP_L__,r28
 252 01a2 DF91      		pop r29
 253 01a4 CF91      		pop r28
 254 01a6 1F91      		pop r17
 255 01a8 0F91      		pop r16
 256 01aa FF90      		pop r15
 257 01ac EF90      		pop r14
 258 01ae DF90      		pop r13
 259 01b0 CF90      		pop r12
 260 01b2 BF90      		pop r11
 261 01b4 AF90      		pop r10
 262 01b6 9F90      		pop r9
 263 01b8 8F90      		pop r8
 264 01ba 7F90      		pop r7
 265 01bc 6F90      		pop r6
 266 01be 5F90      		pop r5
 267 01c0 4F90      		pop r4
 268 01c2 0895      		ret
 269               	/* epilogue end (size=23) */
 270               	/* function NutIpRouteAdd size 119 (72) */
 271               		.size	NutIpRouteAdd, .-NutIpRouteAdd
 272               	.global	NutIpRouteList
 273               		.type	NutIpRouteList, @function
 274               	NutIpRouteList:
 275               	/* prologue: frame size=0 */
 276 01c4 CF93      		push r28
 277 01c6 DF93      		push r29
 278               	/* prologue end (size=2) */
 279 01c8 EC01      		movw r28,r24
 280 01ca 1982      		std Y+1,__zero_reg__
 281 01cc 1882      		st Y,__zero_reg__
 282 01ce E091 0000 		lds r30,rteList
 283 01d2 F091 0000 		lds r31,(rteList)+1
 284 01d6 00C0      		rjmp .L36
 285               	.L37:
GAS LISTING C:\DOCUME~1\Arlind\LOCALS~1\Temp/ccG5vzV3.s 			page 6


 286 01d8 0196      		adiw r24,1
 287 01da 9983      		std Y+1,r25
 288 01dc 8883      		st Y,r24
 289 01de 0190      		ld __tmp_reg__,Z+
 290 01e0 F081      		ld r31,Z
 291 01e2 E02D      		mov r30,__tmp_reg__
 292               	.L36:
 293 01e4 8881      		ld r24,Y
 294 01e6 9981      		ldd r25,Y+1
 295 01e8 3097      		sbiw r30,0
 296 01ea 01F4      		brne .L37
 297 01ec 24E0      		ldi r18,4
 298 01ee 880F      	1:	lsl r24
 299 01f0 991F      		rol r25
 300 01f2 2A95      		dec r18
 301 01f4 01F4      		brne 1b
 302 01f6 0E94 0000 		call NutHeapAlloc
 303 01fa 0097      		sbiw r24,0
 304 01fc 01F0      		breq .L39
 305 01fe E091 0000 		lds r30,rteList
 306 0202 F091 0000 		lds r31,(rteList)+1
 307 0206 00C0      		rjmp .L41
 308               	.L42:
 309 0208 EC01      		movw r28,r24
 310 020a DF01      		movw r26,r30
 311 020c 20E1      		ldi r18,lo8(16)
 312               	.L43:
 313 020e 0D90      		ld r0,X+
 314 0210 0992      		st Y+,r0
 315 0212 2150      		subi r18,lo8(-(-1))
 316 0214 01F4      		brne .L43
 317 0216 4096      		adiw r24,16
 318 0218 0190      		ld __tmp_reg__,Z+
 319 021a F081      		ld r31,Z
 320 021c E02D      		mov r30,__tmp_reg__
 321               	.L41:
 322 021e 3097      		sbiw r30,0
 323 0220 01F4      		brne .L42
 324 0222 00C0      		rjmp .L44
 325               	.L39:
 326 0224 1982      		std Y+1,__zero_reg__
 327 0226 1882      		st Y,__zero_reg__
 328               	.L44:
 329               	/* epilogue: frame size=0 */
 330 0228 DF91      		pop r29
 331 022a CF91      		pop r28
 332 022c 0895      		ret
 333               	/* epilogue end (size=3) */
 334               	/* function NutIpRouteList size 54 (49) */
 335               		.size	NutIpRouteList, .-NutIpRouteList
 336               	.global	NutIpRouteDel
 337               		.type	NutIpRouteDel, @function
 338               	NutIpRouteDel:
 339               	/* prologue: frame size=0 */
 340 022e 4F92      		push r4
 341 0230 5F92      		push r5
 342 0232 6F92      		push r6
GAS LISTING C:\DOCUME~1\Arlind\LOCALS~1\Temp/ccG5vzV3.s 			page 7


 343 0234 7F92      		push r7
 344 0236 8F92      		push r8
 345 0238 9F92      		push r9
 346 023a AF92      		push r10
 347 023c BF92      		push r11
 348 023e CF92      		push r12
 349 0240 DF92      		push r13
 350 0242 EF92      		push r14
 351 0244 FF92      		push r15
 352 0246 0F93      		push r16
 353 0248 1F93      		push r17
 354               	/* prologue end (size=14) */
 355 024a 2B01      		movw r4,r22
 356 024c 3C01      		movw r6,r24
 357 024e 4901      		movw r8,r18
 358 0250 5A01      		movw r10,r20
 359 0252 2FEF      		ldi r18,lo8(-1)
 360 0254 3FEF      		ldi r19,hi8(-1)
 361 0256 00C0      		rjmp .L49
 362               	.L50:
 363 0258 8281      		ldd r24,Z+2
 364 025a 9381      		ldd r25,Z+3
 365 025c A481      		ldd r26,Z+4
 366 025e B581      		ldd r27,Z+5
 367 0260 8415      		cp r24,r4
 368 0262 9505      		cpc r25,r5
 369 0264 A605      		cpc r26,r6
 370 0266 B705      		cpc r27,r7
 371 0268 01F4      		brne .L51
 372 026a 8681      		ldd r24,Z+6
 373 026c 9781      		ldd r25,Z+7
 374 026e A085      		ldd r26,Z+8
 375 0270 B185      		ldd r27,Z+9
 376 0272 8815      		cp r24,r8
 377 0274 9905      		cpc r25,r9
 378 0276 AA05      		cpc r26,r10
 379 0278 BB05      		cpc r27,r11
 380 027a 01F4      		brne .L51
 381 027c 8285      		ldd r24,Z+10
 382 027e 9385      		ldd r25,Z+11
 383 0280 A485      		ldd r26,Z+12
 384 0282 B585      		ldd r27,Z+13
 385 0284 8E15      		cp r24,r14
 386 0286 9F05      		cpc r25,r15
 387 0288 A007      		cpc r26,r16
 388 028a B107      		cpc r27,r17
 389 028c 01F4      		brne .L51
 390 028e 8685      		ldd r24,Z+14
 391 0290 9785      		ldd r25,Z+15
 392 0292 8C15      		cp r24,r12
 393 0294 9D05      		cpc r25,r13
 394 0296 01F4      		brne .L51
 395 0298 8081      		ld r24,Z
 396 029a 9181      		ldd r25,Z+1
 397 029c 9093 0000 		sts (rteList)+1,r25
 398 02a0 8093 0000 		sts rteList,r24
 399 02a4 CF01      		movw r24,r30
GAS LISTING C:\DOCUME~1\Arlind\LOCALS~1\Temp/ccG5vzV3.s 			page 8


 400 02a6 0E94 0000 		call NutHeapFree
 401 02aa 20E0      		ldi r18,lo8(0)
 402 02ac 30E0      		ldi r19,hi8(0)
 403               	.L51:
 404 02ae E091 0000 		lds r30,rteList
 405 02b2 F091 0000 		lds r31,(rteList)+1
 406 02b6 8081      		ld r24,Z
 407 02b8 9181      		ldd r25,Z+1
 408 02ba 9093 0000 		sts (rteList)+1,r25
 409 02be 8093 0000 		sts rteList,r24
 410               	.L49:
 411 02c2 E091 0000 		lds r30,rteList
 412 02c6 F091 0000 		lds r31,(rteList)+1
 413 02ca 3097      		sbiw r30,0
 414 02cc 01F4      		brne .L50
 415 02ce C901      		movw r24,r18
 416               	/* epilogue: frame size=0 */
 417 02d0 1F91      		pop r17
 418 02d2 0F91      		pop r16
 419 02d4 FF90      		pop r15
 420 02d6 EF90      		pop r14
 421 02d8 DF90      		pop r13
 422 02da CF90      		pop r12
 423 02dc BF90      		pop r11
 424 02de AF90      		pop r10
 425 02e0 9F90      		pop r9
 426 02e2 8F90      		pop r8
 427 02e4 7F90      		pop r7
 428 02e6 6F90      		pop r6
 429 02e8 5F90      		pop r5
 430 02ea 4F90      		pop r4
 431 02ec 0895      		ret
 432               	/* epilogue end (size=15) */
 433               	/* function NutIpRouteDel size 96 (67) */
 434               		.size	NutIpRouteDel, .-NutIpRouteDel
 435               	.global	NutIpRouteDelAll
 436               		.type	NutIpRouteDelAll, @function
 437               	NutIpRouteDelAll:
 438               	/* prologue: frame size=0 */
 439 02ee CF93      		push r28
 440 02f0 DF93      		push r29
 441               	/* prologue end (size=2) */
 442 02f2 EC01      		movw r28,r24
 443 02f4 00C0      		rjmp .L71
 444               	.L60:
 445 02f6 8685      		ldd r24,Z+14
 446 02f8 9785      		ldd r25,Z+15
 447 02fa 8C17      		cp r24,r28
 448 02fc 9D07      		cpc r25,r29
 449 02fe 01F0      		breq .L61
 450 0300 2097      		sbiw r28,0
 451 0302 01F4      		brne .L63
 452               	.L61:
 453 0304 8081      		ld r24,Z
 454 0306 9181      		ldd r25,Z+1
 455 0308 9093 0000 		sts (rteList)+1,r25
 456 030c 8093 0000 		sts rteList,r24
GAS LISTING C:\DOCUME~1\Arlind\LOCALS~1\Temp/ccG5vzV3.s 			page 9


 457 0310 CF01      		movw r24,r30
 458 0312 0E94 0000 		call NutHeapFree
 459 0316 00C0      		rjmp .L71
 460               	.L63:
 461 0318 8081      		ld r24,Z
 462 031a 9181      		ldd r25,Z+1
 463 031c 9093 0000 		sts (rteList)+1,r25
 464 0320 8093 0000 		sts rteList,r24
 465               	.L71:
 466 0324 E091 0000 		lds r30,rteList
 467 0328 F091 0000 		lds r31,(rteList)+1
 468 032c 3097      		sbiw r30,0
 469 032e 01F4      		brne .L60
 470 0330 80E0      		ldi r24,lo8(0)
 471 0332 90E0      		ldi r25,hi8(0)
 472               	/* epilogue: frame size=0 */
 473 0334 DF91      		pop r29
 474 0336 CF91      		pop r28
 475 0338 0895      		ret
 476               	/* epilogue end (size=3) */
 477               	/* function NutIpRouteDelAll size 38 (33) */
 478               		.size	NutIpRouteDelAll, .-NutIpRouteDelAll
 479               		.comm rteList,2,1
 480               	/* File "C:/ethernut-4.3.3/nut/net/route.c": code  414 = 0x019e ( 315), prologues  48, epilogues  5
GAS LISTING C:\DOCUME~1\Arlind\LOCALS~1\Temp/ccG5vzV3.s 			page 10


DEFINED SYMBOLS
                            *ABS*:00000000 route.c
C:\DOCUME~1\Arlind\LOCALS~1\Temp/ccG5vzV3.s:3      *ABS*:0000003f __SREG__
C:\DOCUME~1\Arlind\LOCALS~1\Temp/ccG5vzV3.s:4      *ABS*:0000003e __SP_H__
C:\DOCUME~1\Arlind\LOCALS~1\Temp/ccG5vzV3.s:5      *ABS*:0000003d __SP_L__
C:\DOCUME~1\Arlind\LOCALS~1\Temp/ccG5vzV3.s:6      *ABS*:00000000 __tmp_reg__
C:\DOCUME~1\Arlind\LOCALS~1\Temp/ccG5vzV3.s:7      *ABS*:00000001 __zero_reg__
C:\DOCUME~1\Arlind\LOCALS~1\Temp/ccG5vzV3.s:12     .text:00000000 NutIpRouteRecQuery
                            *COM*:00000002 rteList
C:\DOCUME~1\Arlind\LOCALS~1\Temp/ccG5vzV3.s:100    .text:00000094 NutIpRouteQuery
C:\DOCUME~1\Arlind\LOCALS~1\Temp/ccG5vzV3.s:144    .text:000000d6 NutIpRouteAdd
C:\DOCUME~1\Arlind\LOCALS~1\Temp/ccG5vzV3.s:274    .text:000001c4 NutIpRouteList
C:\DOCUME~1\Arlind\LOCALS~1\Temp/ccG5vzV3.s:338    .text:0000022e NutIpRouteDel
C:\DOCUME~1\Arlind\LOCALS~1\Temp/ccG5vzV3.s:437    .text:000002ee NutIpRouteDelAll

UNDEFINED SYMBOLS
__do_copy_data
__do_clear_bss
NutHeapAlloc
NutHeapFree
