GAS LISTING C:\DOCUME~1\Arlind\LOCALS~1\Temp/ccZ96tfV.s 			page 1


   1               		.file	"tcpsock.c"
   2               		.arch atmega2561
   3               	__SREG__ = 0x3f
   4               	__SP_H__ = 0x3e
   5               	__SP_L__ = 0x3d
   6               	__tmp_reg__ = 0
   7               	__zero_reg__ = 1
   8               		.global __do_copy_data
   9               		.global __do_clear_bss
  10               		.text
  11               	.global	NutTcpFindSocket
  12               		.type	NutTcpFindSocket, @function
  13               	NutTcpFindSocket:
  14               	/* prologue: frame size=0 */
  15 0000 0F93      		push r16
  16 0002 1F93      		push r17
  17 0004 CF93      		push r28
  18 0006 DF93      		push r29
  19               	/* prologue end (size=4) */
  20 0008 8C01      		movw r16,r24
  21 000a C091 0000 		lds r28,tcpSocketList
  22 000e D091 0000 		lds r29,(tcpSocketList)+1
  23 0012 FE01      		movw r30,r28
  24 0014 00C0      		rjmp .L2
  25               	.L3:
  26 0016 808D      		ldd r24,Z+24
  27 0018 918D      		ldd r25,Z+25
  28 001a 8017      		cp r24,r16
  29 001c 9107      		cpc r25,r17
  30 001e 01F4      		brne .L4
  31 0020 828D      		ldd r24,Z+26
  32 0022 938D      		ldd r25,Z+27
  33 0024 A48D      		ldd r26,Z+28
  34 0026 B58D      		ldd r27,Z+29
  35 0028 8217      		cp r24,r18
  36 002a 9307      		cpc r25,r19
  37 002c A407      		cpc r26,r20
  38 002e B507      		cpc r27,r21
  39 0030 01F4      		brne .L4
  40 0032 868D      		ldd r24,Z+30
  41 0034 978D      		ldd r25,Z+31
  42 0036 8617      		cp r24,r22
  43 0038 9707      		cpc r25,r23
  44 003a 01F4      		brne .L4
  45 003c 8389      		ldd r24,Z+19
  46 003e 8823      		tst r24
  47 0040 01F0      		breq .L4
  48 0042 CF01      		movw r24,r30
  49 0044 00C0      		rjmp .L9
  50               	.L4:
  51 0046 0190      		ld __tmp_reg__,Z+
  52 0048 F081      		ld r31,Z
  53 004a E02D      		mov r30,__tmp_reg__
  54               	.L2:
  55 004c 3097      		sbiw r30,0
  56 004e 01F4      		brne .L3
  57 0050 00C0      		rjmp .L17
GAS LISTING C:\DOCUME~1\Arlind\LOCALS~1\Temp/ccZ96tfV.s 			page 2


  58               	.L11:
  59 0052 8B89      		ldd r24,Y+19
  60 0054 8130      		cpi r24,lo8(1)
  61 0056 01F4      		brne .L12
  62 0058 888D      		ldd r24,Y+24
  63 005a 998D      		ldd r25,Y+25
  64 005c 8017      		cp r24,r16
  65 005e 9107      		cpc r25,r17
  66 0060 01F4      		brne .L12
  67 0062 CE01      		movw r24,r28
  68 0064 00C0      		rjmp .L9
  69               	.L12:
  70 0066 0990      		ld __tmp_reg__,Y+
  71 0068 D881      		ld r29,Y
  72 006a C02D      		mov r28,__tmp_reg__
  73               	.L17:
  74 006c 2097      		sbiw r28,0
  75 006e 01F4      		brne .L11
  76 0070 80E0      		ldi r24,lo8(0)
  77 0072 90E0      		ldi r25,hi8(0)
  78               	.L9:
  79               	/* epilogue: frame size=0 */
  80 0074 DF91      		pop r29
  81 0076 CF91      		pop r28
  82 0078 1F91      		pop r17
  83 007a 0F91      		pop r16
  84 007c 0895      		ret
  85               	/* epilogue end (size=5) */
  86               	/* function NutTcpFindSocket size 63 (54) */
  87               		.size	NutTcpFindSocket, .-NutTcpFindSocket
  88               	.global	NutTcpGetSockOpt
  89               		.type	NutTcpGetSockOpt, @function
  90               	NutTcpGetSockOpt:
  91               	/* prologue: frame size=0 */
  92 007e CF93      		push r28
  93 0080 DF93      		push r29
  94               	/* prologue end (size=2) */
  95 0082 FC01      		movw r30,r24
  96 0084 EA01      		movw r28,r20
  97 0086 892B      		or r24,r25
  98 0088 01F4      		brne .+2
  99 008a 00C0      		rjmp .L45
 100 008c 80E1      		ldi r24,hi8(4098)
 101 008e 6230      		cpi r22,lo8(4098)
 102 0090 7807      		cpc r23,r24
 103 0092 01F0      		breq .L25
 104 0094 80E1      		ldi r24,hi8(4099)
 105 0096 6330      		cpi r22,lo8(4099)
 106 0098 7807      		cpc r23,r24
 107 009a 04F4      		brge .L28
 108 009c 6230      		cpi r22,2
 109 009e 7105      		cpc r23,__zero_reg__
 110 00a0 01F0      		breq .L23
 111 00a2 6150      		subi r22,lo8(4097)
 112 00a4 7041      		sbci r23,hi8(4097)
 113 00a6 01F0      		breq .+2
 114 00a8 00C0      		rjmp .L22
GAS LISTING C:\DOCUME~1\Arlind\LOCALS~1\Temp/ccZ96tfV.s 			page 3


 115 00aa 00C0      		rjmp .L24
 116               	.L28:
 117 00ac 80E1      		ldi r24,hi8(4101)
 118 00ae 6530      		cpi r22,lo8(4101)
 119 00b0 7807      		cpc r23,r24
 120 00b2 01F0      		breq .L26
 121 00b4 6650      		subi r22,lo8(4102)
 122 00b6 7041      		sbci r23,hi8(4102)
 123 00b8 01F4      		brne .L22
 124 00ba 00C0      		rjmp .L27
 125               	.L23:
 126 00bc 452B      		or r20,r21
 127 00be 01F0      		breq .L41
 128 00c0 2230      		cpi r18,2
 129 00c2 3105      		cpc r19,__zero_reg__
 130 00c4 01F4      		brne .L41
 131 00c6 EE5A      		subi r30,lo8(-(82))
 132 00c8 FF4F      		sbci r31,hi8(-(82))
 133 00ca 00C0      		rjmp .L50
 134               	.L25:
 135 00cc 452B      		or r20,r21
 136 00ce 01F0      		breq .L41
 137 00d0 2230      		cpi r18,2
 138 00d2 3105      		cpc r19,__zero_reg__
 139 00d4 01F4      		brne .L41
 140 00d6 E85B      		subi r30,lo8(-(72))
 141 00d8 FF4F      		sbci r31,hi8(-(72))
 142               	.L50:
 143 00da 8081      		ld r24,Z
 144 00dc 9181      		ldd r25,Z+1
 145 00de 00C0      		rjmp .L48
 146               	.L26:
 147 00e0 452B      		or r20,r21
 148 00e2 01F0      		breq .L41
 149 00e4 2430      		cpi r18,4
 150 00e6 3105      		cpc r19,__zero_reg__
 151 00e8 01F4      		brne .L41
 152 00ea E659      		subi r30,lo8(-(106))
 153 00ec FF4F      		sbci r31,hi8(-(106))
 154 00ee 00C0      		rjmp .L47
 155               	.L27:
 156 00f0 452B      		or r20,r21
 157 00f2 01F0      		breq .L41
 158 00f4 2430      		cpi r18,4
 159 00f6 3105      		cpc r19,__zero_reg__
 160 00f8 01F4      		brne .L41
 161 00fa EA59      		subi r30,lo8(-(102))
 162 00fc FF4F      		sbci r31,hi8(-(102))
 163               	.L47:
 164 00fe 8081      		ld r24,Z
 165 0100 9181      		ldd r25,Z+1
 166 0102 A281      		ldd r26,Z+2
 167 0104 B381      		ldd r27,Z+3
 168 0106 8883      		st Y,r24
 169 0108 9983      		std Y+1,r25
 170 010a AA83      		std Y+2,r26
 171 010c BB83      		std Y+3,r27
GAS LISTING C:\DOCUME~1\Arlind\LOCALS~1\Temp/ccZ96tfV.s 			page 4


 172 010e 00C0      		rjmp .L46
 173               	.L24:
 174 0110 452B      		or r20,r21
 175 0112 01F0      		breq .L41
 176 0114 2230      		cpi r18,2
 177 0116 3105      		cpc r19,__zero_reg__
 178 0118 01F0      		breq .L43
 179               	.L41:
 180 011a E05A      		subi r30,lo8(-(96))
 181 011c FF4F      		sbci r31,hi8(-(96))
 182 011e 86E1      		ldi r24,lo8(22)
 183 0120 90E0      		ldi r25,hi8(22)
 184 0122 00C0      		rjmp .L49
 185               	.L43:
 186 0124 8189      		ldd r24,Z+17
 187 0126 9289      		ldd r25,Z+18
 188               	.L48:
 189 0128 9983      		std Y+1,r25
 190 012a 8883      		st Y,r24
 191               	.L46:
 192 012c 80E0      		ldi r24,lo8(0)
 193 012e 90E0      		ldi r25,hi8(0)
 194 0130 00C0      		rjmp .L21
 195               	.L22:
 196 0132 E05A      		subi r30,lo8(-(96))
 197 0134 FF4F      		sbci r31,hi8(-(96))
 198 0136 8AE3      		ldi r24,lo8(10042)
 199 0138 97E2      		ldi r25,hi8(10042)
 200               	.L49:
 201 013a 9183      		std Z+1,r25
 202 013c 8083      		st Z,r24
 203               	.L45:
 204 013e 8FEF      		ldi r24,lo8(-1)
 205 0140 9FEF      		ldi r25,hi8(-1)
 206               	.L21:
 207               	/* epilogue: frame size=0 */
 208 0142 DF91      		pop r29
 209 0144 CF91      		pop r28
 210 0146 0895      		ret
 211               	/* epilogue end (size=3) */
 212               	/* function NutTcpGetSockOpt size 103 (98) */
 213               		.size	NutTcpGetSockOpt, .-NutTcpGetSockOpt
 214               	.global	NutTcpError
 215               		.type	NutTcpError, @function
 216               	NutTcpError:
 217               	/* prologue: frame size=0 */
 218               	/* prologue end (size=0) */
 219 0148 FC01      		movw r30,r24
 220 014a 892B      		or r24,r25
 221 014c 01F4      		brne .L52
 222 014e 86E3      		ldi r24,lo8(10038)
 223 0150 97E2      		ldi r25,hi8(10038)
 224 0152 0895      		ret
 225               	.L52:
 226 0154 E05A      		subi r30,lo8(-(96))
 227 0156 FF4F      		sbci r31,hi8(-(96))
 228 0158 8081      		ld r24,Z
GAS LISTING C:\DOCUME~1\Arlind\LOCALS~1\Temp/ccZ96tfV.s 			page 5


 229 015a 9181      		ldd r25,Z+1
 230 015c 0895      		ret
 231               	/* epilogue: frame size=0 */
 232               	/* epilogue: noreturn */
 233               	/* epilogue end (size=0) */
 234               	/* function NutTcpError size 11 (11) */
 235               		.size	NutTcpError, .-NutTcpError
 236               	.global	NutTcpDeviceIOCtl
 237               		.type	NutTcpDeviceIOCtl, @function
 238               	NutTcpDeviceIOCtl:
 239               	/* prologue: frame size=0 */
 240 015e CF93      		push r28
 241 0160 DF93      		push r29
 242               	/* prologue end (size=2) */
 243 0162 DC01      		movw r26,r24
 244 0164 EA01      		movw r28,r20
 245 0166 6A30      		cpi r22,10
 246 0168 7105      		cpc r23,__zero_reg__
 247 016a 01F0      		breq .L58
 248 016c 6A30      		cpi r22,10
 249 016e 7105      		cpc r23,__zero_reg__
 250 0170 04F0      		brlt .L57
 251 0172 6B30      		cpi r22,11
 252 0174 7105      		cpc r23,__zero_reg__
 253 0176 01F0      		breq .L59
 254 0178 6C30      		cpi r22,12
 255 017a 7105      		cpc r23,__zero_reg__
 256 017c 01F0      		breq .L58
 257               	.L57:
 258 017e 8FEF      		ldi r24,lo8(-1)
 259 0180 9FEF      		ldi r25,hi8(-1)
 260 0182 00C0      		rjmp .L60
 261               	.L58:
 262 0184 FD01      		movw r30,r26
 263 0186 E65B      		subi r30,lo8(-(74))
 264 0188 FF4F      		sbci r31,hi8(-(74))
 265 018a AA5B      		subi r26,lo8(-(70))
 266 018c BF4F      		sbci r27,hi8(-(70))
 267 018e 8D91      		ld r24,X+
 268 0190 9C91      		ld r25,X
 269 0192 2081      		ld r18,Z
 270 0194 3181      		ldd r19,Z+1
 271 0196 821B      		sub r24,r18
 272 0198 930B      		sbc r25,r19
 273 019a 00C0      		rjmp .L62
 274               	.L59:
 275 019c FC01      		movw r30,r24
 276 019e 8585      		ldd r24,Z+13
 277 01a0 9685      		ldd r25,Z+14
 278               	.L62:
 279 01a2 AA27      		clr r26
 280 01a4 BB27      		clr r27
 281 01a6 8883      		st Y,r24
 282 01a8 9983      		std Y+1,r25
 283 01aa AA83      		std Y+2,r26
 284 01ac BB83      		std Y+3,r27
 285 01ae 80E0      		ldi r24,lo8(0)
GAS LISTING C:\DOCUME~1\Arlind\LOCALS~1\Temp/ccZ96tfV.s 			page 6


 286 01b0 90E0      		ldi r25,hi8(0)
 287               	.L60:
 288               	/* epilogue: frame size=0 */
 289 01b2 DF91      		pop r29
 290 01b4 CF91      		pop r28
 291 01b6 0895      		ret
 292               	/* epilogue end (size=3) */
 293               	/* function NutTcpDeviceIOCtl size 45 (40) */
 294               		.size	NutTcpDeviceIOCtl, .-NutTcpDeviceIOCtl
 295               	.global	NutTcpDiscardBuffers
 296               		.type	NutTcpDiscardBuffers, @function
 297               	NutTcpDiscardBuffers:
 298               	/* prologue: frame size=0 */
 299 01b8 CF93      		push r28
 300 01ba DF93      		push r29
 301               	/* prologue end (size=2) */
 302 01bc EC01      		movw r28,r24
 303 01be 00C0      		rjmp .L64
 304               	.L65:
 305 01c0 8081      		ld r24,Z
 306 01c2 9181      		ldd r25,Z+1
 307 01c4 8D93      		st X+,r24
 308 01c6 9C93      		st X,r25
 309 01c8 CF01      		movw r24,r30
 310 01ca 0E94 0000 		call NutNetBufFree
 311               	.L64:
 312 01ce DE01      		movw r26,r28
 313 01d0 A45B      		subi r26,lo8(-(76))
 314 01d2 BF4F      		sbci r27,hi8(-(76))
 315 01d4 ED91      		ld r30,X+
 316 01d6 FC91      		ld r31,X
 317 01d8 1197      		sbiw r26,1
 318 01da 3097      		sbiw r30,0
 319 01dc 01F4      		brne .L65
 320 01de 00C0      		rjmp .L72
 321               	.L67:
 322 01e0 8081      		ld r24,Z
 323 01e2 9181      		ldd r25,Z+1
 324 01e4 99AF      		std Y+57,r25
 325 01e6 88AF      		std Y+56,r24
 326 01e8 CF01      		movw r24,r30
 327 01ea 0E94 0000 		call NutNetBufFree
 328               	.L72:
 329 01ee E8AD      		ldd r30,Y+56
 330 01f0 F9AD      		ldd r31,Y+57
 331 01f2 3097      		sbiw r30,0
 332 01f4 01F4      		brne .L67
 333 01f6 00C0      		rjmp .L73
 334               	.L69:
 335 01f8 8081      		ld r24,Z
 336 01fa 9181      		ldd r25,Z+1
 337 01fc 8D93      		st X+,r24
 338 01fe 9C93      		st X,r25
 339 0200 CF01      		movw r24,r30
 340 0202 0E94 0000 		call NutNetBufFree
 341               	.L73:
 342 0206 DE01      		movw r26,r28
GAS LISTING C:\DOCUME~1\Arlind\LOCALS~1\Temp/ccZ96tfV.s 			page 7


 343 0208 A05B      		subi r26,lo8(-(80))
 344 020a BF4F      		sbci r27,hi8(-(80))
 345 020c ED91      		ld r30,X+
 346 020e FC91      		ld r31,X
 347 0210 1197      		sbiw r26,1
 348 0212 3097      		sbiw r30,0
 349 0214 01F4      		brne .L69
 350               	/* epilogue: frame size=0 */
 351 0216 DF91      		pop r29
 352 0218 CF91      		pop r28
 353 021a 0895      		ret
 354               	/* epilogue end (size=3) */
 355               	/* function NutTcpDiscardBuffers size 50 (45) */
 356               		.size	NutTcpDiscardBuffers, .-NutTcpDiscardBuffers
 357               	.global	NutTcpReceive
 358               		.type	NutTcpReceive, @function
 359               	NutTcpReceive:
 360               	/* prologue: frame size=0 */
 361 021c 4F92      		push r4
 362 021e 5F92      		push r5
 363 0220 6F92      		push r6
 364 0222 7F92      		push r7
 365 0224 8F92      		push r8
 366 0226 9F92      		push r9
 367 0228 AF92      		push r10
 368 022a BF92      		push r11
 369 022c CF92      		push r12
 370 022e DF92      		push r13
 371 0230 EF92      		push r14
 372 0232 FF92      		push r15
 373 0234 0F93      		push r16
 374 0236 1F93      		push r17
 375 0238 CF93      		push r28
 376 023a DF93      		push r29
 377               	/* prologue end (size=16) */
 378 023c EC01      		movw r28,r24
 379 023e 2B01      		movw r4,r22
 380 0240 3A01      		movw r6,r20
 381 0242 0E94 0000 		call NutThreadYield
 382 0246 2097      		sbiw r28,0
 383 0248 01F0      		breq .L114
 384 024a 8B89      		ldd r24,Y+19
 385 024c 8430      		cpi r24,lo8(4)
 386 024e 01F0      		breq .L78
 387 0250 8B89      		ldd r24,Y+19
 388 0252 8530      		cpi r24,lo8(5)
 389 0254 01F0      		breq .L78
 390               	.L115:
 391 0256 C05A      		subi r28,lo8(-(96))
 392 0258 DF4F      		sbci r29,hi8(-(96))
 393 025a 89E4      		ldi r24,lo8(10057)
 394 025c 97E2      		ldi r25,hi8(10057)
 395 025e 9983      		std Y+1,r25
 396 0260 8883      		st Y,r24
 397               	.L114:
 398 0262 4FEF      		ldi r20,lo8(-1)
 399 0264 5FEF      		ldi r21,hi8(-1)
GAS LISTING C:\DOCUME~1\Arlind\LOCALS~1\Temp/ccZ96tfV.s 			page 8


 400 0266 00C0      		rjmp .L77
 401               	.L78:
 402 0268 4114      		cp r4,__zero_reg__
 403 026a 5104      		cpc r5,__zero_reg__
 404 026c 01F4      		brne .+2
 405 026e 00C0      		rjmp .L81
 406 0270 6114      		cp r6,__zero_reg__
 407 0272 7104      		cpc r7,__zero_reg__
 408 0274 01F4      		brne .L111
 409 0276 00C0      		rjmp .L81
 410               	.L84:
 411 0278 8B89      		ldd r24,Y+19
 412 027a 8430      		cpi r24,lo8(4)
 413 027c 01F4      		brne .L115
 414 027e CA59      		subi r28,lo8(-(102))
 415 0280 DF4F      		sbci r29,hi8(-(102))
 416 0282 4881      		ld r20,Y
 417 0284 5981      		ldd r21,Y+1
 418 0286 6A81      		ldd r22,Y+2
 419 0288 7B81      		ldd r23,Y+3
 420 028a C656      		subi r28,lo8(-(-102))
 421 028c D040      		sbci r29,hi8(-(-102))
 422 028e CE01      		movw r24,r28
 423 0290 825B      		subi r24,lo8(-(78))
 424 0292 9F4F      		sbci r25,hi8(-(78))
 425 0294 0E94 0000 		call NutEventWait
 426 0298 892B      		or r24,r25
 427 029a 01F0      		breq .+2
 428 029c 00C0      		rjmp .L81
 429               	.L111:
 430 029e CA5B      		subi r28,lo8(-(70))
 431 02a0 DF4F      		sbci r29,hi8(-(70))
 432 02a2 8881      		ld r24,Y
 433 02a4 9981      		ldd r25,Y+1
 434 02a6 2496      		adiw r28,4
 435 02a8 C880      		ld r12,Y
 436 02aa D980      		ldd r13,Y+1
 437 02ac CA54      		subi r28,lo8(-(-74))
 438 02ae D040      		sbci r29,hi8(-(-74))
 439 02b0 8C15      		cp r24,r12
 440 02b2 9D05      		cpc r25,r13
 441 02b4 01F0      		breq .L84
 442 02b6 8C19      		sub r24,r12
 443 02b8 9D09      		sbc r25,r13
 444 02ba 8615      		cp r24,r6
 445 02bc 9705      		cpc r25,r7
 446 02be 00F0      		brlo .L88
 447               	.L89:
 448 02c0 8824      		clr r8
 449 02c2 9924      		clr r9
 450 02c4 00C0      		rjmp .L116
 451               	.L88:
 452 02c6 0097      		sbiw r24,0
 453 02c8 01F4      		brne .L91
 454 02ca 6624      		clr r6
 455 02cc 7724      		clr r7
 456 02ce 00C0      		rjmp .L93
GAS LISTING C:\DOCUME~1\Arlind\LOCALS~1\Temp/ccZ96tfV.s 			page 9


 457               	.L91:
 458 02d0 3C01      		movw r6,r24
 459 02d2 00C0      		rjmp .L89
 460               	.L94:
 461 02d4 C45B      		subi r28,lo8(-(76))
 462 02d6 DF4F      		sbci r29,hi8(-(76))
 463 02d8 A880      		ld r10,Y
 464 02da B980      		ldd r11,Y+1
 465 02dc CC54      		subi r28,lo8(-(-76))
 466 02de D040      		sbci r29,hi8(-(-76))
 467 02e0 F501      		movw r30,r10
 468 02e2 0189      		ldd r16,Z+17
 469 02e4 1289      		ldd r17,Z+18
 470 02e6 0C19      		sub r16,r12
 471 02e8 1D09      		sbc r17,r13
 472 02ea 7301      		movw r14,r6
 473 02ec E818      		sub r14,r8
 474 02ee F908      		sbc r15,r9
 475 02f0 C201      		movw r24,r4
 476 02f2 880D      		add r24,r8
 477 02f4 991D      		adc r25,r9
 478 02f6 6785      		ldd r22,Z+15
 479 02f8 7089      		ldd r23,Z+16
 480 02fa 0E15      		cp r16,r14
 481 02fc 1F05      		cpc r17,r15
 482 02fe 00F4      		brsh .+2
 483 0300 00C0      		rjmp .L95
 484 0302 6C0D      		add r22,r12
 485 0304 7D1D      		adc r23,r13
 486 0306 A701      		movw r20,r14
 487 0308 0E94 0000 		call memcpy
 488 030c 8E0C      		add r8,r14
 489 030e 9F1C      		adc r9,r15
 490 0310 CE0C      		add r12,r14
 491 0312 DF1C      		adc r13,r15
 492 0314 E016      		cp r14,r16
 493 0316 F106      		cpc r15,r17
 494 0318 00F0      		brlo .L116
 495               	.L98:
 496 031a C45B      		subi r28,lo8(-(76))
 497 031c DF4F      		sbci r29,hi8(-(76))
 498 031e F501      		movw r30,r10
 499 0320 8081      		ld r24,Z
 500 0322 9181      		ldd r25,Z+1
 501 0324 9983      		std Y+1,r25
 502 0326 8883      		st Y,r24
 503 0328 CC54      		subi r28,lo8(-(-76))
 504 032a D040      		sbci r29,hi8(-(-76))
 505 032c FE01      		movw r30,r28
 506 032e EA5B      		subi r30,lo8(-(70))
 507 0330 FF4F      		sbci r31,hi8(-(70))
 508 0332 8081      		ld r24,Z
 509 0334 9181      		ldd r25,Z+1
 510 0336 8C19      		sub r24,r12
 511 0338 9D09      		sbc r25,r13
 512 033a 9183      		std Z+1,r25
 513 033c 8083      		st Z,r24
GAS LISTING C:\DOCUME~1\Arlind\LOCALS~1\Temp/ccZ96tfV.s 			page 10


 514 033e C501      		movw r24,r10
 515 0340 0E94 0000 		call NutNetBufFree
 516 0344 CC24      		clr r12
 517 0346 DD24      		clr r13
 518               	.L116:
 519 0348 8614      		cp r8,r6
 520 034a 9704      		cpc r9,r7
 521 034c 00F0      		brlo .L94
 522 034e C65B      		subi r28,lo8(-(74))
 523 0350 DF4F      		sbci r29,hi8(-(74))
 524 0352 D982      		std Y+1,r13
 525 0354 C882      		st Y,r12
 526 0356 CA54      		subi r28,lo8(-(-74))
 527 0358 D040      		sbci r29,hi8(-(-74))
 528 035a 8B89      		ldd r24,Y+19
 529 035c 8430      		cpi r24,lo8(4)
 530 035e 01F4      		brne .L93
 531 0360 FE01      		movw r30,r28
 532 0362 EC5B      		subi r30,lo8(-(68))
 533 0364 FF4F      		sbci r31,hi8(-(68))
 534 0366 4081      		ld r20,Z
 535 0368 5181      		ldd r21,Z+1
 536 036a 9A01      		movw r18,r20
 537 036c 260D      		add r18,r6
 538 036e 371D      		adc r19,r7
 539 0370 C85B      		subi r28,lo8(-(72))
 540 0372 DF4F      		sbci r29,hi8(-(72))
 541 0374 8881      		ld r24,Y
 542 0376 9981      		ldd r25,Y+1
 543 0378 C854      		subi r28,lo8(-(-72))
 544 037a D040      		sbci r29,hi8(-(-72))
 545 037c 2817      		cp r18,r24
 546 037e 3907      		cpc r19,r25
 547 0380 00F4      		brsh .L101
 548 0382 C901      		movw r24,r18
 549               	.L101:
 550 0384 CE5A      		subi r28,lo8(-(82))
 551 0386 DF4F      		sbci r29,hi8(-(82))
 552 0388 2881      		ld r18,Y
 553 038a 3981      		ldd r19,Y+1
 554 038c C255      		subi r28,lo8(-(-82))
 555 038e D040      		sbci r29,hi8(-(-82))
 556 0390 2417      		cp r18,r20
 557 0392 3507      		cpc r19,r21
 558 0394 00F0      		brlo .L102
 559 0396 2817      		cp r18,r24
 560 0398 3907      		cpc r19,r25
 561 039a 00F4      		brsh .L102
 562 039c 9183      		std Z+1,r25
 563 039e 8083      		st Z,r24
 564 03a0 CE01      		movw r24,r28
 565 03a2 0E94 0000 		call NutTcpStateWindowEvent
 566 03a6 00C0      		rjmp .L93
 567               	.L102:
 568 03a8 CC5B      		subi r28,lo8(-(68))
 569 03aa DF4F      		sbci r29,hi8(-(68))
 570 03ac 9983      		std Y+1,r25
GAS LISTING C:\DOCUME~1\Arlind\LOCALS~1\Temp/ccZ96tfV.s 			page 11


 571 03ae 8883      		st Y,r24
 572               	.L93:
 573 03b0 A301      		movw r20,r6
 574 03b2 00C0      		rjmp .L77
 575               	.L81:
 576 03b4 40E0      		ldi r20,lo8(0)
 577 03b6 50E0      		ldi r21,hi8(0)
 578 03b8 00C0      		rjmp .L77
 579               	.L95:
 580 03ba 6C0D      		add r22,r12
 581 03bc 7D1D      		adc r23,r13
 582 03be A801      		movw r20,r16
 583 03c0 0E94 0000 		call memcpy
 584 03c4 800E      		add r8,r16
 585 03c6 911E      		adc r9,r17
 586 03c8 C00E      		add r12,r16
 587 03ca D11E      		adc r13,r17
 588 03cc 00C0      		rjmp .L98
 589               	.L77:
 590 03ce CA01      		movw r24,r20
 591               	/* epilogue: frame size=0 */
 592 03d0 DF91      		pop r29
 593 03d2 CF91      		pop r28
 594 03d4 1F91      		pop r17
 595 03d6 0F91      		pop r16
 596 03d8 FF90      		pop r15
 597 03da EF90      		pop r14
 598 03dc DF90      		pop r13
 599 03de CF90      		pop r12
 600 03e0 BF90      		pop r11
 601 03e2 AF90      		pop r10
 602 03e4 9F90      		pop r9
 603 03e6 8F90      		pop r8
 604 03e8 7F90      		pop r7
 605 03ea 6F90      		pop r6
 606 03ec 5F90      		pop r5
 607 03ee 4F90      		pop r4
 608 03f0 0895      		ret
 609               	/* epilogue end (size=17) */
 610               	/* function NutTcpReceive size 235 (202) */
 611               		.size	NutTcpReceive, .-NutTcpReceive
 612               	.global	NutTcpDeviceRead
 613               		.type	NutTcpDeviceRead, @function
 614               	NutTcpDeviceRead:
 615               	/* prologue: frame size=0 */
 616               	/* prologue end (size=0) */
 617 03f2 0E94 0000 		call NutTcpReceive
 618               	/* epilogue: frame size=0 */
 619 03f6 0895      		ret
 620               	/* epilogue end (size=1) */
 621               	/* function NutTcpDeviceRead size 3 (2) */
 622               		.size	NutTcpDeviceRead, .-NutTcpDeviceRead
 623               	.global	NutTcpSend
 624               		.type	NutTcpSend, @function
 625               	NutTcpSend:
 626               	/* prologue: frame size=0 */
 627 03f8 CF92      		push r12
GAS LISTING C:\DOCUME~1\Arlind\LOCALS~1\Temp/ccZ96tfV.s 			page 12


 628 03fa DF92      		push r13
 629 03fc EF92      		push r14
 630 03fe FF92      		push r15
 631 0400 0F93      		push r16
 632 0402 1F93      		push r17
 633 0404 CF93      		push r28
 634 0406 DF93      		push r29
 635               	/* prologue end (size=8) */
 636 0408 EC01      		movw r28,r24
 637 040a 6B01      		movw r12,r22
 638 040c 8A01      		movw r16,r20
 639 040e 0E94 0000 		call NutThreadYield
 640 0412 2097      		sbiw r28,0
 641 0414 01F4      		brne .+2
 642 0416 00C0      		rjmp .L137
 643 0418 C114      		cp r12,__zero_reg__
 644 041a D104      		cpc r13,__zero_reg__
 645 041c 01F4      		brne .+2
 646 041e 00C0      		rjmp .L122
 647 0420 0115      		cp r16,__zero_reg__
 648 0422 1105      		cpc r17,__zero_reg__
 649 0424 01F4      		brne .+2
 650 0426 00C0      		rjmp .L122
 651 0428 CE5A      		subi r28,lo8(-(82))
 652 042a DF4F      		sbci r29,hi8(-(82))
 653 042c E880      		ld r14,Y
 654 042e F980      		ldd r15,Y+1
 655 0430 C255      		subi r28,lo8(-(-82))
 656 0432 D040      		sbci r29,hi8(-(-82))
 657 0434 0E15      		cp r16,r14
 658 0436 1F05      		cpc r17,r15
 659 0438 00F4      		brsh .L136
 660 043a 7801      		movw r14,r16
 661               	.L136:
 662 043c 8B89      		ldd r24,Y+19
 663 043e 8430      		cpi r24,lo8(4)
 664 0440 01F4      		brne .L135
 665 0442 49A5      		ldd r20,Y+41
 666 0444 5AA5      		ldd r21,Y+42
 667 0446 8DA1      		ldd r24,Y+37
 668 0448 9EA1      		ldd r25,Y+38
 669 044a 481B      		sub r20,r24
 670 044c 590B      		sbc r21,r25
 671 044e 9A01      		movw r18,r20
 672 0450 3695      		lsr r19
 673 0452 2795      		ror r18
 674 0454 3695      		lsr r19
 675 0456 2795      		ror r18
 676 0458 CE5A      		subi r28,lo8(-(82))
 677 045a DF4F      		sbci r29,hi8(-(82))
 678 045c 8881      		ld r24,Y
 679 045e 9981      		ldd r25,Y+1
 680 0460 C255      		subi r28,lo8(-(-82))
 681 0462 D040      		sbci r29,hi8(-(-82))
 682 0464 2817      		cp r18,r24
 683 0466 3907      		cpc r19,r25
 684 0468 00F4      		brsh .L130
GAS LISTING C:\DOCUME~1\Arlind\LOCALS~1\Temp/ccZ96tfV.s 			page 13


 685 046a 8DA9      		ldd r24,Y+53
 686 046c 9EA9      		ldd r25,Y+54
 687 046e 841B      		sub r24,r20
 688 0470 950B      		sbc r25,r21
 689 0472 8E15      		cp r24,r14
 690 0474 9F05      		cpc r25,r15
 691 0476 00F4      		brsh .L132
 692               	.L130:
 693 0478 C659      		subi r28,lo8(-(106))
 694 047a DF4F      		sbci r29,hi8(-(106))
 695 047c 4881      		ld r20,Y
 696 047e 5981      		ldd r21,Y+1
 697 0480 6A81      		ldd r22,Y+2
 698 0482 7B81      		ldd r23,Y+3
 699 0484 CA56      		subi r28,lo8(-(-106))
 700 0486 D040      		sbci r29,hi8(-(-106))
 701 0488 CE01      		movw r24,r28
 702 048a CA96      		adiw r24,58
 703 048c 0E94 0000 		call NutEventWait
 704 0490 892B      		or r24,r25
 705 0492 01F4      		brne .L122
 706 0494 00C0      		rjmp .L136
 707               	.L132:
 708 0496 88A1      		ldd r24,Y+32
 709 0498 8061      		ori r24,lo8(16)
 710 049a 88A3      		std Y+32,r24
 711 049c A701      		movw r20,r14
 712 049e B601      		movw r22,r12
 713 04a0 CE01      		movw r24,r28
 714 04a2 0E94 0000 		call NutTcpOutput
 715 04a6 892B      		or r24,r25
 716 04a8 01F4      		brne .L137
 717 04aa A701      		movw r20,r14
 718 04ac 00C0      		rjmp .L129
 719               	.L135:
 720 04ae C05A      		subi r28,lo8(-(96))
 721 04b0 DF4F      		sbci r29,hi8(-(96))
 722 04b2 89E4      		ldi r24,lo8(10057)
 723 04b4 97E2      		ldi r25,hi8(10057)
 724 04b6 9983      		std Y+1,r25
 725 04b8 8883      		st Y,r24
 726               	.L137:
 727 04ba 4FEF      		ldi r20,lo8(-1)
 728 04bc 5FEF      		ldi r21,hi8(-1)
 729 04be 00C0      		rjmp .L129
 730               	.L122:
 731 04c0 40E0      		ldi r20,lo8(0)
 732 04c2 50E0      		ldi r21,hi8(0)
 733               	.L129:
 734 04c4 CA01      		movw r24,r20
 735               	/* epilogue: frame size=0 */
 736 04c6 DF91      		pop r29
 737 04c8 CF91      		pop r28
 738 04ca 1F91      		pop r17
 739 04cc 0F91      		pop r16
 740 04ce FF90      		pop r15
 741 04d0 EF90      		pop r14
GAS LISTING C:\DOCUME~1\Arlind\LOCALS~1\Temp/ccZ96tfV.s 			page 14


 742 04d2 DF90      		pop r13
 743 04d4 CF90      		pop r12
 744 04d6 0895      		ret
 745               	/* epilogue end (size=9) */
 746               	/* function NutTcpSend size 112 (95) */
 747               		.size	NutTcpSend, .-NutTcpSend
 748               		.type	SendBuffer, @function
 749               	SendBuffer:
 750               	/* prologue: frame size=0 */
 751 04d8 CF92      		push r12
 752 04da DF92      		push r13
 753 04dc EF92      		push r14
 754 04de FF92      		push r15
 755 04e0 0F93      		push r16
 756 04e2 1F93      		push r17
 757 04e4 CF93      		push r28
 758 04e6 DF93      		push r29
 759               	/* prologue end (size=8) */
 760 04e8 6C01      		movw r12,r24
 761 04ea 7B01      		movw r14,r22
 762 04ec 8A01      		movw r16,r20
 763 04ee C0E0      		ldi r28,lo8(0)
 764 04f0 D0E0      		ldi r29,hi8(0)
 765 04f2 00C0      		rjmp .L139
 766               	.L140:
 767 04f4 A801      		movw r20,r16
 768 04f6 4C1B      		sub r20,r28
 769 04f8 5D0B      		sbc r21,r29
 770 04fa B701      		movw r22,r14
 771 04fc 6C0F      		add r22,r28
 772 04fe 7D1F      		adc r23,r29
 773 0500 C601      		movw r24,r12
 774 0502 0E94 0000 		call NutTcpSend
 775 0506 1816      		cp __zero_reg__,r24
 776 0508 1906      		cpc __zero_reg__,r25
 777 050a 04F0      		brlt .L141
 778 050c CFEF      		ldi r28,lo8(-1)
 779 050e DFEF      		ldi r29,hi8(-1)
 780 0510 00C0      		rjmp .L143
 781               	.L141:
 782 0512 C80F      		add r28,r24
 783 0514 D91F      		adc r29,r25
 784               	.L139:
 785 0516 C017      		cp r28,r16
 786 0518 D107      		cpc r29,r17
 787 051a 04F0      		brlt .L140
 788               	.L143:
 789 051c CE01      		movw r24,r28
 790               	/* epilogue: frame size=0 */
 791 051e DF91      		pop r29
 792 0520 CF91      		pop r28
 793 0522 1F91      		pop r17
 794 0524 0F91      		pop r16
 795 0526 FF90      		pop r15
 796 0528 EF90      		pop r14
 797 052a DF90      		pop r13
 798 052c CF90      		pop r12
GAS LISTING C:\DOCUME~1\Arlind\LOCALS~1\Temp/ccZ96tfV.s 			page 15


 799 052e 0895      		ret
 800               	/* epilogue end (size=9) */
 801               	/* function SendBuffer size 44 (27) */
 802               		.size	SendBuffer, .-SendBuffer
 803               	.global	NutTcpDeviceWrite
 804               		.type	NutTcpDeviceWrite, @function
 805               	NutTcpDeviceWrite:
 806               	/* prologue: frame size=0 */
 807 0530 AF92      		push r10
 808 0532 BF92      		push r11
 809 0534 CF92      		push r12
 810 0536 DF92      		push r13
 811 0538 EF92      		push r14
 812 053a FF92      		push r15
 813 053c 0F93      		push r16
 814 053e 1F93      		push r17
 815 0540 CF93      		push r28
 816 0542 DF93      		push r29
 817               	/* prologue end (size=10) */
 818 0544 EC01      		movw r28,r24
 819 0546 5B01      		movw r10,r22
 820 0548 8A01      		movw r16,r20
 821 054a 892B      		or r24,r25
 822 054c 01F4      		brne .+2
 823 054e 00C0      		rjmp .L146
 824 0550 8B89      		ldd r24,Y+19
 825 0552 8430      		cpi r24,lo8(4)
 826 0554 01F0      		breq .L148
 827 0556 C05A      		subi r28,lo8(-(96))
 828 0558 DF4F      		sbci r29,hi8(-(96))
 829 055a 89E4      		ldi r24,lo8(10057)
 830 055c 97E2      		ldi r25,hi8(10057)
 831 055e 9983      		std Y+1,r25
 832 0560 8883      		st Y,r24
 833 0562 00C0      		rjmp .L146
 834               	.L148:
 835 0564 ED85      		ldd r30,Y+13
 836 0566 FE85      		ldd r31,Y+14
 837 0568 4115      		cp r20,__zero_reg__
 838 056a 5105      		cpc r21,__zero_reg__
 839 056c 01F4      		brne .L151
 840 056e 3097      		sbiw r30,0
 841 0570 01F4      		brne .+2
 842 0572 00C0      		rjmp .L150
 843 0574 6F85      		ldd r22,Y+15
 844 0576 7889      		ldd r23,Y+16
 845 0578 AF01      		movw r20,r30
 846 057a CE01      		movw r24,r28
 847 057c 0E94 0000 		call SendBuffer
 848 0580 2F85      		ldd r18,Y+15
 849 0582 3889      		ldd r19,Y+16
 850 0584 97FF      		sbrs r25,7
 851 0586 00C0      		rjmp .L154
 852 0588 C901      		movw r24,r18
 853 058a 00C0      		rjmp .L182
 854               	.L154:
 855 058c C901      		movw r24,r18
GAS LISTING C:\DOCUME~1\Arlind\LOCALS~1\Temp/ccZ96tfV.s 			page 16


 856 058e 0E94 0000 		call NutHeapFree
 857 0592 1E86      		std Y+14,__zero_reg__
 858 0594 1D86      		std Y+13,__zero_reg__
 859 0596 00C0      		rjmp .L150
 860               	.L151:
 861 0598 6B01      		movw r12,r22
 862 059a 6989      		ldd r22,Y+17
 863 059c 7A89      		ldd r23,Y+18
 864 059e 3097      		sbiw r30,0
 865 05a0 01F4      		brne .L156
 866 05a2 4617      		cp r20,r22
 867 05a4 5707      		cpc r21,r23
 868 05a6 00F4      		brsh .L158
 869 05a8 7A01      		movw r14,r20
 870 05aa 00C0      		rjmp .L160
 871               	.L158:
 872 05ac CA01      		movw r24,r20
 873 05ae 0E94 0000 		call __udivmodhi4
 874 05b2 7C01      		movw r14,r24
 875 05b4 6801      		movw r12,r16
 876 05b6 C81A      		sub r12,r24
 877 05b8 D90A      		sbc r13,r25
 878 05ba A601      		movw r20,r12
 879 05bc B501      		movw r22,r10
 880 05be CE01      		movw r24,r28
 881 05c0 0E94 0000 		call SendBuffer
 882 05c4 97FD      		sbrc r25,7
 883 05c6 00C0      		rjmp .L146
 884 05c8 E114      		cp r14,__zero_reg__
 885 05ca F104      		cpc r15,__zero_reg__
 886 05cc 01F4      		brne .+2
 887 05ce 00C0      		rjmp .L150
 888 05d0 CA0C      		add r12,r10
 889 05d2 DB1C      		adc r13,r11
 890               	.L160:
 891 05d4 8989      		ldd r24,Y+17
 892 05d6 9A89      		ldd r25,Y+18
 893 05d8 0E94 0000 		call NutHeapAlloc
 894 05dc 988B      		std Y+16,r25
 895 05de 8F87      		std Y+15,r24
 896 05e0 0097      		sbiw r24,0
 897 05e2 01F4      		brne .+2
 898 05e4 00C0      		rjmp .L146
 899 05e6 A701      		movw r20,r14
 900 05e8 B601      		movw r22,r12
 901 05ea 00C0      		rjmp .L181
 902               	.L156:
 903 05ec CF01      		movw r24,r30
 904 05ee 840F      		add r24,r20
 905 05f0 951F      		adc r25,r21
 906 05f2 2F85      		ldd r18,Y+15
 907 05f4 3889      		ldd r19,Y+16
 908 05f6 8617      		cp r24,r22
 909 05f8 9707      		cpc r25,r23
 910 05fa 00F4      		brsh .L165
 911 05fc B501      		movw r22,r10
 912 05fe CF01      		movw r24,r30
GAS LISTING C:\DOCUME~1\Arlind\LOCALS~1\Temp/ccZ96tfV.s 			page 17


 913 0600 820F      		add r24,r18
 914 0602 931F      		adc r25,r19
 915 0604 0E94 0000 		call memcpy
 916 0608 8D85      		ldd r24,Y+13
 917 060a 9E85      		ldd r25,Y+14
 918 060c 800F      		add r24,r16
 919 060e 911F      		adc r25,r17
 920 0610 9E87      		std Y+14,r25
 921 0612 8D87      		std Y+13,r24
 922 0614 00C0      		rjmp .L150
 923               	.L165:
 924 0616 7B01      		movw r14,r22
 925 0618 EE1A      		sub r14,r30
 926 061a FF0A      		sbc r15,r31
 927 061c A701      		movw r20,r14
 928 061e B501      		movw r22,r10
 929 0620 CF01      		movw r24,r30
 930 0622 820F      		add r24,r18
 931 0624 931F      		adc r25,r19
 932 0626 0E94 0000 		call memcpy
 933 062a 4989      		ldd r20,Y+17
 934 062c 5A89      		ldd r21,Y+18
 935 062e 6F85      		ldd r22,Y+15
 936 0630 7889      		ldd r23,Y+16
 937 0632 CE01      		movw r24,r28
 938 0634 0E94 0000 		call SendBuffer
 939 0638 9923      		tst r25
 940 063a 04F0      		brlt .L183
 941 063c 6501      		movw r12,r10
 942 063e CE0C      		add r12,r14
 943 0640 DF1C      		adc r13,r15
 944 0642 9801      		movw r18,r16
 945 0644 2E19      		sub r18,r14
 946 0646 3F09      		sbc r19,r15
 947 0648 6989      		ldd r22,Y+17
 948 064a 7A89      		ldd r23,Y+18
 949 064c 2617      		cp r18,r22
 950 064e 3707      		cpc r19,r23
 951 0650 00F0      		brlo .L171
 952 0652 C801      		movw r24,r16
 953 0654 0E94 0000 		call __udivmodhi4
 954 0658 7C01      		movw r14,r24
 955 065a 5901      		movw r10,r18
 956 065c A81A      		sub r10,r24
 957 065e B90A      		sbc r11,r25
 958 0660 A501      		movw r20,r10
 959 0662 B601      		movw r22,r12
 960 0664 CE01      		movw r24,r28
 961 0666 0E94 0000 		call SendBuffer
 962 066a 97FF      		sbrs r25,7
 963 066c 00C0      		rjmp .L173
 964               	.L183:
 965 066e 8F85      		ldd r24,Y+15
 966 0670 9889      		ldd r25,Y+16
 967               	.L182:
 968 0672 0E94 0000 		call NutHeapFree
 969 0676 1E86      		std Y+14,__zero_reg__
GAS LISTING C:\DOCUME~1\Arlind\LOCALS~1\Temp/ccZ96tfV.s 			page 18


 970 0678 1D86      		std Y+13,__zero_reg__
 971 067a 00C0      		rjmp .L146
 972               	.L173:
 973 067c CA0C      		add r12,r10
 974 067e DB1C      		adc r13,r11
 975 0680 00C0      		rjmp .L175
 976               	.L171:
 977 0682 7901      		movw r14,r18
 978               	.L175:
 979 0684 2F85      		ldd r18,Y+15
 980 0686 3889      		ldd r19,Y+16
 981 0688 E114      		cp r14,__zero_reg__
 982 068a F104      		cpc r15,__zero_reg__
 983 068c 01F0      		breq .L176
 984 068e A701      		movw r20,r14
 985 0690 B601      		movw r22,r12
 986 0692 C901      		movw r24,r18
 987               	.L181:
 988 0694 0E94 0000 		call memcpy
 989 0698 00C0      		rjmp .L179
 990               	.L176:
 991 069a C901      		movw r24,r18
 992 069c 0E94 0000 		call NutHeapFree
 993               	.L179:
 994 06a0 FE86      		std Y+14,r15
 995 06a2 ED86      		std Y+13,r14
 996 06a4 00C0      		rjmp .L150
 997               	.L146:
 998 06a6 0FEF      		ldi r16,lo8(-1)
 999 06a8 1FEF      		ldi r17,hi8(-1)
 1000               	.L150:
 1001 06aa C801      		movw r24,r16
 1002               	/* epilogue: frame size=0 */
 1003 06ac DF91      		pop r29
 1004 06ae CF91      		pop r28
 1005 06b0 1F91      		pop r17
 1006 06b2 0F91      		pop r16
 1007 06b4 FF90      		pop r15
 1008 06b6 EF90      		pop r14
 1009 06b8 DF90      		pop r13
 1010 06ba CF90      		pop r12
 1011 06bc BF90      		pop r11
 1012 06be AF90      		pop r10
 1013 06c0 0895      		ret
 1014               	/* epilogue end (size=11) */
 1015               	/* function NutTcpDeviceWrite size 202 (181) */
 1016               		.size	NutTcpDeviceWrite, .-NutTcpDeviceWrite
 1017               	.global	NutTcpDeviceWrite_P
 1018               		.type	NutTcpDeviceWrite_P, @function
 1019               	NutTcpDeviceWrite_P:
 1020               	/* prologue: frame size=0 */
 1021 06c2 CF92      		push r12
 1022 06c4 DF92      		push r13
 1023 06c6 EF92      		push r14
 1024 06c8 FF92      		push r15
 1025 06ca 0F93      		push r16
 1026 06cc 1F93      		push r17
GAS LISTING C:\DOCUME~1\Arlind\LOCALS~1\Temp/ccZ96tfV.s 			page 19


 1027 06ce CF93      		push r28
 1028 06d0 DF93      		push r29
 1029               	/* prologue end (size=8) */
 1030 06d2 6C01      		movw r12,r24
 1031 06d4 7B01      		movw r14,r22
 1032 06d6 EA01      		movw r28,r20
 1033 06d8 4115      		cp r20,__zero_reg__
 1034 06da 5105      		cpc r21,__zero_reg__
 1035 06dc 01F0      		breq .L185
 1036 06de CA01      		movw r24,r20
 1037 06e0 0E94 0000 		call NutHeapAlloc
 1038 06e4 8C01      		movw r16,r24
 1039 06e6 0097      		sbiw r24,0
 1040 06e8 01F0      		breq .L185
 1041 06ea AE01      		movw r20,r28
 1042 06ec B701      		movw r22,r14
 1043 06ee 0E94 0000 		call memcpy_P
 1044 06f2 AE01      		movw r20,r28
 1045 06f4 B801      		movw r22,r16
 1046 06f6 C601      		movw r24,r12
 1047 06f8 0E94 0000 		call NutTcpDeviceWrite
 1048 06fc EC01      		movw r28,r24
 1049 06fe C801      		movw r24,r16
 1050 0700 0E94 0000 		call NutHeapFree
 1051 0704 00C0      		rjmp .L188
 1052               	.L185:
 1053 0706 AE01      		movw r20,r28
 1054 0708 60E0      		ldi r22,lo8(0)
 1055 070a 70E0      		ldi r23,hi8(0)
 1056 070c C601      		movw r24,r12
 1057 070e 0E94 0000 		call NutTcpDeviceWrite
 1058 0712 EC01      		movw r28,r24
 1059               	.L188:
 1060 0714 CE01      		movw r24,r28
 1061               	/* epilogue: frame size=0 */
 1062 0716 DF91      		pop r29
 1063 0718 CF91      		pop r28
 1064 071a 1F91      		pop r17
 1065 071c 0F91      		pop r16
 1066 071e FF90      		pop r15
 1067 0720 EF90      		pop r14
 1068 0722 DF90      		pop r13
 1069 0724 CF90      		pop r12
 1070 0726 0895      		ret
 1071               	/* epilogue end (size=9) */
 1072               	/* function NutTcpDeviceWrite_P size 51 (34) */
 1073               		.size	NutTcpDeviceWrite_P, .-NutTcpDeviceWrite_P
 1074               	.global	NutTcpCloseSocket
 1075               		.type	NutTcpCloseSocket, @function
 1076               	NutTcpCloseSocket:
 1077               	/* prologue: frame size=0 */
 1078 0728 0F93      		push r16
 1079 072a 1F93      		push r17
 1080               	/* prologue end (size=2) */
 1081 072c 8C01      		movw r16,r24
 1082 072e 40E0      		ldi r20,lo8(0)
 1083 0730 50E0      		ldi r21,hi8(0)
GAS LISTING C:\DOCUME~1\Arlind\LOCALS~1\Temp/ccZ96tfV.s 			page 20


 1084 0732 60E0      		ldi r22,lo8(0)
 1085 0734 70E0      		ldi r23,hi8(0)
 1086 0736 0E94 0000 		call NutTcpDeviceWrite
 1087 073a C801      		movw r24,r16
 1088 073c 0E94 0000 		call NutTcpStateCloseEvent
 1089               	/* epilogue: frame size=0 */
 1090 0740 1F91      		pop r17
 1091 0742 0F91      		pop r16
 1092 0744 0895      		ret
 1093               	/* epilogue end (size=3) */
 1094               	/* function NutTcpCloseSocket size 15 (10) */
 1095               		.size	NutTcpCloseSocket, .-NutTcpCloseSocket
 1096               	.global	NutTcpSetSockOpt
 1097               		.type	NutTcpSetSockOpt, @function
 1098               	NutTcpSetSockOpt:
 1099               	/* prologue: frame size=0 */
 1100 0746 0F93      		push r16
 1101 0748 1F93      		push r17
 1102 074a CF93      		push r28
 1103 074c DF93      		push r29
 1104               	/* prologue end (size=4) */
 1105 074e EC01      		movw r28,r24
 1106 0750 8A01      		movw r16,r20
 1107 0752 892B      		or r24,r25
 1108 0754 01F4      		brne .+2
 1109 0756 00C0      		rjmp .L221
 1110 0758 80E1      		ldi r24,hi8(4098)
 1111 075a 6230      		cpi r22,lo8(4098)
 1112 075c 7807      		cpc r23,r24
 1113 075e 01F0      		breq .L199
 1114 0760 E0E1      		ldi r30,hi8(4099)
 1115 0762 6330      		cpi r22,lo8(4099)
 1116 0764 7E07      		cpc r23,r30
 1117 0766 04F4      		brge .L202
 1118 0768 6230      		cpi r22,2
 1119 076a 7105      		cpc r23,__zero_reg__
 1120 076c 01F0      		breq .L197
 1121 076e 6150      		subi r22,lo8(4097)
 1122 0770 7041      		sbci r23,hi8(4097)
 1123 0772 01F0      		breq .+2
 1124 0774 00C0      		rjmp .L196
 1125 0776 00C0      		rjmp .L198
 1126               	.L202:
 1127 0778 80E1      		ldi r24,hi8(4101)
 1128 077a 6530      		cpi r22,lo8(4101)
 1129 077c 7807      		cpc r23,r24
 1130 077e 01F0      		breq .L200
 1131 0780 6650      		subi r22,lo8(4102)
 1132 0782 7041      		sbci r23,hi8(4102)
 1133 0784 01F0      		breq .+2
 1134 0786 00C0      		rjmp .L196
 1135 0788 00C0      		rjmp .L201
 1136               	.L197:
 1137 078a 4115      		cp r20,__zero_reg__
 1138 078c 5105      		cpc r21,__zero_reg__
 1139 078e 01F4      		brne .+2
 1140 0790 00C0      		rjmp .L217
GAS LISTING C:\DOCUME~1\Arlind\LOCALS~1\Temp/ccZ96tfV.s 			page 21


 1141 0792 2230      		cpi r18,2
 1142 0794 3105      		cpc r19,__zero_reg__
 1143 0796 01F4      		brne .L217
 1144 0798 8B89      		ldd r24,Y+19
 1145 079a 8823      		tst r24
 1146 079c 01F0      		breq .L206
 1147 079e C05A      		subi r28,lo8(-(96))
 1148 07a0 DF4F      		sbci r29,hi8(-(96))
 1149 07a2 88E4      		ldi r24,lo8(10056)
 1150 07a4 97E2      		ldi r25,hi8(10056)
 1151 07a6 00C0      		rjmp .L225
 1152               	.L206:
 1153 07a8 CE5A      		subi r28,lo8(-(82))
 1154 07aa DF4F      		sbci r29,hi8(-(82))
 1155 07ac FA01      		movw r30,r20
 1156 07ae 8081      		ld r24,Z
 1157 07b0 9181      		ldd r25,Z+1
 1158 07b2 00C0      		rjmp .L224
 1159               	.L199:
 1160 07b4 4115      		cp r20,__zero_reg__
 1161 07b6 5105      		cpc r21,__zero_reg__
 1162 07b8 01F0      		breq .L217
 1163 07ba 2230      		cpi r18,2
 1164 07bc 3105      		cpc r19,__zero_reg__
 1165 07be 01F4      		brne .L217
 1166 07c0 FA01      		movw r30,r20
 1167 07c2 8081      		ld r24,Z
 1168 07c4 9181      		ldd r25,Z+1
 1169 07c6 C85B      		subi r28,lo8(-(72))
 1170 07c8 DF4F      		sbci r29,hi8(-(72))
 1171 07ca 9983      		std Y+1,r25
 1172 07cc 8883      		st Y,r24
 1173 07ce 2497      		sbiw r28,4
 1174               	.L224:
 1175 07d0 9983      		std Y+1,r25
 1176 07d2 8883      		st Y,r24
 1177 07d4 00C0      		rjmp .L222
 1178               	.L200:
 1179 07d6 452B      		or r20,r21
 1180 07d8 01F0      		breq .L217
 1181 07da 2430      		cpi r18,4
 1182 07dc 3105      		cpc r19,__zero_reg__
 1183 07de 01F4      		brne .L217
 1184 07e0 C659      		subi r28,lo8(-(106))
 1185 07e2 DF4F      		sbci r29,hi8(-(106))
 1186 07e4 00C0      		rjmp .L223
 1187               	.L201:
 1188 07e6 452B      		or r20,r21
 1189 07e8 01F0      		breq .L217
 1190 07ea 2430      		cpi r18,4
 1191 07ec 3105      		cpc r19,__zero_reg__
 1192 07ee 01F4      		brne .L217
 1193 07f0 CA59      		subi r28,lo8(-(102))
 1194 07f2 DF4F      		sbci r29,hi8(-(102))
 1195               	.L223:
 1196 07f4 F801      		movw r30,r16
 1197 07f6 8081      		ld r24,Z
GAS LISTING C:\DOCUME~1\Arlind\LOCALS~1\Temp/ccZ96tfV.s 			page 22


 1198 07f8 9181      		ldd r25,Z+1
 1199 07fa A281      		ldd r26,Z+2
 1200 07fc B381      		ldd r27,Z+3
 1201 07fe 8883      		st Y,r24
 1202 0800 9983      		std Y+1,r25
 1203 0802 AA83      		std Y+2,r26
 1204 0804 BB83      		std Y+3,r27
 1205 0806 00C0      		rjmp .L222
 1206               	.L198:
 1207 0808 452B      		or r20,r21
 1208 080a 01F0      		breq .L217
 1209 080c 2230      		cpi r18,2
 1210 080e 3105      		cpc r19,__zero_reg__
 1211 0810 01F0      		breq .L219
 1212               	.L217:
 1213 0812 C05A      		subi r28,lo8(-(96))
 1214 0814 DF4F      		sbci r29,hi8(-(96))
 1215 0816 86E1      		ldi r24,lo8(22)
 1216 0818 90E0      		ldi r25,hi8(22)
 1217 081a 00C0      		rjmp .L225
 1218               	.L219:
 1219 081c 40E0      		ldi r20,lo8(0)
 1220 081e 50E0      		ldi r21,hi8(0)
 1221 0820 60E0      		ldi r22,lo8(0)
 1222 0822 70E0      		ldi r23,hi8(0)
 1223 0824 CE01      		movw r24,r28
 1224 0826 0E94 0000 		call NutTcpDeviceWrite
 1225 082a F801      		movw r30,r16
 1226 082c 8081      		ld r24,Z
 1227 082e 9181      		ldd r25,Z+1
 1228 0830 9A8B      		std Y+18,r25
 1229 0832 898B      		std Y+17,r24
 1230               	.L222:
 1231 0834 80E0      		ldi r24,lo8(0)
 1232 0836 90E0      		ldi r25,hi8(0)
 1233 0838 00C0      		rjmp .L195
 1234               	.L196:
 1235 083a C05A      		subi r28,lo8(-(96))
 1236 083c DF4F      		sbci r29,hi8(-(96))
 1237 083e 8AE3      		ldi r24,lo8(10042)
 1238 0840 97E2      		ldi r25,hi8(10042)
 1239               	.L225:
 1240 0842 9983      		std Y+1,r25
 1241 0844 8883      		st Y,r24
 1242               	.L221:
 1243 0846 8FEF      		ldi r24,lo8(-1)
 1244 0848 9FEF      		ldi r25,hi8(-1)
 1245               	.L195:
 1246               	/* epilogue: frame size=0 */
 1247 084a DF91      		pop r29
 1248 084c CF91      		pop r28
 1249 084e 1F91      		pop r17
 1250 0850 0F91      		pop r16
 1251 0852 0895      		ret
 1252               	/* epilogue end (size=5) */
 1253               	/* function NutTcpSetSockOpt size 137 (128) */
 1254               		.size	NutTcpSetSockOpt, .-NutTcpSetSockOpt
GAS LISTING C:\DOCUME~1\Arlind\LOCALS~1\Temp/ccZ96tfV.s 			page 23


 1255               	.global	NutTcpCreateSocket
 1256               		.type	NutTcpCreateSocket, @function
 1257               	NutTcpCreateSocket:
 1258               	/* prologue: frame size=0 */
 1259 0854 CF93      		push r28
 1260 0856 DF93      		push r29
 1261               	/* prologue end (size=2) */
 1262 0858 8091 0000 		lds r24,tcpStateRunning
 1263 085c 8823      		tst r24
 1264 085e 01F4      		brne .L227
 1265 0860 0E94 0000 		call NutTcpInitStateMachine
 1266 0864 20E0      		ldi r18,lo8(0)
 1267 0866 892B      		or r24,r25
 1268 0868 01F4      		brne .L229
 1269 086a 21E0      		ldi r18,lo8(1)
 1270               	.L229:
 1271 086c 2093 0000 		sts tcpStateRunning,r18
 1272 0870 2223      		tst r18
 1273 0872 01F4      		brne .+2
 1274 0874 00C0      		rjmp .L230
 1275               	.L227:
 1276 0876 82E7      		ldi r24,lo8(114)
 1277 0878 90E0      		ldi r25,hi8(114)
 1278 087a 0E94 0000 		call NutHeapAllocClear
 1279 087e 0097      		sbiw r24,0
 1280 0880 01F4      		brne .+2
 1281 0882 00C0      		rjmp .L230
 1282 0884 EC01      		movw r28,r24
 1283 0886 1B8A      		std Y+19,__zero_reg__
 1284 0888 84E0      		ldi r24,lo8(4)
 1285 088a 8C83      		std Y+4,r24
 1286 088c 80E0      		ldi r24,lo8(gs(NutTcpDeviceRead))
 1287 088e 90E0      		ldi r25,hi8(gs(NutTcpDeviceRead))
 1288 0890 9E83      		std Y+6,r25
 1289 0892 8D83      		std Y+5,r24
 1290 0894 80E0      		ldi r24,lo8(gs(NutTcpDeviceWrite))
 1291 0896 90E0      		ldi r25,hi8(gs(NutTcpDeviceWrite))
 1292 0898 9887      		std Y+8,r25
 1293 089a 8F83      		std Y+7,r24
 1294 089c 80E0      		ldi r24,lo8(gs(NutTcpDeviceWrite_P))
 1295 089e 90E0      		ldi r25,hi8(gs(NutTcpDeviceWrite_P))
 1296 08a0 9A87      		std Y+10,r25
 1297 08a2 8987      		std Y+9,r24
 1298 08a4 80E0      		ldi r24,lo8(gs(NutTcpDeviceIOCtl))
 1299 08a6 90E0      		ldi r25,hi8(gs(NutTcpDeviceIOCtl))
 1300 08a8 9C87      		std Y+12,r25
 1301 08aa 8B87      		std Y+11,r24
 1302 08ac 0E94 0000 		call NutGetTickCount
 1303 08b0 69A3      		std Y+33,r22
 1304 08b2 7AA3      		std Y+34,r23
 1305 08b4 8BA3      		std Y+35,r24
 1306 08b6 9CA3      		std Y+36,r25
 1307 08b8 6DA3      		std Y+37,r22
 1308 08ba 7EA3      		std Y+38,r23
 1309 08bc 8FA3      		std Y+39,r24
 1310 08be 98A7      		std Y+40,r25
 1311 08c0 69A7      		std Y+41,r22
GAS LISTING C:\DOCUME~1\Arlind\LOCALS~1\Temp/ccZ96tfV.s 			page 24


 1312 08c2 7AA7      		std Y+42,r23
 1313 08c4 8BA7      		std Y+43,r24
 1314 08c6 9CA7      		std Y+44,r25
 1315 08c8 CC5B      		subi r28,lo8(-(68))
 1316 08ca DF4F      		sbci r29,hi8(-(68))
 1317 08cc 80E9      		ldi r24,lo8(3216)
 1318 08ce 9CE0      		ldi r25,hi8(3216)
 1319 08d0 9983      		std Y+1,r25
 1320 08d2 8883      		st Y,r24
 1321 08d4 2496      		adiw r28,4
 1322 08d6 9983      		std Y+1,r25
 1323 08d8 8883      		st Y,r24
 1324 08da 2A96      		adiw r28,10
 1325 08dc 28E1      		ldi r18,lo8(536)
 1326 08de 32E0      		ldi r19,hi8(536)
 1327 08e0 3983      		std Y+1,r19
 1328 08e2 2883      		st Y,r18
 1329 08e4 2696      		adiw r28,6
 1330 08e6 88EE      		ldi r24,lo8(1000)
 1331 08e8 93E0      		ldi r25,hi8(1000)
 1332 08ea 9983      		std Y+1,r25
 1333 08ec 8883      		st Y,r24
 1334 08ee C855      		subi r28,lo8(-(-88))
 1335 08f0 D040      		sbci r29,hi8(-(-88))
 1336 08f2 8091 0000 		lds r24,tcpSocketList
 1337 08f6 9091 0000 		lds r25,(tcpSocketList)+1
 1338 08fa 9983      		std Y+1,r25
 1339 08fc 8883      		st Y,r24
 1340 08fe 3A8B      		std Y+18,r19
 1341 0900 298B      		std Y+17,r18
 1342 0902 D093 0000 		sts (tcpSocketList)+1,r29
 1343 0906 C093 0000 		sts tcpSocketList,r28
 1344 090a 00C0      		rjmp .L232
 1345               	.L230:
 1346 090c C0E0      		ldi r28,lo8(0)
 1347 090e D0E0      		ldi r29,hi8(0)
 1348               	.L232:
 1349 0910 CE01      		movw r24,r28
 1350               	/* epilogue: frame size=0 */
 1351 0912 DF91      		pop r29
 1352 0914 CF91      		pop r28
 1353 0916 0895      		ret
 1354               	/* epilogue end (size=3) */
 1355               	/* function NutTcpCreateSocket size 98 (93) */
 1356               		.size	NutTcpCreateSocket, .-NutTcpCreateSocket
 1357               	.global	NutTcpDestroySocket
 1358               		.type	NutTcpDestroySocket, @function
 1359               	NutTcpDestroySocket:
 1360               	/* prologue: frame size=0 */
 1361 0918 CF93      		push r28
 1362 091a DF93      		push r29
 1363               	/* prologue end (size=2) */
 1364 091c EC01      		movw r28,r24
 1365 091e 8091 0000 		lds r24,tcpSocketList
 1366 0922 9091 0000 		lds r25,(tcpSocketList)+1
 1367 0926 E0E0      		ldi r30,lo8(tcpSocketList)
 1368 0928 F0E0      		ldi r31,hi8(tcpSocketList)
GAS LISTING C:\DOCUME~1\Arlind\LOCALS~1\Temp/ccZ96tfV.s 			page 25


 1369 092a 00C0      		rjmp .L235
 1370               	.L236:
 1371 092c 8C17      		cp r24,r28
 1372 092e 9D07      		cpc r25,r29
 1373 0930 01F0      		breq .L244
 1374 0932 FC01      		movw r30,r24
 1375 0934 8081      		ld r24,Z
 1376 0936 9181      		ldd r25,Z+1
 1377               	.L235:
 1378 0938 0097      		sbiw r24,0
 1379 093a 01F4      		brne .L236
 1380 093c 00C0      		rjmp .L243
 1381               	.L244:
 1382 093e 8881      		ld r24,Y
 1383 0940 9981      		ldd r25,Y+1
 1384 0942 9183      		std Z+1,r25
 1385 0944 8083      		st Z,r24
 1386 0946 CE01      		movw r24,r28
 1387 0948 0E94 0000 		call NutTcpDiscardBuffers
 1388 094c 8D85      		ldd r24,Y+13
 1389 094e 9E85      		ldd r25,Y+14
 1390 0950 892B      		or r24,r25
 1391 0952 01F0      		breq .L241
 1392 0954 8F85      		ldd r24,Y+15
 1393 0956 9889      		ldd r25,Y+16
 1394 0958 0E94 0000 		call NutHeapFree
 1395 095c 1E86      		std Y+14,__zero_reg__
 1396 095e 1D86      		std Y+13,__zero_reg__
 1397               	.L241:
 1398 0960 82E7      		ldi r24,lo8(114)
 1399 0962 FE01      		movw r30,r28
 1400 0964 1192      		st Z+,__zero_reg__
 1401 0966 8A95      	        dec r24
 1402 0968 01F4      		brne .-6
 1403 096a CE01      		movw r24,r28
 1404 096c 0E94 0000 		call NutHeapFree
 1405               	.L243:
 1406               	/* epilogue: frame size=0 */
 1407 0970 DF91      		pop r29
 1408 0972 CF91      		pop r28
 1409 0974 0895      		ret
 1410               	/* epilogue end (size=3) */
 1411               	/* function NutTcpDestroySocket size 47 (42) */
 1412               		.size	NutTcpDestroySocket, .-NutTcpDestroySocket
 1413               	.global	NutTcpAccept
 1414               		.type	NutTcpAccept, @function
 1415               	NutTcpAccept:
 1416               	/* prologue: frame size=0 */
 1417               	/* prologue end (size=0) */
 1418 0976 FC01      		movw r30,r24
 1419               	/* #APP */
 1420 0978 062E      		mov __tmp_reg__, r22
 1421 097a 672F      		mov r22, r23
 1422 097c 702D      		mov r23, __tmp_reg__
 1423               		
 1424               	/* #NOAPP */
 1425 097e 718F      		std Z+25,r23
GAS LISTING C:\DOCUME~1\Arlind\LOCALS~1\Temp/ccZ96tfV.s 			page 26


 1426 0980 608F      		std Z+24,r22
 1427 0982 0E94 0000 		call NutTcpStatePassiveOpenEvent
 1428               	/* epilogue: frame size=0 */
 1429 0986 0895      		ret
 1430               	/* epilogue end (size=1) */
 1431               	/* function NutTcpAccept size 14 (13) */
 1432               		.size	NutTcpAccept, .-NutTcpAccept
 1433               	.global	NutTcpConnect
 1434               		.type	NutTcpConnect, @function
 1435               	NutTcpConnect:
 1436               	/* prologue: frame size=0 */
 1437 0988 CF92      		push r12
 1438 098a DF92      		push r13
 1439 098c EF92      		push r14
 1440 098e FF92      		push r15
 1441 0990 0F93      		push r16
 1442 0992 1F93      		push r17
 1443 0994 CF93      		push r28
 1444 0996 DF93      		push r29
 1445               	/* prologue end (size=8) */
 1446 0998 EC01      		movw r28,r24
 1447 099a 6A01      		movw r12,r20
 1448 099c 7B01      		movw r14,r22
 1449 099e 8901      		movw r16,r18
 1450 09a0 892B      		or r24,r25
 1451 09a2 01F4      		brne .+2
 1452 09a4 00C0      		rjmp .L269
 1453 09a6 8B89      		ldd r24,Y+19
 1454 09a8 8130      		cpi r24,lo8(1)
 1455 09aa 01F4      		brne .L251
 1456 09ac C05A      		subi r28,lo8(-(96))
 1457 09ae DF4F      		sbci r29,hi8(-(96))
 1458 09b0 8DE3      		ldi r24,lo8(10045)
 1459 09b2 97E2      		ldi r25,hi8(10045)
 1460 09b4 00C0      		rjmp .L270
 1461               	.L251:
 1462 09b6 8B89      		ldd r24,Y+19
 1463 09b8 8823      		tst r24
 1464 09ba 01F0      		breq .L266
 1465 09bc C05A      		subi r28,lo8(-(96))
 1466 09be DF4F      		sbci r29,hi8(-(96))
 1467 09c0 88E4      		ldi r24,lo8(10056)
 1468 09c2 97E2      		ldi r25,hi8(10056)
 1469 09c4 00C0      		rjmp .L270
 1470               	.L266:
 1471 09c6 8091 0000 		lds r24,last_local_port
 1472 09ca 9091 0000 		lds r25,(last_local_port)+1
 1473 09ce 8050      		subi r24,lo8(4096)
 1474 09d0 9041      		sbci r25,hi8(4096)
 1475 09d2 01F4      		brne .L255
 1476 09d4 0E94 0000 		call NutGetMillis
 1477 09d8 6050      		subi r22,lo8(-(4096))
 1478 09da 704F      		sbci r23,hi8(-(4096))
 1479 09dc 7093 0000 		sts (last_local_port)+1,r23
 1480 09e0 6093 0000 		sts last_local_port,r22
 1481               	.L255:
 1482 09e4 8091 0000 		lds r24,last_local_port
GAS LISTING C:\DOCUME~1\Arlind\LOCALS~1\Temp/ccZ96tfV.s 			page 27


 1483 09e8 9091 0000 		lds r25,(last_local_port)+1
 1484 09ec 0196      		adiw r24,1
 1485 09ee 9093 0000 		sts (last_local_port)+1,r25
 1486 09f2 8093 0000 		sts last_local_port,r24
 1487 09f6 8091 0000 		lds r24,last_local_port
 1488 09fa 9091 0000 		lds r25,(last_local_port)+1
 1489 09fe 892B      		or r24,r25
 1490 0a00 01F4      		brne .L257
 1491 0a02 80E0      		ldi r24,lo8(4096)
 1492 0a04 90E1      		ldi r25,hi8(4096)
 1493 0a06 9093 0000 		sts (last_local_port)+1,r25
 1494 0a0a 8093 0000 		sts last_local_port,r24
 1495               	.L257:
 1496 0a0e E091 0000 		lds r30,tcpSocketList
 1497 0a12 F091 0000 		lds r31,(tcpSocketList)+1
 1498 0a16 00C0      		rjmp .L259
 1499               	.L260:
 1500 0a18 8091 0000 		lds r24,last_local_port
 1501 0a1c 9091 0000 		lds r25,(last_local_port)+1
 1502               	/* #APP */
 1503 0a20 082E      		mov __tmp_reg__, r24
 1504 0a22 892F      		mov r24, r25
 1505 0a24 902D      		mov r25, __tmp_reg__
 1506               		
 1507               	/* #NOAPP */
 1508 0a26 208D      		ldd r18,Z+24
 1509 0a28 318D      		ldd r19,Z+25
 1510 0a2a 2817      		cp r18,r24
 1511 0a2c 3907      		cpc r19,r25
 1512 0a2e 01F0      		breq .L266
 1513 0a30 0190      		ld __tmp_reg__,Z+
 1514 0a32 F081      		ld r31,Z
 1515 0a34 E02D      		mov r30,__tmp_reg__
 1516               	.L259:
 1517 0a36 3097      		sbiw r30,0
 1518 0a38 01F4      		brne .L260
 1519 0a3a 8091 0000 		lds r24,last_local_port
 1520 0a3e 9091 0000 		lds r25,(last_local_port)+1
 1521               	/* #APP */
 1522 0a42 082E      		mov __tmp_reg__, r24
 1523 0a44 892F      		mov r24, r25
 1524 0a46 902D      		mov r25, __tmp_reg__
 1525               		
 1526               	/* #NOAPP */
 1527 0a48 998F      		std Y+25,r25
 1528 0a4a 888F      		std Y+24,r24
 1529               	/* #APP */
 1530 0a4c 002E      		mov __tmp_reg__, r16
 1531 0a4e 012F      		mov r16, r17
 1532 0a50 102D      		mov r17, __tmp_reg__
 1533               		
 1534               	/* #NOAPP */
 1535 0a52 1F8F      		std Y+31,r17
 1536 0a54 0E8F      		std Y+30,r16
 1537 0a56 CA8E      		std Y+26,r12
 1538 0a58 DB8E      		std Y+27,r13
 1539 0a5a EC8E      		std Y+28,r14
GAS LISTING C:\DOCUME~1\Arlind\LOCALS~1\Temp/ccZ96tfV.s 			page 28


 1540 0a5c FD8E      		std Y+29,r15
 1541 0a5e 40E0      		ldi r20,lo8(0)
 1542 0a60 50E0      		ldi r21,hi8(0)
 1543 0a62 C701      		movw r24,r14
 1544 0a64 B601      		movw r22,r12
 1545 0a66 0E94 0000 		call NutIpRouteQuery
 1546 0a6a FC01      		movw r30,r24
 1547 0a6c 892B      		or r24,r25
 1548 0a6e 01F0      		breq .L263
 1549 0a70 0784      		ldd __tmp_reg__,Z+15
 1550 0a72 F089      		ldd r31,Z+16
 1551 0a74 E02D      		mov r30,__tmp_reg__
 1552 0a76 8781      		ldd r24,Z+7
 1553 0a78 9085      		ldd r25,Z+8
 1554 0a7a A185      		ldd r26,Z+9
 1555 0a7c B285      		ldd r27,Z+10
 1556 0a7e 8C8B      		std Y+20,r24
 1557 0a80 9D8B      		std Y+21,r25
 1558 0a82 AE8B      		std Y+22,r26
 1559 0a84 BF8B      		std Y+23,r27
 1560 0a86 CE01      		movw r24,r28
 1561 0a88 0E94 0000 		call NutTcpStateActiveOpenEvent
 1562 0a8c 00C0      		rjmp .L250
 1563               	.L263:
 1564 0a8e C05A      		subi r28,lo8(-(96))
 1565 0a90 DF4F      		sbci r29,hi8(-(96))
 1566 0a92 81E5      		ldi r24,lo8(10065)
 1567 0a94 97E2      		ldi r25,hi8(10065)
 1568               	.L270:
 1569 0a96 9983      		std Y+1,r25
 1570 0a98 8883      		st Y,r24
 1571               	.L269:
 1572 0a9a 8FEF      		ldi r24,lo8(-1)
 1573 0a9c 9FEF      		ldi r25,hi8(-1)
 1574               	.L250:
 1575               	/* epilogue: frame size=0 */
 1576 0a9e DF91      		pop r29
 1577 0aa0 CF91      		pop r28
 1578 0aa2 1F91      		pop r17
 1579 0aa4 0F91      		pop r16
 1580 0aa6 FF90      		pop r15
 1581 0aa8 EF90      		pop r14
 1582 0aaa DF90      		pop r13
 1583 0aac CF90      		pop r12
 1584 0aae 0895      		ret
 1585               	/* epilogue end (size=9) */
 1586               	/* function NutTcpConnect size 164 (147) */
 1587               		.size	NutTcpConnect, .-NutTcpConnect
 1588               	.global	tcpSocketList
 1589               	.global	tcpSocketList
 1590               		.section .bss
 1591               		.type	tcpSocketList, @object
 1592               		.size	tcpSocketList, 2
 1593               	tcpSocketList:
 1594 0000 0000      		.skip 2,0
 1595               		.data
 1596               		.type	last_local_port, @object
GAS LISTING C:\DOCUME~1\Arlind\LOCALS~1\Temp/ccZ96tfV.s 			page 29


 1597               		.size	last_local_port, 2
 1598               	last_local_port:
 1599 0000 0010      		.word	4096
 1600               		.lcomm tcpStateRunning,1
 1601               	/* File "C:/ethernut-4.3.3/nut/net/tcpsock.c": code 1394 = 0x0572 (1222), prologues  78, epilogues 
GAS LISTING C:\DOCUME~1\Arlind\LOCALS~1\Temp/ccZ96tfV.s 			page 30


DEFINED SYMBOLS
                            *ABS*:00000000 tcpsock.c
C:\DOCUME~1\Arlind\LOCALS~1\Temp/ccZ96tfV.s:3      *ABS*:0000003f __SREG__
C:\DOCUME~1\Arlind\LOCALS~1\Temp/ccZ96tfV.s:4      *ABS*:0000003e __SP_H__
C:\DOCUME~1\Arlind\LOCALS~1\Temp/ccZ96tfV.s:5      *ABS*:0000003d __SP_L__
C:\DOCUME~1\Arlind\LOCALS~1\Temp/ccZ96tfV.s:6      *ABS*:00000000 __tmp_reg__
C:\DOCUME~1\Arlind\LOCALS~1\Temp/ccZ96tfV.s:7      *ABS*:00000001 __zero_reg__
C:\DOCUME~1\Arlind\LOCALS~1\Temp/ccZ96tfV.s:13     .text:00000000 NutTcpFindSocket
C:\DOCUME~1\Arlind\LOCALS~1\Temp/ccZ96tfV.s:1593   .bss:00000000 tcpSocketList
C:\DOCUME~1\Arlind\LOCALS~1\Temp/ccZ96tfV.s:90     .text:0000007e NutTcpGetSockOpt
C:\DOCUME~1\Arlind\LOCALS~1\Temp/ccZ96tfV.s:216    .text:00000148 NutTcpError
C:\DOCUME~1\Arlind\LOCALS~1\Temp/ccZ96tfV.s:238    .text:0000015e NutTcpDeviceIOCtl
C:\DOCUME~1\Arlind\LOCALS~1\Temp/ccZ96tfV.s:297    .text:000001b8 NutTcpDiscardBuffers
C:\DOCUME~1\Arlind\LOCALS~1\Temp/ccZ96tfV.s:359    .text:0000021c NutTcpReceive
C:\DOCUME~1\Arlind\LOCALS~1\Temp/ccZ96tfV.s:614    .text:000003f2 NutTcpDeviceRead
C:\DOCUME~1\Arlind\LOCALS~1\Temp/ccZ96tfV.s:625    .text:000003f8 NutTcpSend
C:\DOCUME~1\Arlind\LOCALS~1\Temp/ccZ96tfV.s:749    .text:000004d8 SendBuffer
C:\DOCUME~1\Arlind\LOCALS~1\Temp/ccZ96tfV.s:805    .text:00000530 NutTcpDeviceWrite
C:\DOCUME~1\Arlind\LOCALS~1\Temp/ccZ96tfV.s:1019   .text:000006c2 NutTcpDeviceWrite_P
C:\DOCUME~1\Arlind\LOCALS~1\Temp/ccZ96tfV.s:1076   .text:00000728 NutTcpCloseSocket
C:\DOCUME~1\Arlind\LOCALS~1\Temp/ccZ96tfV.s:1098   .text:00000746 NutTcpSetSockOpt
C:\DOCUME~1\Arlind\LOCALS~1\Temp/ccZ96tfV.s:1257   .text:00000854 NutTcpCreateSocket
                             .bss:00000002 tcpStateRunning
C:\DOCUME~1\Arlind\LOCALS~1\Temp/ccZ96tfV.s:1359   .text:00000918 NutTcpDestroySocket
C:\DOCUME~1\Arlind\LOCALS~1\Temp/ccZ96tfV.s:1415   .text:00000976 NutTcpAccept
C:\DOCUME~1\Arlind\LOCALS~1\Temp/ccZ96tfV.s:1435   .text:00000988 NutTcpConnect
C:\DOCUME~1\Arlind\LOCALS~1\Temp/ccZ96tfV.s:1598   .data:00000000 last_local_port

UNDEFINED SYMBOLS
__do_copy_data
__do_clear_bss
NutNetBufFree
NutThreadYield
NutEventWait
memcpy
NutTcpStateWindowEvent
NutTcpOutput
NutHeapFree
__udivmodhi4
NutHeapAlloc
memcpy_P
NutTcpStateCloseEvent
NutTcpInitStateMachine
NutHeapAllocClear
NutGetTickCount
NutTcpStatePassiveOpenEvent
NutGetMillis
NutIpRouteQuery
NutTcpStateActiveOpenEvent
