GAS LISTING C:\DOCUME~1\Arlind\LOCALS~1\Temp/cc0V41Lo.s 			page 1


   1               		.file	"udpout.c"
   2               		.arch atmega2561
   3               	__SREG__ = 0x3f
   4               	__SP_H__ = 0x3e
   5               	__SP_L__ = 0x3d
   6               	__tmp_reg__ = 0
   7               	__zero_reg__ = 1
   8               		.global __do_copy_data
   9               		.global __do_clear_bss
  10               		.text
  11               	.global	NutUdpOutput
  12               		.type	NutUdpOutput, @function
  13               	NutUdpOutput:
  14               	/* prologue: frame size=4 */
  15 0000 4F92      		push r4
  16 0002 5F92      		push r5
  17 0004 6F92      		push r6
  18 0006 7F92      		push r7
  19 0008 8F92      		push r8
  20 000a 9F92      		push r9
  21 000c AF92      		push r10
  22 000e BF92      		push r11
  23 0010 CF92      		push r12
  24 0012 DF92      		push r13
  25 0014 EF92      		push r14
  26 0016 FF92      		push r15
  27 0018 0F93      		push r16
  28 001a 1F93      		push r17
  29 001c CF93      		push r28
  30 001e DF93      		push r29
  31 0020 CDB7      		in r28,__SP_L__
  32 0022 DEB7      		in r29,__SP_H__
  33 0024 2497      		sbiw r28,4
  34 0026 0FB6      		in __tmp_reg__,__SREG__
  35 0028 F894      		cli
  36 002a DEBF      		out __SP_H__,r29
  37 002c 0FBE      		out __SREG__,__tmp_reg__
  38 002e CDBF      		out __SP_L__,r28
  39               	/* prologue end (size=24) */
  40 0030 2C01      		movw r4,r24
  41 0032 3A01      		movw r6,r20
  42 0034 4B01      		movw r8,r22
  43 0036 7901      		movw r14,r18
  44 0038 C801      		movw r24,r16
  45 003a 48E0      		ldi r20,lo8(8)
  46 003c 50E0      		ldi r21,hi8(8)
  47 003e 60E4      		ldi r22,lo8(64)
  48 0040 0E94 0000 		call NutNetBufAlloc
  49 0044 5C01      		movw r10,r24
  50 0046 0097      		sbiw r24,0
  51 0048 01F4      		brne .L2
  52 004a 8FEF      		ldi r24,lo8(-1)
  53 004c 9FEF      		ldi r25,hi8(-1)
  54 004e 00C0      		rjmp .L4
  55               	.L2:
  56 0050 FC01      		movw r30,r24
  57 0052 C384      		ldd r12,Z+11
GAS LISTING C:\DOCUME~1\Arlind\LOCALS~1\Temp/cc0V41Lo.s 			page 2


  58 0054 D484      		ldd r13,Z+12
  59 0056 F201      		movw r30,r4
  60 0058 8281      		ldd r24,Z+2
  61 005a 9381      		ldd r25,Z+3
  62 005c F601      		movw r30,r12
  63 005e 9183      		std Z+1,r25
  64 0060 8083      		st Z,r24
  65               	/* #APP */
  66 0062 0E2C      		mov __tmp_reg__, r14
  67 0064 EF2C      		mov r14, r15
  68 0066 F02C      		mov r15, __tmp_reg__
  69               		
  70               	/* #NOAPP */
  71 0068 F382      		std Z+3,r15
  72 006a E282      		std Z+2,r14
  73 006c F501      		movw r30,r10
  74 006e 8585      		ldd r24,Z+13
  75 0070 9685      		ldd r25,Z+14
  76 0072 2189      		ldd r18,Z+17
  77 0074 3289      		ldd r19,Z+18
  78 0076 820F      		add r24,r18
  79 0078 931F      		adc r25,r19
  80               	/* #APP */
  81 007a 082E      		mov __tmp_reg__, r24
  82 007c 892F      		mov r24, r25
  83 007e 902D      		mov r25, __tmp_reg__
  84               		
  85               	/* #NOAPP */
  86 0080 F601      		movw r30,r12
  87 0082 9583      		std Z+5,r25
  88 0084 8483      		std Z+4,r24
  89 0086 AE01      		movw r20,r28
  90 0088 4F5F      		subi r20,lo8(-(1))
  91 008a 5F4F      		sbci r21,hi8(-(1))
  92 008c C401      		movw r24,r8
  93 008e B301      		movw r22,r6
  94 0090 0E94 0000 		call NutIpRouteQuery
  95 0094 FC01      		movw r30,r24
  96 0096 892B      		or r24,r25
  97 0098 01F0      		breq .L5
  98 009a 0784      		ldd __tmp_reg__,Z+15
  99 009c F089      		ldd r31,Z+16
 100 009e E02D      		mov r30,__tmp_reg__
 101 00a0 8781      		ldd r24,Z+7
 102 00a2 9085      		ldd r25,Z+8
 103 00a4 A185      		ldd r26,Z+9
 104 00a6 B285      		ldd r27,Z+10
 105 00a8 8983      		std Y+1,r24
 106 00aa 9A83      		std Y+2,r25
 107 00ac AB83      		std Y+3,r26
 108 00ae BC83      		std Y+4,r27
 109 00b0 00C0      		rjmp .L7
 110               	.L5:
 111 00b2 1982      		std Y+1,__zero_reg__
 112 00b4 1A82      		std Y+2,__zero_reg__
 113 00b6 1B82      		std Y+3,__zero_reg__
 114 00b8 1C82      		std Y+4,__zero_reg__
GAS LISTING C:\DOCUME~1\Arlind\LOCALS~1\Temp/cc0V41Lo.s 			page 3


 115               	.L7:
 116 00ba F601      		movw r30,r12
 117 00bc 1782      		std Z+7,__zero_reg__
 118 00be 1682      		std Z+6,__zero_reg__
 119 00c0 E480      		ldd r14,Z+4
 120 00c2 F580      		ldd r15,Z+5
 121 00c4 6981      		ldd r22,Y+1
 122 00c6 7A81      		ldd r23,Y+2
 123 00c8 8B81      		ldd r24,Y+3
 124 00ca 9C81      		ldd r25,Y+4
 125 00cc 01E1      		ldi r16,lo8(17)
 126 00ce A401      		movw r20,r8
 127 00d0 9301      		movw r18,r6
 128 00d2 0E94 0000 		call NutIpPseudoChkSumPartial
 129 00d6 DC01      		movw r26,r24
 130 00d8 CB01      		movw r24,r22
 131 00da 48E0      		ldi r20,lo8(8)
 132 00dc 50E0      		ldi r21,hi8(8)
 133 00de B601      		movw r22,r12
 134 00e0 0E94 0000 		call NutIpChkSumPartial
 135 00e4 F501      		movw r30,r10
 136 00e6 4189      		ldd r20,Z+17
 137 00e8 5289      		ldd r21,Z+18
 138 00ea 6785      		ldd r22,Z+15
 139 00ec 7089      		ldd r23,Z+16
 140 00ee 0E94 0000 		call NutIpChkSum
 141 00f2 F601      		movw r30,r12
 142 00f4 9783      		std Z+7,r25
 143 00f6 8683      		std Z+6,r24
 144 00f8 9501      		movw r18,r10
 145 00fa B401      		movw r22,r8
 146 00fc A301      		movw r20,r6
 147 00fe 81E1      		ldi r24,lo8(17)
 148 0100 0E94 0000 		call NutIpOutput
 149               	.L4:
 150               	/* epilogue: frame size=4 */
 151 0104 2496      		adiw r28,4
 152 0106 0FB6      		in __tmp_reg__,__SREG__
 153 0108 F894      		cli
 154 010a DEBF      		out __SP_H__,r29
 155 010c 0FBE      		out __SREG__,__tmp_reg__
 156 010e CDBF      		out __SP_L__,r28
 157 0110 DF91      		pop r29
 158 0112 CF91      		pop r28
 159 0114 1F91      		pop r17
 160 0116 0F91      		pop r16
 161 0118 FF90      		pop r15
 162 011a EF90      		pop r14
 163 011c DF90      		pop r13
 164 011e CF90      		pop r12
 165 0120 BF90      		pop r11
 166 0122 AF90      		pop r10
 167 0124 9F90      		pop r9
 168 0126 8F90      		pop r8
 169 0128 7F90      		pop r7
 170 012a 6F90      		pop r6
 171 012c 5F90      		pop r5
GAS LISTING C:\DOCUME~1\Arlind\LOCALS~1\Temp/cc0V41Lo.s 			page 4


 172 012e 4F90      		pop r4
 173 0130 0895      		ret
 174               	/* epilogue end (size=23) */
 175               	/* function NutUdpOutput size 163 (116) */
 176               		.size	NutUdpOutput, .-NutUdpOutput
 177               	/* File "C:/ethernut-4.3.3/nut/net/udpout.c": code  163 = 0x00a3 ( 116), prologues  24, epilogues  
GAS LISTING C:\DOCUME~1\Arlind\LOCALS~1\Temp/cc0V41Lo.s 			page 5


DEFINED SYMBOLS
                            *ABS*:00000000 udpout.c
C:\DOCUME~1\Arlind\LOCALS~1\Temp/cc0V41Lo.s:3      *ABS*:0000003f __SREG__
C:\DOCUME~1\Arlind\LOCALS~1\Temp/cc0V41Lo.s:4      *ABS*:0000003e __SP_H__
C:\DOCUME~1\Arlind\LOCALS~1\Temp/cc0V41Lo.s:5      *ABS*:0000003d __SP_L__
C:\DOCUME~1\Arlind\LOCALS~1\Temp/cc0V41Lo.s:6      *ABS*:00000000 __tmp_reg__
C:\DOCUME~1\Arlind\LOCALS~1\Temp/cc0V41Lo.s:7      *ABS*:00000001 __zero_reg__
C:\DOCUME~1\Arlind\LOCALS~1\Temp/cc0V41Lo.s:13     .text:00000000 NutUdpOutput

UNDEFINED SYMBOLS
__do_copy_data
__do_clear_bss
NutNetBufAlloc
NutIpRouteQuery
NutIpPseudoChkSumPartial
NutIpChkSumPartial
NutIpChkSum
NutIpOutput
