GAS LISTING C:\DOCUME~1\Arlind\LOCALS~1\Temp/cc7UEW5g.s 			page 1


   1               		.file	"calloc.c"
   2               		.arch atmega2561
   3               	__SREG__ = 0x3f
   4               	__SP_H__ = 0x3e
   5               	__SP_L__ = 0x3d
   6               	__tmp_reg__ = 0
   7               	__zero_reg__ = 1
   8               		.global __do_copy_data
   9               		.global __do_clear_bss
  10               		.text
  11               	.global	calloc
  12               		.type	calloc, @function
  13               	calloc:
  14               	/* prologue: frame size=0 */
  15 0000 0F93      		push r16
  16 0002 1F93      		push r17
  17 0004 CF93      		push r28
  18 0006 DF93      		push r29
  19               	/* prologue end (size=4) */
  20 0008 689F      		mul r22,r24
  21 000a 8001      		movw r16,r0
  22 000c 699F      		mul r22,r25
  23 000e 100D      		add r17,r0
  24 0010 789F      		mul r23,r24
  25 0012 100D      		add r17,r0
  26 0014 1124      		clr r1
  27 0016 C801      		movw r24,r16
  28 0018 0E94 0000 		call malloc
  29 001c EC01      		movw r28,r24
  30 001e 0097      		sbiw r24,0
  31 0020 01F0      		breq .L2
  32 0022 A801      		movw r20,r16
  33 0024 60E0      		ldi r22,lo8(0)
  34 0026 70E0      		ldi r23,hi8(0)
  35 0028 0E94 0000 		call memset
  36               	.L2:
  37 002c CE01      		movw r24,r28
  38               	/* epilogue: frame size=0 */
  39 002e DF91      		pop r29
  40 0030 CF91      		pop r28
  41 0032 1F91      		pop r17
  42 0034 0F91      		pop r16
  43 0036 0895      		ret
  44               	/* epilogue end (size=5) */
  45               	/* function calloc size 28 (19) */
  46               		.size	calloc, .-calloc
  47               	/* File "C:/ethernut-4.3.3/nut/c/stdlib/calloc.c": code   28 = 0x001c (  19), prologues   4, epilog
GAS LISTING C:\DOCUME~1\Arlind\LOCALS~1\Temp/cc7UEW5g.s 			page 2


DEFINED SYMBOLS
                            *ABS*:00000000 calloc.c
C:\DOCUME~1\Arlind\LOCALS~1\Temp/cc7UEW5g.s:3      *ABS*:0000003f __SREG__
C:\DOCUME~1\Arlind\LOCALS~1\Temp/cc7UEW5g.s:4      *ABS*:0000003e __SP_H__
C:\DOCUME~1\Arlind\LOCALS~1\Temp/cc7UEW5g.s:5      *ABS*:0000003d __SP_L__
C:\DOCUME~1\Arlind\LOCALS~1\Temp/cc7UEW5g.s:6      *ABS*:00000000 __tmp_reg__
C:\DOCUME~1\Arlind\LOCALS~1\Temp/cc7UEW5g.s:7      *ABS*:00000001 __zero_reg__
C:\DOCUME~1\Arlind\LOCALS~1\Temp/cc7UEW5g.s:13     .text:00000000 calloc

UNDEFINED SYMBOLS
__do_copy_data
__do_clear_bss
malloc
memset
