GAS LISTING C:\Users\Bart\AppData\Local\Temp/ccjCce2O.s 			page 1


   1               		.file	"ih_canit.c"
   2               		.arch atmega2561
   3               	__SREG__ = 0x3f
   4               	__SP_H__ = 0x3e
   5               	__SP_L__ = 0x3d
   6               	__tmp_reg__ = 0
   7               	__zero_reg__ = 1
   8               		.global __do_copy_data
   9               		.global __do_clear_bss
  10               	/* File "D:/Git/TI-2A3-InternetMediaCenter/tools/ethernut-4.3.3/nut/arch/avr/dev/ih_canit.c": code 
GAS LISTING C:\Users\Bart\AppData\Local\Temp/ccjCce2O.s 			page 2


DEFINED SYMBOLS
                            *ABS*:00000000 ih_canit.c
C:\Users\Bart\AppData\Local\Temp/ccjCce2O.s:3      *ABS*:0000003f __SREG__
C:\Users\Bart\AppData\Local\Temp/ccjCce2O.s:4      *ABS*:0000003e __SP_H__
C:\Users\Bart\AppData\Local\Temp/ccjCce2O.s:5      *ABS*:0000003d __SP_L__
C:\Users\Bart\AppData\Local\Temp/ccjCce2O.s:6      *ABS*:00000000 __tmp_reg__
C:\Users\Bart\AppData\Local\Temp/ccjCce2O.s:7      *ABS*:00000001 __zero_reg__

UNDEFINED SYMBOLS
__do_copy_data
__do_clear_bss
