GAS LISTING C:\Users\Bart\AppData\Local\Temp/ccOPFBh9.s 			page 1


   1               		.file	"ih_timer0_ovf.c"
   2               		.arch atmega2561
   3               	__SREG__ = 0x3f
   4               	__SP_H__ = 0x3e
   5               	__SP_L__ = 0x3d
   6               	__tmp_reg__ = 0
   7               	__zero_reg__ = 1
   8               		.global __do_copy_data
   9               		.global __do_clear_bss
  10               		.text
  11               		.type	AvrTimer0OvfIrqCtl, @function
  12               	AvrTimer0OvfIrqCtl:
  13               	/* prologue: frame size=0 */
  14               	/* prologue end (size=0) */
  15 0000 9C01      		movw r18,r24
  16 0002 FB01      		movw r30,r22
  17 0004 8091 6E00 		lds r24,110
  18 0008 482F      		mov r20,r24
  19 000a 5527      		clr r21
  20 000c 4170      		andi r20,lo8(1)
  21 000e 5070      		andi r21,hi8(1)
  22 0010 8091 6E00 		lds r24,110
  23 0014 8E7F      		andi r24,lo8(-2)
  24 0016 8093 6E00 		sts 110,r24
  25 001a 2031      		cpi r18,16
  26 001c 3105      		cpc r19,__zero_reg__
  27 001e 01F0      		breq .L5
  28 0020 2131      		cpi r18,17
  29 0022 3105      		cpc r19,__zero_reg__
  30 0024 04F4      		brge .L9
  31 0026 2115      		cp r18,__zero_reg__
  32 0028 3105      		cpc r19,__zero_reg__
  33 002a 01F0      		breq .L3
  34 002c 2130      		cpi r18,1
  35 002e 3105      		cpc r19,__zero_reg__
  36 0030 01F4      		brne .L2
  37 0032 00C0      		rjmp .L4
  38               	.L9:
  39 0034 2231      		cpi r18,18
  40 0036 3105      		cpc r19,__zero_reg__
  41 0038 01F0      		breq .L7
  42 003a 2231      		cpi r18,18
  43 003c 3105      		cpc r19,__zero_reg__
  44 003e 04F0      		brlt .L19
  45 0040 2032      		cpi r18,32
  46 0042 3105      		cpc r19,__zero_reg__
  47 0044 01F0      		breq .L8
  48               	.L2:
  49 0046 2FEF      		ldi r18,lo8(-1)
  50 0048 3FEF      		ldi r19,hi8(-1)
  51 004a 00C0      		rjmp .L11
  52               	.L3:
  53 004c 40E0      		ldi r20,lo8(0)
  54 004e 50E0      		ldi r21,hi8(0)
  55               	.L4:
  56 0050 81E0      		ldi r24,lo8(1)
  57 0052 85BB      		out 53-0x20,r24
GAS LISTING C:\Users\Bart\AppData\Local\Temp/ccOPFBh9.s 			page 2


  58 0054 00C0      		rjmp .L18
  59               	.L5:
  60 0056 A89B      		sbis 53-0x20,0
  61 0058 00C0      		rjmp .L12
  62 005a 81E0      		ldi r24,lo8(1)
  63 005c 90E0      		ldi r25,hi8(1)
  64 005e 9183      		std Z+1,r25
  65 0060 8083      		st Z,r24
  66 0062 00C0      		rjmp .L14
  67               	.L12:
  68 0064 1182      		std Z+1,__zero_reg__
  69 0066 1082      		st Z,__zero_reg__
  70               	.L14:
  71 0068 452B      		or r20,r21
  72 006a 01F0      		breq .L7
  73 006c 8081      		ld r24,Z
  74 006e 9181      		ldd r25,Z+1
  75 0070 8068      		ori r24,lo8(128)
  76 0072 9183      		std Z+1,r25
  77 0074 8083      		st Z,r24
  78               	.L19:
  79 0076 20E0      		ldi r18,lo8(0)
  80 0078 30E0      		ldi r19,hi8(0)
  81 007a 00C0      		rjmp .L10
  82               	.L8:
  83 007c 8FE0      		ldi r24,lo8(15)
  84 007e 90E0      		ldi r25,hi8(15)
  85 0080 9183      		std Z+1,r25
  86 0082 8083      		st Z,r24
  87               	.L18:
  88 0084 20E0      		ldi r18,lo8(0)
  89 0086 30E0      		ldi r19,hi8(0)
  90               	.L11:
  91 0088 452B      		or r20,r21
  92 008a 01F0      		breq .L16
  93               	.L10:
  94 008c 8091 6E00 		lds r24,110
  95 0090 8160      		ori r24,lo8(1)
  96 0092 8093 6E00 		sts 110,r24
  97 0096 00C0      		rjmp .L16
  98               	.L7:
  99 0098 20E0      		ldi r18,lo8(0)
 100 009a 30E0      		ldi r19,hi8(0)
 101               	.L16:
 102 009c C901      		movw r24,r18
 103               	/* epilogue: frame size=0 */
 104 009e 0895      		ret
 105               	/* epilogue end (size=1) */
 106               	/* function AvrTimer0OvfIrqCtl size 80 (79) */
 107               		.size	AvrTimer0OvfIrqCtl, .-AvrTimer0OvfIrqCtl
 108               	.global	__vector_23
 109               		.type	__vector_23, @function
 110               	__vector_23:
 111               	/* prologue: frame size=0 */
 112 00a0 1F92      		push __zero_reg__
 113 00a2 0F92      		push __tmp_reg__
 114 00a4 0FB6      		in __tmp_reg__,__SREG__
GAS LISTING C:\Users\Bart\AppData\Local\Temp/ccOPFBh9.s 			page 3


 115 00a6 0F92      		push __tmp_reg__
 116 00a8 1124      		clr __zero_reg__
 117 00aa 2F93      		push r18
 118 00ac 3F93      		push r19
 119 00ae 4F93      		push r20
 120 00b0 5F93      		push r21
 121 00b2 6F93      		push r22
 122 00b4 7F93      		push r23
 123 00b6 8F93      		push r24
 124 00b8 9F93      		push r25
 125 00ba AF93      		push r26
 126 00bc BF93      		push r27
 127 00be EF93      		push r30
 128 00c0 FF93      		push r31
 129               	/* prologue end (size=17) */
 130 00c2 80E0      		ldi r24,lo8(sig_OVERFLOW0)
 131 00c4 90E0      		ldi r25,hi8(sig_OVERFLOW0)
 132 00c6 0E94 0000 		call CallHandler
 133               	/* epilogue: frame size=0 */
 134 00ca FF91      		pop r31
 135 00cc EF91      		pop r30
 136 00ce BF91      		pop r27
 137 00d0 AF91      		pop r26
 138 00d2 9F91      		pop r25
 139 00d4 8F91      		pop r24
 140 00d6 7F91      		pop r23
 141 00d8 6F91      		pop r22
 142 00da 5F91      		pop r21
 143 00dc 4F91      		pop r20
 144 00de 3F91      		pop r19
 145 00e0 2F91      		pop r18
 146 00e2 0F90      		pop __tmp_reg__
 147 00e4 0FBE      		out __SREG__,__tmp_reg__
 148 00e6 0F90      		pop __tmp_reg__
 149 00e8 1F90      		pop __zero_reg__
 150 00ea 1895      		reti
 151               	/* epilogue end (size=17) */
 152               	/* function __vector_23 size 38 (4) */
 153               		.size	__vector_23, .-__vector_23
 154               	.global	sig_OVERFLOW0
 155               		.data
 156               		.type	sig_OVERFLOW0, @object
 157               		.size	sig_OVERFLOW0, 6
 158               	sig_OVERFLOW0:
 159 0000 0000      		.word	0
 160 0002 0000      		.word	0
 161 0004 0000      		.word	gs(AvrTimer0OvfIrqCtl)
 162               	/* File "D:/Git/TI-2A3-InternetMediaCenter/tools/ethernut-4.3.3/nut/arch/avr/dev/ih_timer0_ovf.c": 
GAS LISTING C:\Users\Bart\AppData\Local\Temp/ccOPFBh9.s 			page 4


DEFINED SYMBOLS
                            *ABS*:00000000 ih_timer0_ovf.c
C:\Users\Bart\AppData\Local\Temp/ccOPFBh9.s:3      *ABS*:0000003f __SREG__
C:\Users\Bart\AppData\Local\Temp/ccOPFBh9.s:4      *ABS*:0000003e __SP_H__
C:\Users\Bart\AppData\Local\Temp/ccOPFBh9.s:5      *ABS*:0000003d __SP_L__
C:\Users\Bart\AppData\Local\Temp/ccOPFBh9.s:6      *ABS*:00000000 __tmp_reg__
C:\Users\Bart\AppData\Local\Temp/ccOPFBh9.s:7      *ABS*:00000001 __zero_reg__
C:\Users\Bart\AppData\Local\Temp/ccOPFBh9.s:12     .text:00000000 AvrTimer0OvfIrqCtl
C:\Users\Bart\AppData\Local\Temp/ccOPFBh9.s:110    .text:000000a0 __vector_23
C:\Users\Bart\AppData\Local\Temp/ccOPFBh9.s:158    .data:00000000 sig_OVERFLOW0

UNDEFINED SYMBOLS
__do_copy_data
__do_clear_bss
CallHandler
