GAS LISTING C:\Users\Bart\AppData\Local\Temp/ccsDTPwA.s 			page 1


   1               		.file	"sja1000.c"
   2               		.arch atmega2561
   3               	__SREG__ = 0x3f
   4               	__SP_H__ = 0x3e
   5               	__SP_L__ = 0x3d
   6               	__tmp_reg__ = 0
   7               	__zero_reg__ = 1
   8               		.global __do_copy_data
   9               		.global __do_clear_bss
  10               		.text
  11               	.global	CANBufferGet
  12               		.type	CANBufferGet, @function
  13               	CANBufferGet:
  14               	/* prologue: frame size=0 */
  15 0000 EF92      		push r14
  16 0002 FF92      		push r15
  17 0004 0F93      		push r16
  18 0006 1F93      		push r17
  19 0008 CF93      		push r28
  20 000a DF93      		push r29
  21               	/* prologue end (size=6) */
  22 000c 7C01      		movw r14,r24
  23 000e EB01      		movw r28,r22
  24 0010 8C81      		ldd r24,Y+4
  25 0012 9D81      		ldd r25,Y+5
  26 0014 892B      		or r24,r25
  27 0016 01F0      		breq .L1
  28 0018 0E81      		ldd r16,Y+6
  29 001a 1F81      		ldd r17,Y+7
  30 001c B801      		movw r22,r16
  31 001e 84E0      		ldi r24,4
  32 0020 660F      	1:	lsl r22
  33 0022 771F      		rol r23
  34 0024 8A95      		dec r24
  35 0026 01F4      		brne 1b
  36 0028 601B      		sub r22,r16
  37 002a 710B      		sbc r23,r17
  38 002c 8881      		ld r24,Y
  39 002e 9981      		ldd r25,Y+1
  40 0030 680F      		add r22,r24
  41 0032 791F      		adc r23,r25
  42 0034 4FE0      		ldi r20,lo8(15)
  43 0036 50E0      		ldi r21,hi8(15)
  44 0038 C701      		movw r24,r14
  45 003a 0E94 0000 		call memmove
  46 003e C801      		movw r24,r16
  47 0040 0196      		adiw r24,1
  48 0042 9F83      		std Y+7,r25
  49 0044 8E83      		std Y+6,r24
  50 0046 6A81      		ldd r22,Y+2
  51 0048 7B81      		ldd r23,Y+3
  52 004a 8617      		cp r24,r22
  53 004c 9707      		cpc r25,r23
  54 004e 00F0      		brlo .L4
  55 0050 0E94 0000 		call __udivmodhi4
  56 0054 9F83      		std Y+7,r25
  57 0056 8E83      		std Y+6,r24
GAS LISTING C:\Users\Bart\AppData\Local\Temp/ccsDTPwA.s 			page 2


  58               	.L4:
  59 0058 8C81      		ldd r24,Y+4
  60 005a 9D81      		ldd r25,Y+5
  61 005c 0197      		sbiw r24,1
  62 005e 9D83      		std Y+5,r25
  63 0060 8C83      		std Y+4,r24
  64               	.L1:
  65 0062 C701      		movw r24,r14
  66               	/* epilogue: frame size=0 */
  67 0064 DF91      		pop r29
  68 0066 CF91      		pop r28
  69 0068 1F91      		pop r17
  70 006a 0F91      		pop r16
  71 006c FF90      		pop r15
  72 006e EF90      		pop r14
  73 0070 0895      		ret
  74               	/* epilogue end (size=7) */
  75               	/* function CANBufferGet size 57 (44) */
  76               		.size	CANBufferGet, .-CANBufferGet
  77               	.global	CANBufferPut
  78               		.type	CANBufferPut, @function
  79               	CANBufferPut:
  80               	/* prologue: frame size=0 */
  81 0072 0F93      		push r16
  82 0074 1F93      		push r17
  83 0076 CF93      		push r28
  84 0078 DF93      		push r29
  85               	/* prologue end (size=4) */
  86 007a EC01      		movw r28,r24
  87 007c 8B01      		movw r16,r22
  88 007e 2C81      		ldd r18,Y+4
  89 0080 3D81      		ldd r19,Y+5
  90 0082 6A81      		ldd r22,Y+2
  91 0084 7B81      		ldd r23,Y+3
  92 0086 2617      		cp r18,r22
  93 0088 3707      		cpc r19,r23
  94 008a 00F4      		brsh .L11
  95 008c 8E81      		ldd r24,Y+6
  96 008e 9F81      		ldd r25,Y+7
  97 0090 820F      		add r24,r18
  98 0092 931F      		adc r25,r19
  99 0094 0E94 0000 		call __udivmodhi4
 100 0098 FC01      		movw r30,r24
 101 009a 24E0      		ldi r18,4
 102 009c EE0F      	1:	lsl r30
 103 009e FF1F      		rol r31
 104 00a0 2A95      		dec r18
 105 00a2 01F4      		brne 1b
 106 00a4 E81B      		sub r30,r24
 107 00a6 F90B      		sbc r31,r25
 108 00a8 8881      		ld r24,Y
 109 00aa 9981      		ldd r25,Y+1
 110 00ac E80F      		add r30,r24
 111 00ae F91F      		adc r31,r25
 112 00b0 D801      		movw r26,r16
 113 00b2 8FE0      		ldi r24,lo8(15)
 114               	.L10:
GAS LISTING C:\Users\Bart\AppData\Local\Temp/ccsDTPwA.s 			page 3


 115 00b4 0D90      		ld r0,X+
 116 00b6 0192      		st Z+,r0
 117 00b8 8150      		subi r24,lo8(-(-1))
 118 00ba 01F4      		brne .L10
 119 00bc 8C81      		ldd r24,Y+4
 120 00be 9D81      		ldd r25,Y+5
 121 00c0 0196      		adiw r24,1
 122 00c2 9D83      		std Y+5,r25
 123 00c4 8C83      		std Y+4,r24
 124               	.L11:
 125               	/* epilogue: frame size=0 */
 126 00c6 DF91      		pop r29
 127 00c8 CF91      		pop r28
 128 00ca 1F91      		pop r17
 129 00cc 0F91      		pop r16
 130 00ce 0895      		ret
 131               	/* epilogue end (size=5) */
 132               	/* function CANBufferPut size 48 (39) */
 133               		.size	CANBufferPut, .-CANBufferPut
 134               	.global	CANBufferFree
 135               		.type	CANBufferFree, @function
 136               	CANBufferFree:
 137               	/* prologue: frame size=0 */
 138               	/* prologue end (size=0) */
 139 00d0 FC01      		movw r30,r24
 140 00d2 8281      		ldd r24,Z+2
 141 00d4 9381      		ldd r25,Z+3
 142 00d6 2481      		ldd r18,Z+4
 143 00d8 3581      		ldd r19,Z+5
 144 00da 821B      		sub r24,r18
 145 00dc 930B      		sbc r25,r19
 146               	/* epilogue: frame size=0 */
 147 00de 0895      		ret
 148               	/* epilogue end (size=1) */
 149               	/* function CANBufferFree size 8 (7) */
 150               		.size	CANBufferFree, .-CANBufferFree
 151               	.global	SJARxAvail
 152               		.type	SJARxAvail, @function
 153               	SJARxAvail:
 154               	/* prologue: frame size=0 */
 155               	/* prologue end (size=0) */
 156 00e0 8091 0000 		lds r24,CAN_RX_BUF+4
 157 00e4 9927      		clr r25
 158               	/* epilogue: frame size=0 */
 159 00e6 0895      		ret
 160               	/* epilogue end (size=1) */
 161               	/* function SJARxAvail size 4 (3) */
 162               		.size	SJARxAvail, .-SJARxAvail
 163               	.global	SJASetBaudrate
 164               		.type	SJASetBaudrate, @function
 165               	SJASetBaudrate:
 166               	/* prologue: frame size=0 */
 167 00e8 CF93      		push r28
 168 00ea DF93      		push r29
 169               	/* prologue end (size=2) */
 170 00ec EC01      		movw r28,r24
 171 00ee EF85      		ldd r30,Y+15
GAS LISTING C:\Users\Bart\AppData\Local\Temp/ccsDTPwA.s 			page 4


 172 00f0 F889      		ldd r31,Y+16
 173 00f2 4183      		std Z+1,r20
 174 00f4 5283      		std Z+2,r21
 175 00f6 6383      		std Z+3,r22
 176 00f8 7483      		std Z+4,r23
 177 00fa 00C0      		rjmp .L19
 178               	.L20:
 179 00fc E091 0000 		lds r30,sja_base
 180 0100 F091 0000 		lds r31,(sja_base)+1
 181 0104 A091 0000 		lds r26,sja_base
 182 0108 B091 0000 		lds r27,(sja_base)+1
 183 010c 8C91      		ld r24,X
 184 010e 8160      		ori r24,lo8(1)
 185 0110 8083      		st Z,r24
 186               	.L19:
 187 0112 E091 0000 		lds r30,sja_base
 188 0116 F091 0000 		lds r31,(sja_base)+1
 189 011a 8081      		ld r24,Z
 190 011c 80FF      		sbrs r24,0
 191 011e 00C0      		rjmp .L20
 192 0120 4430      		cpi r20,lo8(4)
 193 0122 5105      		cpc r21,__zero_reg__
 194 0124 6105      		cpc r22,__zero_reg__
 195 0126 7105      		cpc r23,__zero_reg__
 196 0128 01F4      		brne .+2
 197 012a 00C0      		rjmp .L27
 198 012c 4530      		cpi r20,lo8(5)
 199 012e 5105      		cpc r21,__zero_reg__
 200 0130 6105      		cpc r22,__zero_reg__
 201 0132 7105      		cpc r23,__zero_reg__
 202 0134 00F4      		brsh .L32
 203 0136 4130      		cpi r20,lo8(1)
 204 0138 5105      		cpc r21,__zero_reg__
 205 013a 6105      		cpc r22,__zero_reg__
 206 013c 7105      		cpc r23,__zero_reg__
 207 013e 01F0      		breq .L24
 208 0140 4130      		cpi r20,lo8(1)
 209 0142 5105      		cpc r21,__zero_reg__
 210 0144 6105      		cpc r22,__zero_reg__
 211 0146 7105      		cpc r23,__zero_reg__
 212 0148 00F0      		brlo .L23
 213 014a 4230      		cpi r20,lo8(2)
 214 014c 5105      		cpc r21,__zero_reg__
 215 014e 6105      		cpc r22,__zero_reg__
 216 0150 7105      		cpc r23,__zero_reg__
 217 0152 01F0      		breq .L25
 218 0154 4330      		cpi r20,lo8(3)
 219 0156 5105      		cpc r21,__zero_reg__
 220 0158 6105      		cpc r22,__zero_reg__
 221 015a 7105      		cpc r23,__zero_reg__
 222 015c 01F4      		brne .L22
 223 015e 00C0      		rjmp .L26
 224               	.L32:
 225 0160 4630      		cpi r20,lo8(6)
 226 0162 5105      		cpc r21,__zero_reg__
 227 0164 6105      		cpc r22,__zero_reg__
 228 0166 7105      		cpc r23,__zero_reg__
GAS LISTING C:\Users\Bart\AppData\Local\Temp/ccsDTPwA.s 			page 5


 229 0168 01F0      		breq .L29
 230 016a 4630      		cpi r20,lo8(6)
 231 016c 5105      		cpc r21,__zero_reg__
 232 016e 6105      		cpc r22,__zero_reg__
 233 0170 7105      		cpc r23,__zero_reg__
 234 0172 00F0      		brlo .L28
 235 0174 4730      		cpi r20,lo8(7)
 236 0176 5105      		cpc r21,__zero_reg__
 237 0178 6105      		cpc r22,__zero_reg__
 238 017a 7105      		cpc r23,__zero_reg__
 239 017c 01F0      		breq .L30
 240 017e 4830      		cpi r20,lo8(8)
 241 0180 5105      		cpc r21,__zero_reg__
 242 0182 6105      		cpc r22,__zero_reg__
 243 0184 7105      		cpc r23,__zero_reg__
 244 0186 01F0      		breq .L31
 245               	.L22:
 246 0188 91E0      		ldi r25,lo8(1)
 247 018a 00C0      		rjmp .L36
 248               	.L23:
 249 018c E091 0000 		lds r30,sja_base
 250 0190 F091 0000 		lds r31,(sja_base)+1
 251 0194 81E7      		ldi r24,lo8(113)
 252 0196 00C0      		rjmp .L40
 253               	.L24:
 254 0198 E091 0000 		lds r30,sja_base
 255 019c F091 0000 		lds r31,(sja_base)+1
 256 01a0 88E5      		ldi r24,lo8(88)
 257 01a2 00C0      		rjmp .L40
 258               	.L25:
 259 01a4 E091 0000 		lds r30,sja_base
 260 01a8 F091 0000 		lds r31,(sja_base)+1
 261 01ac 89E4      		ldi r24,lo8(73)
 262 01ae 00C0      		rjmp .L40
 263               	.L26:
 264 01b0 E091 0000 		lds r30,sja_base
 265 01b4 F091 0000 		lds r31,(sja_base)+1
 266 01b8 84E4      		ldi r24,lo8(68)
 267 01ba 00C0      		rjmp .L40
 268               	.L27:
 269 01bc E091 0000 		lds r30,sja_base
 270 01c0 F091 0000 		lds r31,(sja_base)+1
 271 01c4 83E4      		ldi r24,lo8(67)
 272 01c6 00C0      		rjmp .L40
 273               	.L28:
 274 01c8 E091 0000 		lds r30,sja_base
 275 01cc F091 0000 		lds r31,(sja_base)+1
 276 01d0 81E4      		ldi r24,lo8(65)
 277 01d2 00C0      		rjmp .L40
 278               	.L29:
 279 01d4 E091 0000 		lds r30,sja_base
 280 01d8 F091 0000 		lds r31,(sja_base)+1
 281 01dc 80E4      		ldi r24,lo8(64)
 282               	.L40:
 283 01de 8683      		std Z+6,r24
 284 01e0 E091 0000 		lds r30,sja_base
 285 01e4 F091 0000 		lds r31,(sja_base)+1
GAS LISTING C:\Users\Bart\AppData\Local\Temp/ccsDTPwA.s 			page 6


 286 01e8 8CE1      		ldi r24,lo8(28)
 287 01ea 00C0      		rjmp .L39
 288               	.L30:
 289 01ec E091 0000 		lds r30,sja_base
 290 01f0 F091 0000 		lds r31,(sja_base)+1
 291 01f4 80E4      		ldi r24,lo8(64)
 292 01f6 8683      		std Z+6,r24
 293 01f8 E091 0000 		lds r30,sja_base
 294 01fc F091 0000 		lds r31,(sja_base)+1
 295 0200 86E1      		ldi r24,lo8(22)
 296 0202 00C0      		rjmp .L39
 297               	.L31:
 298 0204 E091 0000 		lds r30,sja_base
 299 0208 F091 0000 		lds r31,(sja_base)+1
 300 020c 80E4      		ldi r24,lo8(64)
 301 020e 8683      		std Z+6,r24
 302 0210 E091 0000 		lds r30,sja_base
 303 0214 F091 0000 		lds r31,(sja_base)+1
 304 0218 84E1      		ldi r24,lo8(20)
 305               	.L39:
 306 021a 8783      		std Z+7,r24
 307 021c 90E0      		ldi r25,lo8(0)
 308               	.L36:
 309 021e E091 0000 		lds r30,sja_base
 310 0222 F091 0000 		lds r31,(sja_base)+1
 311 0226 1082      		st Z,__zero_reg__
 312 0228 E091 0000 		lds r30,sja_base
 313 022c F091 0000 		lds r31,(sja_base)+1
 314 0230 8081      		ld r24,Z
 315 0232 80FD      		sbrc r24,0
 316 0234 00C0      		rjmp .L36
 317 0236 892F      		mov r24,r25
 318 0238 9927      		clr r25
 319               	/* epilogue: frame size=0 */
 320 023a DF91      		pop r29
 321 023c CF91      		pop r28
 322 023e 0895      		ret
 323               	/* epilogue end (size=3) */
 324               	/* function SJASetBaudrate size 172 (167) */
 325               		.size	SJASetBaudrate, .-SJASetBaudrate
 326               	.global	SJATxFrame
 327               		.type	SJATxFrame, @function
 328               	SJATxFrame:
 329               	/* prologue: frame size=0 */
 330 0240 CF93      		push r28
 331 0242 DF93      		push r29
 332               	/* prologue end (size=2) */
 333 0244 EC01      		movw r28,r24
 334 0246 2881      		ld r18,Y
 335 0248 3981      		ldd r19,Y+1
 336 024a 4A81      		ldd r20,Y+2
 337 024c 5B81      		ldd r21,Y+3
 338 024e 8D85      		ldd r24,Y+13
 339 0250 9C81      		ldd r25,Y+4
 340 0252 6E85      		ldd r22,Y+14
 341 0254 8823      		tst r24
 342 0256 01F4      		brne .+2
GAS LISTING C:\Users\Bart\AppData\Local\Temp/ccsDTPwA.s 			page 7


 343 0258 00C0      		rjmp .L42
 344 025a E091 0000 		lds r30,sja_base
 345 025e F091 0000 		lds r31,(sja_base)+1
 346 0262 6623      		tst r22
 347 0264 01F0      		breq .L44
 348 0266 80E4      		ldi r24,lo8(64)
 349 0268 00C0      		rjmp .L46
 350               	.L44:
 351 026a 80E0      		ldi r24,lo8(0)
 352               	.L46:
 353 026c B3E0      		ldi r27,3
 354 026e 220F      	1:	lsl r18
 355 0270 331F      		rol r19
 356 0272 441F      		rol r20
 357 0274 551F      		rol r21
 358 0276 BA95      		dec r27
 359 0278 01F4      		brne 1b
 360 027a 9068      		ori r25,lo8(-128)
 361 027c 892B      		or r24,r25
 362 027e 808B      		std Z+16,r24
 363 0280 E091 0000 		lds r30,sja_base
 364 0284 F091 0000 		lds r31,(sja_base)+1
 365 0288 852F      		mov r24,r21
 366 028a 9927      		clr r25
 367 028c AA27      		clr r26
 368 028e BB27      		clr r27
 369 0290 818B      		std Z+17,r24
 370 0292 E091 0000 		lds r30,sja_base
 371 0296 F091 0000 		lds r31,(sja_base)+1
 372 029a CA01      		movw r24,r20
 373 029c AA27      		clr r26
 374 029e BB27      		clr r27
 375 02a0 828B      		std Z+18,r24
 376 02a2 E091 0000 		lds r30,sja_base
 377 02a6 F091 0000 		lds r31,(sja_base)+1
 378 02aa BB27      		clr r27
 379 02ac A52F      		mov r26,r21
 380 02ae 942F      		mov r25,r20
 381 02b0 832F      		mov r24,r19
 382 02b2 838B      		std Z+19,r24
 383 02b4 E091 0000 		lds r30,sja_base
 384 02b8 F091 0000 		lds r31,(sja_base)+1
 385 02bc 287F      		andi r18,lo8(-8)
 386 02be 248B      		std Z+20,r18
 387 02c0 E091 0000 		lds r30,sja_base
 388 02c4 F091 0000 		lds r31,(sja_base)+1
 389 02c8 8D81      		ldd r24,Y+5
 390 02ca 858B      		std Z+21,r24
 391 02cc E091 0000 		lds r30,sja_base
 392 02d0 F091 0000 		lds r31,(sja_base)+1
 393 02d4 8E81      		ldd r24,Y+6
 394 02d6 868B      		std Z+22,r24
 395 02d8 E091 0000 		lds r30,sja_base
 396 02dc F091 0000 		lds r31,(sja_base)+1
 397 02e0 8F81      		ldd r24,Y+7
 398 02e2 878B      		std Z+23,r24
 399 02e4 E091 0000 		lds r30,sja_base
GAS LISTING C:\Users\Bart\AppData\Local\Temp/ccsDTPwA.s 			page 8


 400 02e8 F091 0000 		lds r31,(sja_base)+1
 401 02ec 8885      		ldd r24,Y+8
 402 02ee 808F      		std Z+24,r24
 403 02f0 E091 0000 		lds r30,sja_base
 404 02f4 F091 0000 		lds r31,(sja_base)+1
 405 02f8 8985      		ldd r24,Y+9
 406 02fa 818F      		std Z+25,r24
 407 02fc E091 0000 		lds r30,sja_base
 408 0300 F091 0000 		lds r31,(sja_base)+1
 409 0304 8A85      		ldd r24,Y+10
 410 0306 828F      		std Z+26,r24
 411 0308 E091 0000 		lds r30,sja_base
 412 030c F091 0000 		lds r31,(sja_base)+1
 413 0310 8B85      		ldd r24,Y+11
 414 0312 838F      		std Z+27,r24
 415 0314 E091 0000 		lds r30,sja_base
 416 0318 F091 0000 		lds r31,(sja_base)+1
 417 031c 8C85      		ldd r24,Y+12
 418 031e 848F      		std Z+28,r24
 419 0320 00C0      		rjmp .L47
 420               	.L42:
 421 0322 E091 0000 		lds r30,sja_base
 422 0326 F091 0000 		lds r31,(sja_base)+1
 423 032a 6623      		tst r22
 424 032c 01F0      		breq .L48
 425 032e 80E4      		ldi r24,lo8(64)
 426 0330 00C0      		rjmp .L50
 427               	.L48:
 428 0332 80E0      		ldi r24,lo8(0)
 429               	.L50:
 430 0334 982B      		or r25,r24
 431 0336 908B      		std Z+16,r25
 432 0338 E091 0000 		lds r30,sja_base
 433 033c F091 0000 		lds r31,(sja_base)+1
 434 0340 8881      		ld r24,Y
 435 0342 9981      		ldd r25,Y+1
 436 0344 AA81      		ldd r26,Y+2
 437 0346 BB81      		ldd r27,Y+3
 438 0348 8B2F      		mov r24,r27
 439 034a 9927      		clr r25
 440 034c AA27      		clr r26
 441 034e BB27      		clr r27
 442 0350 818B      		std Z+17,r24
 443 0352 E091 0000 		lds r30,sja_base
 444 0356 F091 0000 		lds r31,(sja_base)+1
 445 035a 8881      		ld r24,Y
 446 035c 9981      		ldd r25,Y+1
 447 035e AA81      		ldd r26,Y+2
 448 0360 BB81      		ldd r27,Y+3
 449 0362 CD01      		movw r24,r26
 450 0364 AA27      		clr r26
 451 0366 BB27      		clr r27
 452 0368 807E      		andi r24,lo8(-32)
 453 036a 828B      		std Z+18,r24
 454 036c E091 0000 		lds r30,sja_base
 455 0370 F091 0000 		lds r31,(sja_base)+1
 456 0374 8D81      		ldd r24,Y+5
GAS LISTING C:\Users\Bart\AppData\Local\Temp/ccsDTPwA.s 			page 9


 457 0376 838B      		std Z+19,r24
 458 0378 E091 0000 		lds r30,sja_base
 459 037c F091 0000 		lds r31,(sja_base)+1
 460 0380 8E81      		ldd r24,Y+6
 461 0382 848B      		std Z+20,r24
 462 0384 E091 0000 		lds r30,sja_base
 463 0388 F091 0000 		lds r31,(sja_base)+1
 464 038c 8F81      		ldd r24,Y+7
 465 038e 858B      		std Z+21,r24
 466 0390 E091 0000 		lds r30,sja_base
 467 0394 F091 0000 		lds r31,(sja_base)+1
 468 0398 8885      		ldd r24,Y+8
 469 039a 868B      		std Z+22,r24
 470 039c E091 0000 		lds r30,sja_base
 471 03a0 F091 0000 		lds r31,(sja_base)+1
 472 03a4 8985      		ldd r24,Y+9
 473 03a6 878B      		std Z+23,r24
 474 03a8 E091 0000 		lds r30,sja_base
 475 03ac F091 0000 		lds r31,(sja_base)+1
 476 03b0 8A85      		ldd r24,Y+10
 477 03b2 808F      		std Z+24,r24
 478 03b4 E091 0000 		lds r30,sja_base
 479 03b8 F091 0000 		lds r31,(sja_base)+1
 480 03bc 8B85      		ldd r24,Y+11
 481 03be 818F      		std Z+25,r24
 482 03c0 E091 0000 		lds r30,sja_base
 483 03c4 F091 0000 		lds r31,(sja_base)+1
 484 03c8 8C85      		ldd r24,Y+12
 485 03ca 828F      		std Z+26,r24
 486               	.L47:
 487 03cc E091 0000 		lds r30,sja_base
 488 03d0 F091 0000 		lds r31,(sja_base)+1
 489 03d4 81E0      		ldi r24,lo8(1)
 490 03d6 8183      		std Z+1,r24
 491               	/* epilogue: frame size=0 */
 492 03d8 DF91      		pop r29
 493 03da CF91      		pop r28
 494 03dc 0895      		ret
 495               	/* epilogue end (size=3) */
 496               	/* function SJATxFrame size 207 (202) */
 497               		.size	SJATxFrame, .-SJATxFrame
 498               	.global	SJARxFrame
 499               		.type	SJARxFrame, @function
 500               	SJARxFrame:
 501               	/* prologue: frame size=0 */
 502 03de AF92      		push r10
 503 03e0 BF92      		push r11
 504 03e2 CF92      		push r12
 505 03e4 DF92      		push r13
 506 03e6 EF92      		push r14
 507 03e8 FF92      		push r15
 508 03ea 0F93      		push r16
 509 03ec 1F93      		push r17
 510 03ee CF93      		push r28
 511 03f0 DF93      		push r29
 512               	/* prologue end (size=10) */
 513 03f2 EC01      		movw r28,r24
GAS LISTING C:\Users\Bart\AppData\Local\Temp/ccsDTPwA.s 			page 10


 514 03f4 E091 0000 		lds r30,sja_base
 515 03f8 F091 0000 		lds r31,(sja_base)+1
 516 03fc 9089      		ldd r25,Z+16
 517 03fe 892F      		mov r24,r25
 518 0400 8F70      		andi r24,lo8(15)
 519 0402 8C83      		std Y+4,r24
 520 0404 1D86      		std Y+13,__zero_reg__
 521 0406 97FF      		sbrs r25,7
 522 0408 00C0      		rjmp .L53
 523 040a 81E0      		ldi r24,lo8(1)
 524 040c 8D87      		std Y+13,r24
 525               	.L53:
 526 040e 892F      		mov r24,r25
 527 0410 9927      		clr r25
 528 0412 A6E0      		ldi r26,6
 529 0414 9695      	1:	lsr r25
 530 0416 8795      		ror r24
 531 0418 AA95      		dec r26
 532 041a 01F4      		brne 1b
 533 041c 8170      		andi r24,lo8(1)
 534 041e 8E87      		std Y+14,r24
 535 0420 8D85      		ldd r24,Y+13
 536 0422 8823      		tst r24
 537 0424 01F4      		brne .+2
 538 0426 00C0      		rjmp .L54
 539 0428 E091 0000 		lds r30,sja_base
 540 042c F091 0000 		lds r31,(sja_base)+1
 541 0430 2189      		ldd r18,Z+17
 542 0432 E091 0000 		lds r30,sja_base
 543 0436 F091 0000 		lds r31,(sja_base)+1
 544 043a E288      		ldd r14,Z+18
 545 043c E091 0000 		lds r30,sja_base
 546 0440 F091 0000 		lds r31,(sja_base)+1
 547 0444 A388      		ldd r10,Z+19
 548 0446 E091 0000 		lds r30,sja_base
 549 044a F091 0000 		lds r31,(sja_base)+1
 550 044e 8489      		ldd r24,Z+20
 551 0450 3327      		clr r19
 552 0452 4427      		clr r20
 553 0454 5527      		clr r21
 554 0456 522F      		mov r21,r18
 555 0458 4427      		clr r20
 556 045a 3327      		clr r19
 557 045c 2227      		clr r18
 558 045e FF24      		clr r15
 559 0460 0027      		clr r16
 560 0462 1127      		clr r17
 561 0464 8701      		movw r16,r14
 562 0466 FF24      		clr r15
 563 0468 EE24      		clr r14
 564 046a 2E29      		or r18,r14
 565 046c 3F29      		or r19,r15
 566 046e 402B      		or r20,r16
 567 0470 512B      		or r21,r17
 568 0472 9927      		clr r25
 569 0474 AA27      		clr r26
 570 0476 BB27      		clr r27
GAS LISTING C:\Users\Bart\AppData\Local\Temp/ccsDTPwA.s 			page 11


 571 0478 887F      		andi r24,lo8(248)
 572 047a 9070      		andi r25,hi8(248)
 573 047c A070      		andi r26,hlo8(248)
 574 047e B070      		andi r27,hhi8(248)
 575 0480 BB24      		clr r11
 576 0482 CC24      		clr r12
 577 0484 DD24      		clr r13
 578 0486 DC2C      		mov r13,r12
 579 0488 CB2C      		mov r12,r11
 580 048a BA2C      		mov r11,r10
 581 048c AA24      		clr r10
 582 048e 8A29      		or r24,r10
 583 0490 9B29      		or r25,r11
 584 0492 AC29      		or r26,r12
 585 0494 BD29      		or r27,r13
 586 0496 282B      		or r18,r24
 587 0498 392B      		or r19,r25
 588 049a 4A2B      		or r20,r26
 589 049c 5B2B      		or r21,r27
 590 049e 63E0      		ldi r22,3
 591 04a0 5695      	1:	lsr r21
 592 04a2 4795      		ror r20
 593 04a4 3795      		ror r19
 594 04a6 2795      		ror r18
 595 04a8 6A95      		dec r22
 596 04aa 01F4      		brne 1b
 597 04ac 2883      		st Y,r18
 598 04ae 3983      		std Y+1,r19
 599 04b0 4A83      		std Y+2,r20
 600 04b2 5B83      		std Y+3,r21
 601 04b4 E091 0000 		lds r30,sja_base
 602 04b8 F091 0000 		lds r31,(sja_base)+1
 603 04bc 8589      		ldd r24,Z+21
 604 04be 8D83      		std Y+5,r24
 605 04c0 E091 0000 		lds r30,sja_base
 606 04c4 F091 0000 		lds r31,(sja_base)+1
 607 04c8 8689      		ldd r24,Z+22
 608 04ca 8E83      		std Y+6,r24
 609 04cc E091 0000 		lds r30,sja_base
 610 04d0 F091 0000 		lds r31,(sja_base)+1
 611 04d4 8789      		ldd r24,Z+23
 612 04d6 8F83      		std Y+7,r24
 613 04d8 E091 0000 		lds r30,sja_base
 614 04dc F091 0000 		lds r31,(sja_base)+1
 615 04e0 808D      		ldd r24,Z+24
 616 04e2 8887      		std Y+8,r24
 617 04e4 E091 0000 		lds r30,sja_base
 618 04e8 F091 0000 		lds r31,(sja_base)+1
 619 04ec 818D      		ldd r24,Z+25
 620 04ee 8987      		std Y+9,r24
 621 04f0 E091 0000 		lds r30,sja_base
 622 04f4 F091 0000 		lds r31,(sja_base)+1
 623 04f8 828D      		ldd r24,Z+26
 624 04fa 8A87      		std Y+10,r24
 625 04fc E091 0000 		lds r30,sja_base
 626 0500 F091 0000 		lds r31,(sja_base)+1
 627 0504 838D      		ldd r24,Z+27
GAS LISTING C:\Users\Bart\AppData\Local\Temp/ccsDTPwA.s 			page 12


 628 0506 8B87      		std Y+11,r24
 629 0508 E091 0000 		lds r30,sja_base
 630 050c F091 0000 		lds r31,(sja_base)+1
 631 0510 848D      		ldd r24,Z+28
 632 0512 00C0      		rjmp .L58
 633               	.L54:
 634 0514 E091 0000 		lds r30,sja_base
 635 0518 F091 0000 		lds r31,(sja_base)+1
 636 051c 8189      		ldd r24,Z+17
 637 051e E091 0000 		lds r30,sja_base
 638 0522 F091 0000 		lds r31,(sja_base)+1
 639 0526 2289      		ldd r18,Z+18
 640 0528 9927      		clr r25
 641 052a AA27      		clr r26
 642 052c BB27      		clr r27
 643 052e B82F      		mov r27,r24
 644 0530 AA27      		clr r26
 645 0532 9927      		clr r25
 646 0534 8827      		clr r24
 647 0536 3327      		clr r19
 648 0538 4427      		clr r20
 649 053a 5527      		clr r21
 650 053c A901      		movw r20,r18
 651 053e 3327      		clr r19
 652 0540 2227      		clr r18
 653 0542 822B      		or r24,r18
 654 0544 932B      		or r25,r19
 655 0546 A42B      		or r26,r20
 656 0548 B52B      		or r27,r21
 657 054a 13E0      		ldi r17,3
 658 054c B695      	1:	lsr r27
 659 054e A795      		ror r26
 660 0550 9795      		ror r25
 661 0552 8795      		ror r24
 662 0554 1A95      		dec r17
 663 0556 01F4      		brne 1b
 664 0558 8883      		st Y,r24
 665 055a 9983      		std Y+1,r25
 666 055c AA83      		std Y+2,r26
 667 055e BB83      		std Y+3,r27
 668 0560 E091 0000 		lds r30,sja_base
 669 0564 F091 0000 		lds r31,(sja_base)+1
 670 0568 8389      		ldd r24,Z+19
 671 056a 8D83      		std Y+5,r24
 672 056c E091 0000 		lds r30,sja_base
 673 0570 F091 0000 		lds r31,(sja_base)+1
 674 0574 8489      		ldd r24,Z+20
 675 0576 8E83      		std Y+6,r24
 676 0578 E091 0000 		lds r30,sja_base
 677 057c F091 0000 		lds r31,(sja_base)+1
 678 0580 8589      		ldd r24,Z+21
 679 0582 8F83      		std Y+7,r24
 680 0584 E091 0000 		lds r30,sja_base
 681 0588 F091 0000 		lds r31,(sja_base)+1
 682 058c 8689      		ldd r24,Z+22
 683 058e 8887      		std Y+8,r24
 684 0590 E091 0000 		lds r30,sja_base
GAS LISTING C:\Users\Bart\AppData\Local\Temp/ccsDTPwA.s 			page 13


 685 0594 F091 0000 		lds r31,(sja_base)+1
 686 0598 8789      		ldd r24,Z+23
 687 059a 8987      		std Y+9,r24
 688 059c E091 0000 		lds r30,sja_base
 689 05a0 F091 0000 		lds r31,(sja_base)+1
 690 05a4 808D      		ldd r24,Z+24
 691 05a6 8A87      		std Y+10,r24
 692 05a8 E091 0000 		lds r30,sja_base
 693 05ac F091 0000 		lds r31,(sja_base)+1
 694 05b0 818D      		ldd r24,Z+25
 695 05b2 8B87      		std Y+11,r24
 696 05b4 E091 0000 		lds r30,sja_base
 697 05b8 F091 0000 		lds r31,(sja_base)+1
 698 05bc 828D      		ldd r24,Z+26
 699               	.L58:
 700 05be 8C87      		std Y+12,r24
 701 05c0 E091 0000 		lds r30,sja_base
 702 05c4 F091 0000 		lds r31,(sja_base)+1
 703 05c8 84E0      		ldi r24,lo8(4)
 704 05ca 8183      		std Z+1,r24
 705               	/* epilogue: frame size=0 */
 706 05cc DF91      		pop r29
 707 05ce CF91      		pop r28
 708 05d0 1F91      		pop r17
 709 05d2 0F91      		pop r16
 710 05d4 FF90      		pop r15
 711 05d6 EF90      		pop r14
 712 05d8 DF90      		pop r13
 713 05da CF90      		pop r12
 714 05dc BF90      		pop r11
 715 05de AF90      		pop r10
 716 05e0 0895      		ret
 717               	/* epilogue end (size=11) */
 718               	/* function SJARxFrame size 258 (237) */
 719               		.size	SJARxFrame, .-SJARxFrame
 720               		.type	SJAInterrupt, @function
 721               	SJAInterrupt:
 722               	/* prologue: frame size=16 */
 723 05e2 EF92      		push r14
 724 05e4 FF92      		push r15
 725 05e6 0F93      		push r16
 726 05e8 1F93      		push r17
 727 05ea CF93      		push r28
 728 05ec DF93      		push r29
 729 05ee CDB7      		in r28,__SP_L__
 730 05f0 DEB7      		in r29,__SP_H__
 731 05f2 6097      		sbiw r28,16
 732 05f4 0FB6      		in __tmp_reg__,__SREG__
 733 05f6 F894      		cli
 734 05f8 DEBF      		out __SP_H__,r29
 735 05fa 0FBE      		out __SREG__,__tmp_reg__
 736 05fc CDBF      		out __SP_L__,r28
 737               	/* prologue end (size=14) */
 738 05fe E091 0000 		lds r30,sja_base
 739 0602 F091 0000 		lds r31,(sja_base)+1
 740 0606 2381      		ldd r18,Z+3
 741 0608 2983      		std Y+1,r18
GAS LISTING C:\Users\Bart\AppData\Local\Temp/ccsDTPwA.s 			page 14


 742 060a FC01      		movw r30,r24
 743 060c E188      		ldd r14,Z+17
 744 060e F288      		ldd r15,Z+18
 745 0610 F701      		movw r30,r14
 746 0612 8485      		ldd r24,Z+12
 747 0614 9585      		ldd r25,Z+13
 748 0616 A685      		ldd r26,Z+14
 749 0618 B785      		ldd r27,Z+15
 750 061a 0196      		adiw r24,1
 751 061c A11D      		adc r26,__zero_reg__
 752 061e B11D      		adc r27,__zero_reg__
 753 0620 8487      		std Z+12,r24
 754 0622 9587      		std Z+13,r25
 755 0624 A687      		std Z+14,r26
 756 0626 B787      		std Z+15,r27
 757 0628 8981      		ldd r24,Y+1
 758 062a 81FF      		sbrs r24,1
 759 062c 00C0      		rjmp .L60
 760 062e 8281      		ldd r24,Z+2
 761 0630 9381      		ldd r25,Z+3
 762 0632 892B      		or r24,r25
 763 0634 01F4      		brne .L62
 764 0636 8FEF      		ldi r24,lo8(-1)
 765 0638 9FEF      		ldi r25,hi8(-1)
 766 063a 9383      		std Z+3,r25
 767 063c 8283      		std Z+2,r24
 768 063e 00C0      		rjmp .L60
 769               	.L62:
 770 0640 F701      		movw r30,r14
 771 0642 8281      		ldd r24,Z+2
 772 0644 9381      		ldd r25,Z+3
 773 0646 8F5F      		subi r24,lo8(-1)
 774 0648 9F4F      		sbci r25,hi8(-1)
 775 064a 01F0      		breq .L60
 776 064c F701      		movw r30,r14
 777 064e A281      		ldd r26,Z+2
 778 0650 B381      		ldd r27,Z+3
 779 0652 FD01      		movw r30,r26
 780 0654 8481      		ldd r24,Z+4
 781 0656 9581      		ldd r25,Z+5
 782 0658 0196      		adiw r24,1
 783 065a 9583      		std Z+5,r25
 784 065c 8483      		std Z+4,r24
 785               	.L60:
 786 065e 8981      		ldd r24,Y+1
 787 0660 80FF      		sbrs r24,0
 788 0662 00C0      		rjmp .L65
 789 0664 2091 0000 		lds r18,CAN_RX_BUF+2
 790 0668 3091 0000 		lds r19,(CAN_RX_BUF+2)+1
 791 066c 8091 0000 		lds r24,CAN_RX_BUF+4
 792 0670 9091 0000 		lds r25,(CAN_RX_BUF+4)+1
 793 0674 2817      		cp r18,r24
 794 0676 3907      		cpc r19,r25
 795 0678 01F4      		brne .+2
 796 067a 00C0      		rjmp .L65
 797 067c 8E01      		movw r16,r28
 798 067e 0E5F      		subi r16,lo8(-(2))
GAS LISTING C:\Users\Bart\AppData\Local\Temp/ccsDTPwA.s 			page 15


 799 0680 1F4F      		sbci r17,hi8(-(2))
 800 0682 C801      		movw r24,r16
 801 0684 0E94 0000 		call SJARxFrame
 802 0688 B801      		movw r22,r16
 803 068a 80E0      		ldi r24,lo8(CAN_RX_BUF)
 804 068c 90E0      		ldi r25,hi8(CAN_RX_BUF)
 805 068e 0E94 0000 		call CANBufferPut
 806 0692 2091 0000 		lds r18,CAN_RX_BUF+2
 807 0696 3091 0000 		lds r19,(CAN_RX_BUF+2)+1
 808 069a 8091 0000 		lds r24,CAN_RX_BUF+4
 809 069e 9091 0000 		lds r25,(CAN_RX_BUF+4)+1
 810 06a2 2817      		cp r18,r24
 811 06a4 3907      		cpc r19,r25
 812 06a6 01F4      		brne .L68
 813 06a8 E091 0000 		lds r30,sja_base
 814 06ac F091 0000 		lds r31,(sja_base)+1
 815 06b0 8481      		ldd r24,Z+4
 816 06b2 8E7F      		andi r24,lo8(-2)
 817 06b4 8483      		std Z+4,r24
 818               	.L68:
 819 06b6 D701      		movw r26,r14
 820 06b8 8D91      		ld r24,X+
 821 06ba 9C91      		ld r25,X
 822 06bc 1197      		sbiw r26,1
 823 06be 892B      		or r24,r25
 824 06c0 01F4      		brne .L70
 825 06c2 8FEF      		ldi r24,lo8(-1)
 826 06c4 9FEF      		ldi r25,hi8(-1)
 827 06c6 1196      		adiw r26,1
 828 06c8 9C93      		st X,r25
 829 06ca 8E93      		st -X,r24
 830 06cc 00C0      		rjmp .L72
 831               	.L70:
 832 06ce F701      		movw r30,r14
 833 06d0 8081      		ld r24,Z
 834 06d2 9181      		ldd r25,Z+1
 835 06d4 8F5F      		subi r24,lo8(-1)
 836 06d6 9F4F      		sbci r25,hi8(-1)
 837 06d8 01F0      		breq .L72
 838 06da D701      		movw r26,r14
 839 06dc ED91      		ld r30,X+
 840 06de FC91      		ld r31,X
 841 06e0 8481      		ldd r24,Z+4
 842 06e2 9581      		ldd r25,Z+5
 843 06e4 0196      		adiw r24,1
 844 06e6 9583      		std Z+5,r25
 845 06e8 8483      		std Z+4,r24
 846               	.L72:
 847 06ea F701      		movw r30,r14
 848 06ec 8481      		ldd r24,Z+4
 849 06ee 9581      		ldd r25,Z+5
 850 06f0 A681      		ldd r26,Z+6
 851 06f2 B781      		ldd r27,Z+7
 852 06f4 0196      		adiw r24,1
 853 06f6 A11D      		adc r26,__zero_reg__
 854 06f8 B11D      		adc r27,__zero_reg__
 855 06fa 8483      		std Z+4,r24
GAS LISTING C:\Users\Bart\AppData\Local\Temp/ccsDTPwA.s 			page 16


 856 06fc 9583      		std Z+5,r25
 857 06fe A683      		std Z+6,r26
 858 0700 B783      		std Z+7,r27
 859               	.L65:
 860 0702 8981      		ldd r24,Y+1
 861 0704 82FF      		sbrs r24,2
 862 0706 00C0      		rjmp .L74
 863 0708 F701      		movw r30,r14
 864 070a 8489      		ldd r24,Z+20
 865 070c 9589      		ldd r25,Z+21
 866 070e A689      		ldd r26,Z+22
 867 0710 B789      		ldd r27,Z+23
 868 0712 0196      		adiw r24,1
 869 0714 A11D      		adc r26,__zero_reg__
 870 0716 B11D      		adc r27,__zero_reg__
 871 0718 848B      		std Z+20,r24
 872 071a 958B      		std Z+21,r25
 873 071c A68B      		std Z+22,r26
 874 071e B78B      		std Z+23,r27
 875 0720 00C0      		rjmp .L78
 876               	.L74:
 877 0722 8981      		ldd r24,Y+1
 878 0724 83FF      		sbrs r24,3
 879 0726 00C0      		rjmp .L78
 880 0728 F701      		movw r30,r14
 881 072a 8089      		ldd r24,Z+16
 882 072c 9189      		ldd r25,Z+17
 883 072e A289      		ldd r26,Z+18
 884 0730 B389      		ldd r27,Z+19
 885 0732 0196      		adiw r24,1
 886 0734 A11D      		adc r26,__zero_reg__
 887 0736 B11D      		adc r27,__zero_reg__
 888 0738 808B      		std Z+16,r24
 889 073a 918B      		std Z+17,r25
 890 073c A28B      		std Z+18,r26
 891 073e B38B      		std Z+19,r27
 892 0740 E091 0000 		lds r30,sja_base
 893 0744 F091 0000 		lds r31,(sja_base)+1
 894 0748 88E0      		ldi r24,lo8(8)
 895 074a 8183      		std Z+1,r24
 896               	.L78:
 897               	/* epilogue: frame size=16 */
 898 074c 6096      		adiw r28,16
 899 074e 0FB6      		in __tmp_reg__,__SREG__
 900 0750 F894      		cli
 901 0752 DEBF      		out __SP_H__,r29
 902 0754 0FBE      		out __SREG__,__tmp_reg__
 903 0756 CDBF      		out __SP_L__,r28
 904 0758 DF91      		pop r29
 905 075a CF91      		pop r28
 906 075c 1F91      		pop r17
 907 075e 0F91      		pop r16
 908 0760 FF90      		pop r15
 909 0762 EF90      		pop r14
 910 0764 0895      		ret
 911               	/* epilogue end (size=13) */
 912               	/* function SJAInterrupt size 196 (169) */
GAS LISTING C:\Users\Bart\AppData\Local\Temp/ccsDTPwA.s 			page 17


 913               		.size	SJAInterrupt, .-SJAInterrupt
 914               	.global	SJAInput
 915               		.type	SJAInput, @function
 916               	SJAInput:
 917               	/* prologue: frame size=15 */
 918 0766 CF92      		push r12
 919 0768 DF92      		push r13
 920 076a EF92      		push r14
 921 076c FF92      		push r15
 922 076e 0F93      		push r16
 923 0770 1F93      		push r17
 924 0772 CF93      		push r28
 925 0774 DF93      		push r29
 926 0776 CDB7      		in r28,__SP_L__
 927 0778 DEB7      		in r29,__SP_H__
 928 077a 2F97      		sbiw r28,15
 929 077c 0FB6      		in __tmp_reg__,__SREG__
 930 077e F894      		cli
 931 0780 DEBF      		out __SP_H__,r29
 932 0782 0FBE      		out __SREG__,__tmp_reg__
 933 0784 CDBF      		out __SP_L__,r28
 934               	/* prologue end (size=16) */
 935 0786 6B01      		movw r12,r22
 936 0788 FC01      		movw r30,r24
 937 078a E188      		ldd r14,Z+17
 938 078c F288      		ldd r15,Z+18
 939               	.L80:
 940 078e 8091 0000 		lds r24,CAN_RX_BUF+4
 941 0792 9091 0000 		lds r25,(CAN_RX_BUF+4)+1
 942 0796 892B      		or r24,r25
 943 0798 01F4      		brne .L81
 944 079a 40E0      		ldi r20,lo8(0)
 945 079c 50E0      		ldi r21,hi8(0)
 946 079e 60E0      		ldi r22,hlo8(0)
 947 07a0 70E0      		ldi r23,hhi8(0)
 948 07a2 C701      		movw r24,r14
 949 07a4 0E94 0000 		call NutEventWait
 950               	.L81:
 951               	/* #APP */
 952 07a8 0FB6      		in  __tmp_reg__, __SREG__
 953 07aa F894      		cli
 954 07ac 0F92      		push __tmp_reg__
 955               		
 956               	/* #NOAPP */
 957 07ae 8091 0000 		lds r24,CAN_RX_BUF+4
 958 07b2 9091 0000 		lds r25,(CAN_RX_BUF+4)+1
 959 07b6 892B      		or r24,r25
 960 07b8 01F4      		brne .L83
 961 07ba 80E0      		ldi r24,lo8(0)
 962 07bc 00C0      		rjmp .L85
 963               	.L83:
 964 07be 60E0      		ldi r22,lo8(CAN_RX_BUF)
 965 07c0 70E0      		ldi r23,hi8(CAN_RX_BUF)
 966 07c2 8E01      		movw r16,r28
 967 07c4 0F5F      		subi r16,lo8(-(1))
 968 07c6 1F4F      		sbci r17,hi8(-(1))
 969 07c8 C801      		movw r24,r16
GAS LISTING C:\Users\Bart\AppData\Local\Temp/ccsDTPwA.s 			page 18


 970 07ca 0E94 0000 		call CANBufferGet
 971 07ce F601      		movw r30,r12
 972 07d0 D801      		movw r26,r16
 973 07d2 8FE0      		ldi r24,lo8(15)
 974               	.L86:
 975 07d4 0D90      		ld r0,X+
 976 07d6 0192      		st Z+,r0
 977 07d8 8150      		subi r24,lo8(-(-1))
 978 07da 01F4      		brne .L86
 979 07dc 81E0      		ldi r24,lo8(1)
 980               	.L85:
 981               	/* #APP */
 982 07de 0F90      		pop __tmp_reg__
 983 07e0 0FBE      		out __SREG__, __tmp_reg__
 984               		
 985               	/* #NOAPP */
 986 07e2 8823      		tst r24
 987 07e4 01F0      		breq .L80
 988 07e6 E091 0000 		lds r30,sja_base
 989 07ea F091 0000 		lds r31,(sja_base)+1
 990 07ee 8481      		ldd r24,Z+4
 991 07f0 8160      		ori r24,lo8(1)
 992 07f2 8483      		std Z+4,r24
 993               	/* epilogue: frame size=15 */
 994 07f4 2F96      		adiw r28,15
 995 07f6 0FB6      		in __tmp_reg__,__SREG__
 996 07f8 F894      		cli
 997 07fa DEBF      		out __SP_H__,r29
 998 07fc 0FBE      		out __SREG__,__tmp_reg__
 999 07fe CDBF      		out __SP_L__,r28
 1000 0800 DF91      		pop r29
 1001 0802 CF91      		pop r28
 1002 0804 1F91      		pop r17
 1003 0806 0F91      		pop r16
 1004 0808 FF90      		pop r15
 1005 080a EF90      		pop r14
 1006 080c DF90      		pop r13
 1007 080e CF90      		pop r12
 1008 0810 0895      		ret
 1009               	/* epilogue end (size=15) */
 1010               	/* function SJAInput size 96 (65) */
 1011               		.size	SJAInput, .-SJAInput
 1012               	.global	SJASetAccMask
 1013               		.type	SJASetAccMask, @function
 1014               	SJASetAccMask:
 1015               	/* prologue: frame size=0 */
 1016 0812 CF93      		push r28
 1017 0814 DF93      		push r29
 1018               	/* prologue end (size=2) */
 1019 0816 EB01      		movw r28,r22
 1020 0818 FC01      		movw r30,r24
 1021 081a 2785      		ldd r18,Z+15
 1022 081c 3089      		ldd r19,Z+16
 1023 081e 8881      		ld r24,Y
 1024 0820 9981      		ldd r25,Y+1
 1025 0822 AA81      		ldd r26,Y+2
 1026 0824 BB81      		ldd r27,Y+3
GAS LISTING C:\Users\Bart\AppData\Local\Temp/ccsDTPwA.s 			page 19


 1027 0826 F901      		movw r30,r18
 1028 0828 8583      		std Z+5,r24
 1029 082a 9683      		std Z+6,r25
 1030 082c A783      		std Z+7,r26
 1031 082e B087      		std Z+8,r27
 1032 0830 00C0      		rjmp .L94
 1033               	.L95:
 1034 0832 E091 0000 		lds r30,sja_base
 1035 0836 F091 0000 		lds r31,(sja_base)+1
 1036 083a A091 0000 		lds r26,sja_base
 1037 083e B091 0000 		lds r27,(sja_base)+1
 1038 0842 8C91      		ld r24,X
 1039 0844 8160      		ori r24,lo8(1)
 1040 0846 8083      		st Z,r24
 1041               	.L94:
 1042 0848 E091 0000 		lds r30,sja_base
 1043 084c F091 0000 		lds r31,(sja_base)+1
 1044 0850 8081      		ld r24,Z
 1045 0852 80FF      		sbrs r24,0
 1046 0854 00C0      		rjmp .L95
 1047 0856 E091 0000 		lds r30,sja_base
 1048 085a F091 0000 		lds r31,(sja_base)+1
 1049 085e 8881      		ld r24,Y
 1050 0860 848B      		std Z+20,r24
 1051 0862 E091 0000 		lds r30,sja_base
 1052 0866 F091 0000 		lds r31,(sja_base)+1
 1053 086a 8981      		ldd r24,Y+1
 1054 086c 858B      		std Z+21,r24
 1055 086e E091 0000 		lds r30,sja_base
 1056 0872 F091 0000 		lds r31,(sja_base)+1
 1057 0876 8A81      		ldd r24,Y+2
 1058 0878 868B      		std Z+22,r24
 1059 087a E091 0000 		lds r30,sja_base
 1060 087e F091 0000 		lds r31,(sja_base)+1
 1061 0882 8B81      		ldd r24,Y+3
 1062 0884 878B      		std Z+23,r24
 1063 0886 E091 0000 		lds r30,sja_base
 1064 088a F091 0000 		lds r31,(sja_base)+1
 1065 088e 88E0      		ldi r24,lo8(8)
 1066 0890 8083      		st Z,r24
 1067               	.L97:
 1068 0892 E091 0000 		lds r30,sja_base
 1069 0896 F091 0000 		lds r31,(sja_base)+1
 1070 089a 1082      		st Z,__zero_reg__
 1071 089c E091 0000 		lds r30,sja_base
 1072 08a0 F091 0000 		lds r31,(sja_base)+1
 1073 08a4 8081      		ld r24,Z
 1074 08a6 80FD      		sbrc r24,0
 1075 08a8 00C0      		rjmp .L97
 1076               	/* epilogue: frame size=0 */
 1077 08aa DF91      		pop r29
 1078 08ac CF91      		pop r28
 1079 08ae 0895      		ret
 1080               	/* epilogue end (size=3) */
 1081               	/* function SJASetAccMask size 79 (74) */
 1082               		.size	SJASetAccMask, .-SJASetAccMask
 1083               	.global	SJASetAccCode
GAS LISTING C:\Users\Bart\AppData\Local\Temp/ccsDTPwA.s 			page 20


 1084               		.type	SJASetAccCode, @function
 1085               	SJASetAccCode:
 1086               	/* prologue: frame size=0 */
 1087 08b0 CF93      		push r28
 1088 08b2 DF93      		push r29
 1089               	/* prologue end (size=2) */
 1090 08b4 EB01      		movw r28,r22
 1091 08b6 FC01      		movw r30,r24
 1092 08b8 2785      		ldd r18,Z+15
 1093 08ba 3089      		ldd r19,Z+16
 1094 08bc 8881      		ld r24,Y
 1095 08be 9981      		ldd r25,Y+1
 1096 08c0 AA81      		ldd r26,Y+2
 1097 08c2 BB81      		ldd r27,Y+3
 1098 08c4 F901      		movw r30,r18
 1099 08c6 8187      		std Z+9,r24
 1100 08c8 9287      		std Z+10,r25
 1101 08ca A387      		std Z+11,r26
 1102 08cc B487      		std Z+12,r27
 1103 08ce 00C0      		rjmp .L103
 1104               	.L104:
 1105 08d0 E091 0000 		lds r30,sja_base
 1106 08d4 F091 0000 		lds r31,(sja_base)+1
 1107 08d8 A091 0000 		lds r26,sja_base
 1108 08dc B091 0000 		lds r27,(sja_base)+1
 1109 08e0 8C91      		ld r24,X
 1110 08e2 8160      		ori r24,lo8(1)
 1111 08e4 8083      		st Z,r24
 1112               	.L103:
 1113 08e6 E091 0000 		lds r30,sja_base
 1114 08ea F091 0000 		lds r31,(sja_base)+1
 1115 08ee 8081      		ld r24,Z
 1116 08f0 80FF      		sbrs r24,0
 1117 08f2 00C0      		rjmp .L104
 1118 08f4 E091 0000 		lds r30,sja_base
 1119 08f8 F091 0000 		lds r31,(sja_base)+1
 1120 08fc 8881      		ld r24,Y
 1121 08fe 808B      		std Z+16,r24
 1122 0900 E091 0000 		lds r30,sja_base
 1123 0904 F091 0000 		lds r31,(sja_base)+1
 1124 0908 8981      		ldd r24,Y+1
 1125 090a 818B      		std Z+17,r24
 1126 090c E091 0000 		lds r30,sja_base
 1127 0910 F091 0000 		lds r31,(sja_base)+1
 1128 0914 8A81      		ldd r24,Y+2
 1129 0916 828B      		std Z+18,r24
 1130 0918 E091 0000 		lds r30,sja_base
 1131 091c F091 0000 		lds r31,(sja_base)+1
 1132 0920 8B81      		ldd r24,Y+3
 1133 0922 838B      		std Z+19,r24
 1134 0924 E091 0000 		lds r30,sja_base
 1135 0928 F091 0000 		lds r31,(sja_base)+1
 1136 092c 88E0      		ldi r24,lo8(8)
 1137 092e 8083      		st Z,r24
 1138               	.L106:
 1139 0930 E091 0000 		lds r30,sja_base
 1140 0934 F091 0000 		lds r31,(sja_base)+1
GAS LISTING C:\Users\Bart\AppData\Local\Temp/ccsDTPwA.s 			page 21


 1141 0938 1082      		st Z,__zero_reg__
 1142 093a E091 0000 		lds r30,sja_base
 1143 093e F091 0000 		lds r31,(sja_base)+1
 1144 0942 8081      		ld r24,Z
 1145 0944 80FD      		sbrc r24,0
 1146 0946 00C0      		rjmp .L106
 1147               	/* epilogue: frame size=0 */
 1148 0948 DF91      		pop r29
 1149 094a CF91      		pop r28
 1150 094c 0895      		ret
 1151               	/* epilogue end (size=3) */
 1152               	/* function SJASetAccCode size 79 (74) */
 1153               		.size	SJASetAccCode, .-SJASetAccCode
 1154               	.global	CANBufferPutMutex
 1155               		.type	CANBufferPutMutex, @function
 1156               	CANBufferPutMutex:
 1157               	/* prologue: frame size=0 */
 1158 094e 0F93      		push r16
 1159 0950 1F93      		push r17
 1160 0952 CF93      		push r28
 1161 0954 DF93      		push r29
 1162               	/* prologue end (size=4) */
 1163 0956 EC01      		movw r28,r24
 1164 0958 8B01      		movw r16,r22
 1165 095a 0896      		adiw r24,8
 1166 095c 0E94 0000 		call NutSemWait
 1167 0960 2C81      		ldd r18,Y+4
 1168 0962 3D81      		ldd r19,Y+5
 1169 0964 6A81      		ldd r22,Y+2
 1170 0966 7B81      		ldd r23,Y+3
 1171 0968 2617      		cp r18,r22
 1172 096a 3707      		cpc r19,r23
 1173 096c 00F4      		brsh .L112
 1174 096e 8E81      		ldd r24,Y+6
 1175 0970 9F81      		ldd r25,Y+7
 1176 0972 820F      		add r24,r18
 1177 0974 931F      		adc r25,r19
 1178 0976 0E94 0000 		call __udivmodhi4
 1179 097a FC01      		movw r30,r24
 1180 097c B4E0      		ldi r27,4
 1181 097e EE0F      	1:	lsl r30
 1182 0980 FF1F      		rol r31
 1183 0982 BA95      		dec r27
 1184 0984 01F4      		brne 1b
 1185 0986 E81B      		sub r30,r24
 1186 0988 F90B      		sbc r31,r25
 1187 098a 8881      		ld r24,Y
 1188 098c 9981      		ldd r25,Y+1
 1189 098e E80F      		add r30,r24
 1190 0990 F91F      		adc r31,r25
 1191 0992 D801      		movw r26,r16
 1192 0994 8FE0      		ldi r24,lo8(15)
 1193               	.L114:
 1194 0996 0D90      		ld r0,X+
 1195 0998 0192      		st Z+,r0
 1196 099a 8150      		subi r24,lo8(-(-1))
 1197 099c 01F4      		brne .L114
GAS LISTING C:\Users\Bart\AppData\Local\Temp/ccsDTPwA.s 			page 22


 1198 099e 8C81      		ldd r24,Y+4
 1199 09a0 9D81      		ldd r25,Y+5
 1200 09a2 0196      		adiw r24,1
 1201 09a4 9D83      		std Y+5,r25
 1202 09a6 8C83      		std Y+4,r24
 1203               	.L112:
 1204 09a8 CE01      		movw r24,r28
 1205 09aa 0C96      		adiw r24,12
 1206 09ac 0E94 0000 		call NutSemPost
 1207               	/* epilogue: frame size=0 */
 1208 09b0 DF91      		pop r29
 1209 09b2 CF91      		pop r28
 1210 09b4 1F91      		pop r17
 1211 09b6 0F91      		pop r16
 1212 09b8 0895      		ret
 1213               	/* epilogue end (size=5) */
 1214               	/* function CANBufferPutMutex size 55 (46) */
 1215               		.size	CANBufferPutMutex, .-CANBufferPutMutex
 1216               	.global	SJAOutput
 1217               		.type	SJAOutput, @function
 1218               	SJAOutput:
 1219               	/* prologue: frame size=0 */
 1220 09ba 0F93      		push r16
 1221 09bc 1F93      		push r17
 1222               	/* prologue end (size=2) */
 1223 09be FC01      		movw r30,r24
 1224 09c0 0189      		ldd r16,Z+17
 1225 09c2 1289      		ldd r17,Z+18
 1226 09c4 80E0      		ldi r24,lo8(CAN_TX_BUF)
 1227 09c6 90E0      		ldi r25,hi8(CAN_TX_BUF)
 1228 09c8 0E94 0000 		call CANBufferPutMutex
 1229 09cc C801      		movw r24,r16
 1230 09ce 0296      		adiw r24,2
 1231 09d0 0E94 0000 		call NutEventPostAsync
 1232               	/* epilogue: frame size=0 */
 1233 09d4 1F91      		pop r17
 1234 09d6 0F91      		pop r16
 1235 09d8 0895      		ret
 1236               	/* epilogue end (size=3) */
 1237               	/* function SJAOutput size 16 (11) */
 1238               		.size	SJAOutput, .-SJAOutput
 1239               	.global	CANBufferGetMutex
 1240               		.type	CANBufferGetMutex, @function
 1241               	CANBufferGetMutex:
 1242               	/* prologue: frame size=0 */
 1243 09da EF92      		push r14
 1244 09dc FF92      		push r15
 1245 09de 0F93      		push r16
 1246 09e0 1F93      		push r17
 1247 09e2 CF93      		push r28
 1248 09e4 DF93      		push r29
 1249               	/* prologue end (size=6) */
 1250 09e6 7C01      		movw r14,r24
 1251 09e8 EB01      		movw r28,r22
 1252 09ea CB01      		movw r24,r22
 1253 09ec 0C96      		adiw r24,12
 1254 09ee 0E94 0000 		call NutSemWait
GAS LISTING C:\Users\Bart\AppData\Local\Temp/ccsDTPwA.s 			page 23


 1255 09f2 8C81      		ldd r24,Y+4
 1256 09f4 9D81      		ldd r25,Y+5
 1257 09f6 892B      		or r24,r25
 1258 09f8 01F0      		breq .L121
 1259 09fa 0E81      		ldd r16,Y+6
 1260 09fc 1F81      		ldd r17,Y+7
 1261 09fe B801      		movw r22,r16
 1262 0a00 84E0      		ldi r24,4
 1263 0a02 660F      	1:	lsl r22
 1264 0a04 771F      		rol r23
 1265 0a06 8A95      		dec r24
 1266 0a08 01F4      		brne 1b
 1267 0a0a 601B      		sub r22,r16
 1268 0a0c 710B      		sbc r23,r17
 1269 0a0e 8881      		ld r24,Y
 1270 0a10 9981      		ldd r25,Y+1
 1271 0a12 680F      		add r22,r24
 1272 0a14 791F      		adc r23,r25
 1273 0a16 4FE0      		ldi r20,lo8(15)
 1274 0a18 50E0      		ldi r21,hi8(15)
 1275 0a1a C701      		movw r24,r14
 1276 0a1c 0E94 0000 		call memmove
 1277 0a20 C801      		movw r24,r16
 1278 0a22 0196      		adiw r24,1
 1279 0a24 9F83      		std Y+7,r25
 1280 0a26 8E83      		std Y+6,r24
 1281 0a28 6A81      		ldd r22,Y+2
 1282 0a2a 7B81      		ldd r23,Y+3
 1283 0a2c 8617      		cp r24,r22
 1284 0a2e 9707      		cpc r25,r23
 1285 0a30 00F0      		brlo .L123
 1286 0a32 0E94 0000 		call __udivmodhi4
 1287 0a36 9F83      		std Y+7,r25
 1288 0a38 8E83      		std Y+6,r24
 1289               	.L123:
 1290 0a3a 8C81      		ldd r24,Y+4
 1291 0a3c 9D81      		ldd r25,Y+5
 1292 0a3e 0197      		sbiw r24,1
 1293 0a40 9D83      		std Y+5,r25
 1294 0a42 8C83      		std Y+4,r24
 1295               	.L121:
 1296 0a44 CE01      		movw r24,r28
 1297 0a46 0896      		adiw r24,8
 1298 0a48 0E94 0000 		call NutSemPost
 1299 0a4c C701      		movw r24,r14
 1300               	/* epilogue: frame size=0 */
 1301 0a4e DF91      		pop r29
 1302 0a50 CF91      		pop r28
 1303 0a52 1F91      		pop r17
 1304 0a54 0F91      		pop r16
 1305 0a56 FF90      		pop r15
 1306 0a58 EF90      		pop r14
 1307 0a5a 0895      		ret
 1308               	/* epilogue end (size=7) */
 1309               	/* function CANBufferGetMutex size 65 (52) */
 1310               		.size	CANBufferGetMutex, .-CANBufferGetMutex
 1311               	.global	CAN_Tx
GAS LISTING C:\Users\Bart\AppData\Local\Temp/ccsDTPwA.s 			page 24


 1312               		.type	CAN_Tx, @function
 1313               	CAN_Tx:
 1314               	/* prologue: frame size=30 */
 1315 0a5c CF93      		push r28
 1316 0a5e DF93      		push r29
 1317 0a60 CDB7      		in r28,__SP_L__
 1318 0a62 DEB7      		in r29,__SP_H__
 1319 0a64 6E97      		sbiw r28,30
 1320 0a66 0FB6      		in __tmp_reg__,__SREG__
 1321 0a68 F894      		cli
 1322 0a6a DEBF      		out __SP_H__,r29
 1323 0a6c 0FBE      		out __SREG__,__tmp_reg__
 1324 0a6e CDBF      		out __SP_L__,r28
 1325               	/* prologue end (size=10) */
 1326 0a70 FC01      		movw r30,r24
 1327 0a72 E188      		ldd r14,Z+17
 1328 0a74 F288      		ldd r15,Z+18
 1329 0a76 80E1      		ldi r24,lo8(16)
 1330 0a78 0E94 0000 		call NutThreadSetPriority
 1331               	.L127:
 1332 0a7c 40E0      		ldi r20,lo8(0)
 1333 0a7e 50E0      		ldi r21,hi8(0)
 1334 0a80 60E0      		ldi r22,hlo8(0)
 1335 0a82 70E0      		ldi r23,hhi8(0)
 1336 0a84 C701      		movw r24,r14
 1337 0a86 0296      		adiw r24,2
 1338 0a88 0E94 0000 		call NutEventWait
 1339 0a8c 00C0      		rjmp .L128
 1340               	.L129:
 1341 0a8e 8E01      		movw r16,r28
 1342 0a90 005F      		subi r16,lo8(-(16))
 1343 0a92 1F4F      		sbci r17,hi8(-(16))
 1344 0a94 60E0      		ldi r22,lo8(CAN_TX_BUF)
 1345 0a96 70E0      		ldi r23,hi8(CAN_TX_BUF)
 1346 0a98 C801      		movw r24,r16
 1347 0a9a 0E94 0000 		call CANBufferGetMutex
 1348 0a9e DE01      		movw r26,r28
 1349 0aa0 1196      		adiw r26,1
 1350 0aa2 F801      		movw r30,r16
 1351 0aa4 8FE0      		ldi r24,lo8(15)
 1352               	.L130:
 1353 0aa6 0190      		ld r0,Z+
 1354 0aa8 0D92      		st X+,r0
 1355 0aaa 8150      		subi r24,lo8(-(-1))
 1356 0aac 01F4      		brne .L130
 1357 0aae CE01      		movw r24,r28
 1358 0ab0 0196      		adiw r24,1
 1359 0ab2 0E94 0000 		call SJATxFrame
 1360 0ab6 F701      		movw r30,r14
 1361 0ab8 8085      		ldd r24,Z+8
 1362 0aba 9185      		ldd r25,Z+9
 1363 0abc A285      		ldd r26,Z+10
 1364 0abe B385      		ldd r27,Z+11
 1365 0ac0 0196      		adiw r24,1
 1366 0ac2 A11D      		adc r26,__zero_reg__
 1367 0ac4 B11D      		adc r27,__zero_reg__
 1368 0ac6 8087      		std Z+8,r24
GAS LISTING C:\Users\Bart\AppData\Local\Temp/ccsDTPwA.s 			page 25


 1369 0ac8 9187      		std Z+9,r25
 1370 0aca A287      		std Z+10,r26
 1371 0acc B387      		std Z+11,r27
 1372               	.L128:
 1373 0ace E091 0000 		lds r30,sja_base
 1374 0ad2 F091 0000 		lds r31,(sja_base)+1
 1375 0ad6 8281      		ldd r24,Z+2
 1376 0ad8 82FD      		sbrc r24,2
 1377 0ada 00C0      		rjmp .L129
 1378 0adc 00C0      		rjmp .L127
 1379               	/* epilogue: frame size=30 */
 1380               	/* epilogue: noreturn */
 1381               	/* epilogue end (size=0) */
 1382               	/* function CAN_Tx size 66 (56) */
 1383               		.size	CAN_Tx, .-CAN_Tx
 1384               	.global	CANBufferInit
 1385               		.type	CANBufferInit, @function
 1386               	CANBufferInit:
 1387               	/* prologue: frame size=0 */
 1388 0ade EF92      		push r14
 1389 0ae0 FF92      		push r15
 1390 0ae2 0F93      		push r16
 1391 0ae4 1F93      		push r17
 1392               	/* prologue end (size=4) */
 1393 0ae6 8C01      		movw r16,r24
 1394 0ae8 7B01      		movw r14,r22
 1395 0aea 60E0      		ldi r22,lo8(0)
 1396 0aec 70E0      		ldi r23,hi8(0)
 1397 0aee 0C96      		adiw r24,12
 1398 0af0 0E94 0000 		call NutSemInit
 1399 0af4 6FE3      		ldi r22,lo8(63)
 1400 0af6 70E0      		ldi r23,hi8(63)
 1401 0af8 C801      		movw r24,r16
 1402 0afa 0896      		adiw r24,8
 1403 0afc 0E94 0000 		call NutSemInit
 1404 0b00 C701      		movw r24,r14
 1405 0b02 24E0      		ldi r18,4
 1406 0b04 880F      	1:	lsl r24
 1407 0b06 991F      		rol r25
 1408 0b08 2A95      		dec r18
 1409 0b0a 01F4      		brne 1b
 1410 0b0c 8E19      		sub r24,r14
 1411 0b0e 9F09      		sbc r25,r15
 1412 0b10 0E94 0000 		call NutHeapAlloc
 1413 0b14 F801      		movw r30,r16
 1414 0b16 9183      		std Z+1,r25
 1415 0b18 8083      		st Z,r24
 1416 0b1a F382      		std Z+3,r15
 1417 0b1c E282      		std Z+2,r14
 1418 0b1e 1782      		std Z+7,__zero_reg__
 1419 0b20 1682      		std Z+6,__zero_reg__
 1420 0b22 1582      		std Z+5,__zero_reg__
 1421 0b24 1482      		std Z+4,__zero_reg__
 1422               	/* epilogue: frame size=0 */
 1423 0b26 1F91      		pop r17
 1424 0b28 0F91      		pop r16
 1425 0b2a FF90      		pop r15
GAS LISTING C:\Users\Bart\AppData\Local\Temp/ccsDTPwA.s 			page 26


 1426 0b2c EF90      		pop r14
 1427 0b2e 0895      		ret
 1428               	/* epilogue end (size=5) */
 1429               	/* function CANBufferInit size 41 (32) */
 1430               		.size	CANBufferInit, .-CANBufferInit
 1431               		.data
 1432               	.LC0:
 1433 0000 736A 6163 		.string	"sjacantx"
 1433      616E 7478 
 1433      00
 1434               		.text
 1435               	.global	SJAInit
 1436               		.type	SJAInit, @function
 1437               	SJAInit:
 1438               	/* prologue: frame size=1 */
 1439 0b30 EF92      		push r14
 1440 0b32 FF92      		push r15
 1441 0b34 0F93      		push r16
 1442 0b36 1F93      		push r17
 1443 0b38 CF93      		push r28
 1444 0b3a DF93      		push r29
 1445 0b3c CDB7      		in r28,__SP_L__
 1446 0b3e DEB7      		in r29,__SP_H__
 1447 0b40 2197      		sbiw r28,1
 1448 0b42 0FB6      		in __tmp_reg__,__SREG__
 1449 0b44 F894      		cli
 1450 0b46 DEBF      		out __SP_H__,r29
 1451 0b48 0FBE      		out __SREG__,__tmp_reg__
 1452 0b4a CDBF      		out __SP_L__,r28
 1453               	/* prologue end (size=14) */
 1454 0b4c 7C01      		movw r14,r24
 1455 0b4e FC01      		movw r30,r24
 1456 0b50 8485      		ldd r24,Z+12
 1457 0b52 9585      		ldd r25,Z+13
 1458 0b54 9093 0000 		sts (sja_base)+1,r25
 1459 0b58 8093 0000 		sts sja_base,r24
 1460 0b5c 0785      		ldd r16,Z+15
 1461 0b5e 1089      		ldd r17,Z+16
 1462 0b60 A189      		ldd r26,Z+17
 1463 0b62 B289      		ldd r27,Z+18
 1464 0b64 88E1      		ldi r24,lo8(24)
 1465 0b66 1D92      		st X+,__zero_reg__
 1466 0b68 8A95      	        dec r24
 1467 0b6a 01F4      		brne .-6
 1468 0b6c 60E4      		ldi r22,lo8(64)
 1469 0b6e 70E0      		ldi r23,hi8(64)
 1470 0b70 80E0      		ldi r24,lo8(CAN_RX_BUF)
 1471 0b72 90E0      		ldi r25,hi8(CAN_RX_BUF)
 1472 0b74 0E94 0000 		call CANBufferInit
 1473 0b78 60E4      		ldi r22,lo8(64)
 1474 0b7a 70E0      		ldi r23,hi8(64)
 1475 0b7c 80E0      		ldi r24,lo8(CAN_TX_BUF)
 1476 0b7e 90E0      		ldi r25,hi8(CAN_TX_BUF)
 1477 0b80 0E94 0000 		call CANBufferInit
 1478 0b84 00C0      		rjmp .L137
 1479               	.L138:
 1480 0b86 E091 0000 		lds r30,sja_base
GAS LISTING C:\Users\Bart\AppData\Local\Temp/ccsDTPwA.s 			page 27


 1481 0b8a F091 0000 		lds r31,(sja_base)+1
 1482 0b8e A091 0000 		lds r26,sja_base
 1483 0b92 B091 0000 		lds r27,(sja_base)+1
 1484 0b96 8C91      		ld r24,X
 1485 0b98 8160      		ori r24,lo8(1)
 1486 0b9a 8083      		st Z,r24
 1487               	.L137:
 1488 0b9c E091 0000 		lds r30,sja_base
 1489 0ba0 F091 0000 		lds r31,(sja_base)+1
 1490 0ba4 8081      		ld r24,Z
 1491 0ba6 80FF      		sbrs r24,0
 1492 0ba8 00C0      		rjmp .L138
 1493 0baa E091 0000 		lds r30,sja_base
 1494 0bae F091 0000 		lds r31,(sja_base)+1
 1495 0bb2 88EC      		ldi r24,lo8(-56)
 1496 0bb4 878F      		std Z+31,r24
 1497 0bb6 E091 0000 		lds r30,sja_base
 1498 0bba F091 0000 		lds r31,(sja_base)+1
 1499 0bbe 1482      		std Z+4,__zero_reg__
 1500 0bc0 A091 0000 		lds r26,sja_base
 1501 0bc4 B091 0000 		lds r27,(sja_base)+1
 1502 0bc8 F801      		movw r30,r16
 1503 0bca 8185      		ldd r24,Z+9
 1504 0bcc FD01      		movw r30,r26
 1505 0bce 808B      		std Z+16,r24
 1506 0bd0 A091 0000 		lds r26,sja_base
 1507 0bd4 B091 0000 		lds r27,(sja_base)+1
 1508 0bd8 F801      		movw r30,r16
 1509 0bda 8285      		ldd r24,Z+10
 1510 0bdc FD01      		movw r30,r26
 1511 0bde 818B      		std Z+17,r24
 1512 0be0 A091 0000 		lds r26,sja_base
 1513 0be4 B091 0000 		lds r27,(sja_base)+1
 1514 0be8 F801      		movw r30,r16
 1515 0bea 8385      		ldd r24,Z+11
 1516 0bec FD01      		movw r30,r26
 1517 0bee 828B      		std Z+18,r24
 1518 0bf0 A091 0000 		lds r26,sja_base
 1519 0bf4 B091 0000 		lds r27,(sja_base)+1
 1520 0bf8 F801      		movw r30,r16
 1521 0bfa 8485      		ldd r24,Z+12
 1522 0bfc FD01      		movw r30,r26
 1523 0bfe 838B      		std Z+19,r24
 1524 0c00 A091 0000 		lds r26,sja_base
 1525 0c04 B091 0000 		lds r27,(sja_base)+1
 1526 0c08 F801      		movw r30,r16
 1527 0c0a 8581      		ldd r24,Z+5
 1528 0c0c FD01      		movw r30,r26
 1529 0c0e 848B      		std Z+20,r24
 1530 0c10 A091 0000 		lds r26,sja_base
 1531 0c14 B091 0000 		lds r27,(sja_base)+1
 1532 0c18 F801      		movw r30,r16
 1533 0c1a 8681      		ldd r24,Z+6
 1534 0c1c FD01      		movw r30,r26
 1535 0c1e 858B      		std Z+21,r24
 1536 0c20 A091 0000 		lds r26,sja_base
 1537 0c24 B091 0000 		lds r27,(sja_base)+1
GAS LISTING C:\Users\Bart\AppData\Local\Temp/ccsDTPwA.s 			page 28


 1538 0c28 F801      		movw r30,r16
 1539 0c2a 8781      		ldd r24,Z+7
 1540 0c2c FD01      		movw r30,r26
 1541 0c2e 868B      		std Z+22,r24
 1542 0c30 A091 0000 		lds r26,sja_base
 1543 0c34 B091 0000 		lds r27,(sja_base)+1
 1544 0c38 F801      		movw r30,r16
 1545 0c3a 8085      		ldd r24,Z+8
 1546 0c3c FD01      		movw r30,r26
 1547 0c3e 878B      		std Z+23,r24
 1548 0c40 F801      		movw r30,r16
 1549 0c42 8181      		ldd r24,Z+1
 1550 0c44 9281      		ldd r25,Z+2
 1551 0c46 A381      		ldd r26,Z+3
 1552 0c48 B481      		ldd r27,Z+4
 1553 0c4a 8430      		cpi r24,lo8(4)
 1554 0c4c 9105      		cpc r25,__zero_reg__
 1555 0c4e A105      		cpc r26,__zero_reg__
 1556 0c50 B105      		cpc r27,__zero_reg__
 1557 0c52 01F4      		brne .+2
 1558 0c54 00C0      		rjmp .L145
 1559 0c56 8530      		cpi r24,lo8(5)
 1560 0c58 9105      		cpc r25,__zero_reg__
 1561 0c5a A105      		cpc r26,__zero_reg__
 1562 0c5c B105      		cpc r27,__zero_reg__
 1563 0c5e 00F4      		brsh .L150
 1564 0c60 8130      		cpi r24,lo8(1)
 1565 0c62 9105      		cpc r25,__zero_reg__
 1566 0c64 A105      		cpc r26,__zero_reg__
 1567 0c66 B105      		cpc r27,__zero_reg__
 1568 0c68 01F0      		breq .L142
 1569 0c6a 8130      		cpi r24,lo8(1)
 1570 0c6c 9105      		cpc r25,__zero_reg__
 1571 0c6e A105      		cpc r26,__zero_reg__
 1572 0c70 B105      		cpc r27,__zero_reg__
 1573 0c72 00F0      		brlo .L141
 1574 0c74 8230      		cpi r24,lo8(2)
 1575 0c76 9105      		cpc r25,__zero_reg__
 1576 0c78 A105      		cpc r26,__zero_reg__
 1577 0c7a B105      		cpc r27,__zero_reg__
 1578 0c7c 01F0      		breq .L143
 1579 0c7e 0397      		sbiw r24,3
 1580 0c80 A105      		cpc r26,__zero_reg__
 1581 0c82 B105      		cpc r27,__zero_reg__
 1582 0c84 01F4      		brne .L140
 1583 0c86 00C0      		rjmp .L144
 1584               	.L150:
 1585 0c88 8630      		cpi r24,lo8(6)
 1586 0c8a 9105      		cpc r25,__zero_reg__
 1587 0c8c A105      		cpc r26,__zero_reg__
 1588 0c8e B105      		cpc r27,__zero_reg__
 1589 0c90 01F0      		breq .L147
 1590 0c92 8630      		cpi r24,lo8(6)
 1591 0c94 9105      		cpc r25,__zero_reg__
 1592 0c96 A105      		cpc r26,__zero_reg__
 1593 0c98 B105      		cpc r27,__zero_reg__
 1594 0c9a 00F0      		brlo .L146
GAS LISTING C:\Users\Bart\AppData\Local\Temp/ccsDTPwA.s 			page 29


 1595 0c9c 8730      		cpi r24,lo8(7)
 1596 0c9e 9105      		cpc r25,__zero_reg__
 1597 0ca0 A105      		cpc r26,__zero_reg__
 1598 0ca2 B105      		cpc r27,__zero_reg__
 1599 0ca4 01F0      		breq .L148
 1600 0ca6 0897      		sbiw r24,8
 1601 0ca8 A105      		cpc r26,__zero_reg__
 1602 0caa B105      		cpc r27,__zero_reg__
 1603 0cac 01F4      		brne .+2
 1604 0cae 00C0      		rjmp .L149
 1605               	.L140:
 1606 0cb0 87E0      		ldi r24,lo8(7)
 1607 0cb2 90E0      		ldi r25,hi8(7)
 1608 0cb4 00C0      		rjmp .L151
 1609               	.L141:
 1610 0cb6 E091 0000 		lds r30,sja_base
 1611 0cba F091 0000 		lds r31,(sja_base)+1
 1612 0cbe 81E7      		ldi r24,lo8(113)
 1613 0cc0 00C0      		rjmp .L161
 1614               	.L142:
 1615 0cc2 E091 0000 		lds r30,sja_base
 1616 0cc6 F091 0000 		lds r31,(sja_base)+1
 1617 0cca 88E5      		ldi r24,lo8(88)
 1618 0ccc 00C0      		rjmp .L161
 1619               	.L143:
 1620 0cce E091 0000 		lds r30,sja_base
 1621 0cd2 F091 0000 		lds r31,(sja_base)+1
 1622 0cd6 89E4      		ldi r24,lo8(73)
 1623 0cd8 00C0      		rjmp .L161
 1624               	.L144:
 1625 0cda E091 0000 		lds r30,sja_base
 1626 0cde F091 0000 		lds r31,(sja_base)+1
 1627 0ce2 84E4      		ldi r24,lo8(68)
 1628 0ce4 00C0      		rjmp .L161
 1629               	.L145:
 1630 0ce6 E091 0000 		lds r30,sja_base
 1631 0cea F091 0000 		lds r31,(sja_base)+1
 1632 0cee 83E4      		ldi r24,lo8(67)
 1633 0cf0 00C0      		rjmp .L161
 1634               	.L146:
 1635 0cf2 E091 0000 		lds r30,sja_base
 1636 0cf6 F091 0000 		lds r31,(sja_base)+1
 1637 0cfa 81E4      		ldi r24,lo8(65)
 1638 0cfc 00C0      		rjmp .L161
 1639               	.L147:
 1640 0cfe E091 0000 		lds r30,sja_base
 1641 0d02 F091 0000 		lds r31,(sja_base)+1
 1642 0d06 80E4      		ldi r24,lo8(64)
 1643               	.L161:
 1644 0d08 8683      		std Z+6,r24
 1645 0d0a E091 0000 		lds r30,sja_base
 1646 0d0e F091 0000 		lds r31,(sja_base)+1
 1647 0d12 8CE1      		ldi r24,lo8(28)
 1648 0d14 00C0      		rjmp .L160
 1649               	.L148:
 1650 0d16 E091 0000 		lds r30,sja_base
 1651 0d1a F091 0000 		lds r31,(sja_base)+1
GAS LISTING C:\Users\Bart\AppData\Local\Temp/ccsDTPwA.s 			page 30


 1652 0d1e 80E4      		ldi r24,lo8(64)
 1653 0d20 8683      		std Z+6,r24
 1654 0d22 E091 0000 		lds r30,sja_base
 1655 0d26 F091 0000 		lds r31,(sja_base)+1
 1656 0d2a 86E1      		ldi r24,lo8(22)
 1657 0d2c 00C0      		rjmp .L160
 1658               	.L149:
 1659 0d2e E091 0000 		lds r30,sja_base
 1660 0d32 F091 0000 		lds r31,(sja_base)+1
 1661 0d36 80E4      		ldi r24,lo8(64)
 1662 0d38 8683      		std Z+6,r24
 1663 0d3a E091 0000 		lds r30,sja_base
 1664 0d3e F091 0000 		lds r31,(sja_base)+1
 1665 0d42 84E1      		ldi r24,lo8(20)
 1666               	.L160:
 1667 0d44 8783      		std Z+7,r24
 1668 0d46 E091 0000 		lds r30,sja_base
 1669 0d4a F091 0000 		lds r31,(sja_base)+1
 1670 0d4e 8AE1      		ldi r24,lo8(26)
 1671 0d50 8087      		std Z+8,r24
 1672 0d52 E091 0000 		lds r30,sja_base
 1673 0d56 F091 0000 		lds r31,(sja_base)+1
 1674 0d5a 8FE0      		ldi r24,lo8(15)
 1675 0d5c 8483      		std Z+4,r24
 1676 0d5e E091 0000 		lds r30,sja_base
 1677 0d62 F091 0000 		lds r31,(sja_base)+1
 1678 0d66 88E0      		ldi r24,lo8(8)
 1679 0d68 8083      		st Z,r24
 1680               	.L153:
 1681 0d6a E091 0000 		lds r30,sja_base
 1682 0d6e F091 0000 		lds r31,(sja_base)+1
 1683 0d72 1082      		st Z,__zero_reg__
 1684 0d74 E091 0000 		lds r30,sja_base
 1685 0d78 F091 0000 		lds r31,(sja_base)+1
 1686 0d7c 8081      		ld r24,Z
 1687 0d7e 80FD      		sbrc r24,0
 1688 0d80 00C0      		rjmp .L153
 1689               	/* #APP */
 1690 0d82 0FB6      		in  __tmp_reg__, __SREG__
 1691 0d84 F894      		cli
 1692 0d86 0F92      		push __tmp_reg__
 1693               		
 1694               	/* #NOAPP */
 1695 0d88 A701      		movw r20,r14
 1696 0d8a 60E0      		ldi r22,lo8(gs(SJAInterrupt))
 1697 0d8c 70E0      		ldi r23,hi8(gs(SJAInterrupt))
 1698 0d8e 80E0      		ldi r24,lo8(sig_INTERRUPT7)
 1699 0d90 90E0      		ldi r25,hi8(sig_INTERRUPT7)
 1700 0d92 0E94 0000 		call NutRegisterIrqHandler
 1701 0d96 892B      		or r24,r25
 1702 0d98 01F0      		breq .L155
 1703               	/* #APP */
 1704 0d9a 0F90      		pop __tmp_reg__
 1705 0d9c 0FBE      		out __SREG__, __tmp_reg__
 1706               		
 1707               	/* #NOAPP */
 1708 0d9e 8FEF      		ldi r24,lo8(-1)
GAS LISTING C:\Users\Bart\AppData\Local\Temp/ccsDTPwA.s 			page 31


 1709 0da0 9FEF      		ldi r25,hi8(-1)
 1710 0da2 00C0      		rjmp .L151
 1711               	.L155:
 1712 0da4 EF98      		cbi 61-0x20,7
 1713 0da6 8091 6A00 		lds r24,106
 1714 0daa 8F7B      		andi r24,lo8(-65)
 1715 0dac 8093 6A00 		sts 106,r24
 1716 0db0 8091 6A00 		lds r24,106
 1717 0db4 8F77      		andi r24,lo8(127)
 1718 0db6 8093 6A00 		sts 106,r24
 1719 0dba E091 0000 		lds r30,sja_base
 1720 0dbe F091 0000 		lds r31,(sja_base)+1
 1721 0dc2 8381      		ldd r24,Z+3
 1722 0dc4 8983      		std Y+1,r24
 1723 0dc6 EF9A      		sbi 61-0x20,7
 1724 0dc8 779A      		sbi 46-0x20,7
 1725 0dca 20E0      		ldi r18,lo8(256)
 1726 0dcc 31E0      		ldi r19,hi8(256)
 1727 0dce A701      		movw r20,r14
 1728 0dd0 60E0      		ldi r22,lo8(gs(CAN_Tx))
 1729 0dd2 70E0      		ldi r23,hi8(gs(CAN_Tx))
 1730 0dd4 80E0      		ldi r24,lo8(.LC0)
 1731 0dd6 90E0      		ldi r25,hi8(.LC0)
 1732 0dd8 0E94 0000 		call NutThreadCreate
 1733               	/* #APP */
 1734 0ddc 0F90      		pop __tmp_reg__
 1735 0dde 0FBE      		out __SREG__, __tmp_reg__
 1736               		
 1737               	/* #NOAPP */
 1738 0de0 80E0      		ldi r24,lo8(0)
 1739 0de2 90E0      		ldi r25,hi8(0)
 1740               	.L151:
 1741               	/* epilogue: frame size=1 */
 1742 0de4 2196      		adiw r28,1
 1743 0de6 0FB6      		in __tmp_reg__,__SREG__
 1744 0de8 F894      		cli
 1745 0dea DEBF      		out __SP_H__,r29
 1746 0dec 0FBE      		out __SREG__,__tmp_reg__
 1747 0dee CDBF      		out __SP_L__,r28
 1748 0df0 DF91      		pop r29
 1749 0df2 CF91      		pop r28
 1750 0df4 1F91      		pop r17
 1751 0df6 0F91      		pop r16
 1752 0df8 FF90      		pop r15
 1753 0dfa EF90      		pop r14
 1754 0dfc 0895      		ret
 1755               	/* epilogue end (size=13) */
 1756               	/* function SJAInit size 373 (346) */
 1757               		.size	SJAInit, .-SJAInit
 1758               	.global	SJATxFree
 1759               		.type	SJATxFree, @function
 1760               	SJATxFree:
 1761               	/* prologue: frame size=0 */
 1762               	/* prologue end (size=0) */
 1763 0dfe 8091 0000 		lds r24,CAN_TX_BUF+2
 1764 0e02 9091 0000 		lds r25,(CAN_TX_BUF+2)+1
 1765 0e06 2091 0000 		lds r18,CAN_TX_BUF+4
GAS LISTING C:\Users\Bart\AppData\Local\Temp/ccsDTPwA.s 			page 32


 1766 0e0a 3091 0000 		lds r19,(CAN_TX_BUF+4)+1
 1767 0e0e 821B      		sub r24,r18
 1768 0e10 9927      		clr r25
 1769               	/* epilogue: frame size=0 */
 1770 0e12 0895      		ret
 1771               	/* epilogue end (size=1) */
 1772               	/* function SJATxFree size 11 (10) */
 1773               		.size	SJATxFree, .-SJATxFree
 1774               	.global	sja_base
 1775               	.global	sja_base
 1776               		.section .bss
 1777               		.type	sja_base, @object
 1778               		.size	sja_base, 2
 1779               	sja_base:
 1780 0000 0000      		.skip 2,0
 1781               	.global	ifc_sja1000
 1782               		.data
 1783               		.type	ifc_sja1000, @object
 1784               		.size	ifc_sja1000, 27
 1785               	ifc_sja1000:
 1786 0009 02        		.byte	2
 1787 000a 06        		.byte	6
 1788 000b 00        		.byte	0
 1789 000c 00        		.byte	0
 1790 000d 00        		.byte	0
 1791 000e FF        		.byte	-1
 1792 000f FF        		.byte	-1
 1793 0010 FF        		.byte	-1
 1794 0011 FF        		.byte	-1
 1795 0012 00        		.byte	0
 1796 0013 00        		.byte	0
 1797 0014 00        		.byte	0
 1798 0015 00        		.byte	0
 1799 0016 0000      		.word	gs(SJARxAvail)
 1800 0018 0000      		.word	gs(SJATxFree)
 1801 001a 0000      		.word	gs(SJAInput)
 1802 001c 0000      		.word	gs(SJAOutput)
 1803 001e 0000      		.word	gs(SJASetAccCode)
 1804 0020 0000      		.word	gs(SJASetAccMask)
 1805 0022 0000      		.word	gs(SJASetBaudrate)
 1806               	.global	devSJA1000
 1807               		.type	devSJA1000, @object
 1808               		.size	devSJA1000, 35
 1809               	devSJA1000:
 1810 0024 0000      		.word	0
 1811 0026 73        		.byte	115
 1812 0027 6A        		.byte	106
 1813 0028 61        		.byte	97
 1814 0029 31        		.byte	49
 1815 002a 30        		.byte	48
 1816 002b 30        		.byte	48
 1817 002c 30        		.byte	48
 1818 002d 00        		.byte	0
 1819 002e 00        		.byte	0
 1820 002f 06        		.byte	6
 1821 0030 0000      		.word	0
 1822 0032 00        		.byte	0
GAS LISTING C:\Users\Bart\AppData\Local\Temp/ccsDTPwA.s 			page 33


 1823 0033 0000      		.word	ifc_sja1000
 1824 0035 0000      		.word	dcb_sja1000
 1825 0037 0000      		.word	gs(SJAInit)
 1826 0039 0000      		.word	0
 1827 003b 0000      		.word	0
 1828 003d 0000      		.word	0
 1829 003f 0000      		.word	0
 1830 0041 0000      		.word	0
 1831 0043 0000      		.word	0
 1832 0045 0000      		.word	0
 1833               		.comm dcb_sja1000,24,1
 1834               		.comm CAN_RX_BUF,16,1
 1835               		.comm CAN_TX_BUF,16,1
 1836               	/* File "D:/Git/TI-2A3-InternetMediaCenter/tools/ethernut-4.3.3/nut/arch/avr/dev/sja1000.c": code 1
GAS LISTING C:\Users\Bart\AppData\Local\Temp/ccsDTPwA.s 			page 34


DEFINED SYMBOLS
                            *ABS*:00000000 sja1000.c
C:\Users\Bart\AppData\Local\Temp/ccsDTPwA.s:3      *ABS*:0000003f __SREG__
C:\Users\Bart\AppData\Local\Temp/ccsDTPwA.s:4      *ABS*:0000003e __SP_H__
C:\Users\Bart\AppData\Local\Temp/ccsDTPwA.s:5      *ABS*:0000003d __SP_L__
C:\Users\Bart\AppData\Local\Temp/ccsDTPwA.s:6      *ABS*:00000000 __tmp_reg__
C:\Users\Bart\AppData\Local\Temp/ccsDTPwA.s:7      *ABS*:00000001 __zero_reg__
C:\Users\Bart\AppData\Local\Temp/ccsDTPwA.s:13     .text:00000000 CANBufferGet
C:\Users\Bart\AppData\Local\Temp/ccsDTPwA.s:79     .text:00000072 CANBufferPut
C:\Users\Bart\AppData\Local\Temp/ccsDTPwA.s:136    .text:000000d0 CANBufferFree
C:\Users\Bart\AppData\Local\Temp/ccsDTPwA.s:153    .text:000000e0 SJARxAvail
                            *COM*:00000010 CAN_RX_BUF
C:\Users\Bart\AppData\Local\Temp/ccsDTPwA.s:165    .text:000000e8 SJASetBaudrate
C:\Users\Bart\AppData\Local\Temp/ccsDTPwA.s:1779   .bss:00000000 sja_base
C:\Users\Bart\AppData\Local\Temp/ccsDTPwA.s:328    .text:00000240 SJATxFrame
C:\Users\Bart\AppData\Local\Temp/ccsDTPwA.s:500    .text:000003de SJARxFrame
C:\Users\Bart\AppData\Local\Temp/ccsDTPwA.s:721    .text:000005e2 SJAInterrupt
C:\Users\Bart\AppData\Local\Temp/ccsDTPwA.s:916    .text:00000766 SJAInput
C:\Users\Bart\AppData\Local\Temp/ccsDTPwA.s:1014   .text:00000812 SJASetAccMask
C:\Users\Bart\AppData\Local\Temp/ccsDTPwA.s:1085   .text:000008b0 SJASetAccCode
C:\Users\Bart\AppData\Local\Temp/ccsDTPwA.s:1156   .text:0000094e CANBufferPutMutex
C:\Users\Bart\AppData\Local\Temp/ccsDTPwA.s:1218   .text:000009ba SJAOutput
                            *COM*:00000010 CAN_TX_BUF
C:\Users\Bart\AppData\Local\Temp/ccsDTPwA.s:1241   .text:000009da CANBufferGetMutex
C:\Users\Bart\AppData\Local\Temp/ccsDTPwA.s:1313   .text:00000a5c CAN_Tx
C:\Users\Bart\AppData\Local\Temp/ccsDTPwA.s:1386   .text:00000ade CANBufferInit
C:\Users\Bart\AppData\Local\Temp/ccsDTPwA.s:1437   .text:00000b30 SJAInit
C:\Users\Bart\AppData\Local\Temp/ccsDTPwA.s:1760   .text:00000dfe SJATxFree
C:\Users\Bart\AppData\Local\Temp/ccsDTPwA.s:1785   .data:00000009 ifc_sja1000
C:\Users\Bart\AppData\Local\Temp/ccsDTPwA.s:1809   .data:00000024 devSJA1000
                            *COM*:00000018 dcb_sja1000

UNDEFINED SYMBOLS
__do_copy_data
__do_clear_bss
memmove
__udivmodhi4
NutEventWait
NutSemWait
NutSemPost
NutEventPostAsync
NutThreadSetPriority
NutSemInit
NutHeapAlloc
sig_INTERRUPT7
NutRegisterIrqHandler
NutThreadCreate
