GAS LISTING C:\DOCUME~1\Arlind\LOCALS~1\Temp/ccWIXrEw.s 			page 1


   1               		.file	"phatdbg.c"
   2               		.arch atmega2561
   3               	__SREG__ = 0x3f
   4               	__SP_H__ = 0x3e
   5               	__SP_L__ = 0x3d
   6               	__tmp_reg__ = 0
   7               	__zero_reg__ = 1
   8               		.global __do_copy_data
   9               		.global __do_clear_bss
  10               		.data
  11               	.LC0:
  12 0000 2D2D 2D20 		.string	"--- %s ---\n"
  12      2573 202D 
  12      2D2D 0A00 
  13               	.LC1:
  14 000c 426F 6F74 		.string	"Boot jump      : %02X %02X %02X\n"
  14      206A 756D 
  14      7020 2020 
  14      2020 203A 
  14      2025 3032 
  15               	.LC2:
  16 002d 4F45 4D20 		.string	"OEM name       : %.8s\n"
  16      6E61 6D65 
  16      2020 2020 
  16      2020 203A 
  16      2025 2E38 
  17               	.LC3:
  18 0044 4279 7465 		.string	"Bytes/sector   : %u\n"
  18      732F 7365 
  18      6374 6F72 
  18      2020 203A 
  18      2025 750A 
  19               	.LC4:
  20 0059 5365 6374 		.string	"Sectors/cluster: %u\n"
  20      6F72 732F 
  20      636C 7573 
  20      7465 723A 
  20      2025 750A 
  21               	.LC5:
  22 006e 5273 7664 		.string	"Rsvd. sectors  : %u\n"
  22      2E20 7365 
  22      6374 6F72 
  22      7320 203A 
  22      2025 750A 
  23               	.LC6:
  24 0083 416C 6C6F 		.string	"Alloc. tables  : %u\n"
  24      632E 2074 
  24      6162 6C65 
  24      7320 203A 
  24      2025 750A 
  25               	.LC7:
  26 0098 526F 6F74 		.string	"Root entries   : %u\n"
  26      2065 6E74 
  26      7269 6573 
  26      2020 203A 
  26      2025 750A 
  27               	.LC8:
GAS LISTING C:\DOCUME~1\Arlind\LOCALS~1\Temp/ccWIXrEw.s 			page 2


  28 00ad 546F 7461 		.string	"Total sectors  : %lu\n"
  28      6C20 7365 
  28      6374 6F72 
  28      7320 203A 
  28      2025 6C75 
  29               	.LC9:
  30 00c3 4D65 6469 		.string	"Media type     : 0x%02X\n"
  30      6120 7479 
  30      7065 2020 
  30      2020 203A 
  30      2030 7825 
  31               	.LC10:
  32 00dc 5365 6374 		.string	"Sectors/table  : %u %lu\n"
  32      6F72 732F 
  32      7461 626C 
  32      6520 203A 
  32      2025 7520 
  33               	.LC11:
  34 00f5 5365 6374 		.string	"Sectors/track  : %u\n"
  34      6F72 732F 
  34      7472 6163 
  34      6B20 203A 
  34      2025 750A 
  35               	.LC12:
  36 010a 4865 6164 		.string	"Heads          : %u\n"
  36      7320 2020 
  36      2020 2020 
  36      2020 203A 
  36      2025 750A 
  37               	.LC13:
  38 011f 4869 6464 		.string	"Hidden sectors : %lu\n"
  38      656E 2073 
  38      6563 746F 
  38      7273 203A 
  38      2025 6C75 
  39               	.LC14:
  40 0135 4D69 7272 		.string	"Mirror flags   : 0x%04u\n"
  40      6F72 2066 
  40      6C61 6773 
  40      2020 203A 
  40      2030 7825 
  41               	.LC15:
  42 014e 4669 6C65 		.string	"File system ver: %u\n"
  42      2073 7973 
  42      7465 6D20 
  42      7665 723A 
  42      2025 750A 
  43               	.LC16:
  44 0163 526F 6F74 		.string	"Root dir clust : %lu\n"
  44      2064 6972 
  44      2063 6C75 
  44      7374 203A 
  44      2025 6C75 
  45               	.LC17:
  46 0179 4653 496E 		.string	"FSInfo sector  : %u\n"
  46      666F 2073 
  46      6563 746F 
GAS LISTING C:\DOCUME~1\Arlind\LOCALS~1\Temp/ccWIXrEw.s 			page 3


  46      7220 203A 
  46      2025 750A 
  47               	.LC18:
  48 018e 426F 6F74 		.string	"Boot back sect : %u\n"
  48      2062 6163 
  48      6B20 7365 
  48      6374 203A 
  48      2025 750A 
  49               	.LC19:
  50 01a3 4C6F 6769 		.string	"Logical drive  : %u\n"
  50      6361 6C20 
  50      6472 6976 
  50      6520 203A 
  50      2025 750A 
  51               	.LC20:
  52 01b8 5273 7664 		.string	"Rsvd NT(head)  : %u\n"
  52      204E 5428 
  52      6865 6164 
  52      2920 203A 
  52      2025 750A 
  53               	.LC21:
  54 01cd 4578 742E 		.string	"Ext. signature : 0x%02X\n"
  54      2073 6967 
  54      6E61 7475 
  54      7265 203A 
  54      2030 7825 
  55               	.LC22:
  56 01e6 566F 6C75 		.string	"Volume ID      : 0x%08lX\n"
  56      6D65 2049 
  56      4420 2020 
  56      2020 203A 
  56      2030 7825 
  57               	.LC23:
  58 0200 566F 6C75 		.string	"Volume label   : %.11s\n"
  58      6D65 206C 
  58      6162 656C 
  58      2020 203A 
  58      2025 2E31 
  59               	.LC24:
  60 0218 4669 6C65 		.string	"Filesystem     : %.8s\n"
  60      7379 7374 
  60      656D 2020 
  60      2020 203A 
  60      2025 2E38 
  61               		.text
  62               	.global	PhatDbgVbr
  63               		.type	PhatDbgVbr, @function
  64               	PhatDbgVbr:
  65               	/* prologue: frame size=0 */
  66 0000 EF92      		push r14
  67 0002 FF92      		push r15
  68 0004 0F93      		push r16
  69 0006 1F93      		push r17
  70 0008 CF93      		push r28
  71 000a DF93      		push r29
  72               	/* prologue end (size=6) */
  73 000c 7C01      		movw r14,r24
GAS LISTING C:\DOCUME~1\Arlind\LOCALS~1\Temp/ccWIXrEw.s 			page 4


  74 000e EA01      		movw r28,r20
  75 0010 6115      		cp r22,__zero_reg__
  76 0012 7105      		cpc r23,__zero_reg__
  77 0014 01F0      		breq .L2
  78 0016 7F93      		push r23
  79 0018 6F93      		push r22
  80 001a 80E0      		ldi r24,lo8(.LC0)
  81 001c 90E0      		ldi r25,hi8(.LC0)
  82 001e 9F93      		push r25
  83 0020 8F93      		push r24
  84 0022 FF92      		push r15
  85 0024 EF92      		push r14
  86 0026 0E94 0000 		call fprintf
  87 002a 2DB7      		in r18,__SP_L__
  88 002c 3EB7      		in r19,__SP_H__
  89 002e 2A5F      		subi r18,lo8(-(6))
  90 0030 3F4F      		sbci r19,hi8(-(6))
  91 0032 0FB6      		in __tmp_reg__,__SREG__
  92 0034 F894      		cli
  93 0036 3EBF      		out __SP_H__,r19
  94 0038 0FBE      		out __SREG__,__tmp_reg__
  95 003a 2DBF      		out __SP_L__,r18
  96               	.L2:
  97 003c 8A81      		ldd r24,Y+2
  98 003e 9927      		clr r25
  99 0040 9F93      		push r25
 100 0042 8F93      		push r24
 101 0044 8981      		ldd r24,Y+1
 102 0046 9927      		clr r25
 103 0048 9F93      		push r25
 104 004a 8F93      		push r24
 105 004c 8881      		ld r24,Y
 106 004e 9927      		clr r25
 107 0050 9F93      		push r25
 108 0052 8F93      		push r24
 109 0054 80E0      		ldi r24,lo8(.LC1)
 110 0056 90E0      		ldi r25,hi8(.LC1)
 111 0058 9F93      		push r25
 112 005a 8F93      		push r24
 113 005c FF92      		push r15
 114 005e EF92      		push r14
 115 0060 0E94 0000 		call fprintf
 116 0064 2396      		adiw r28,3
 117 0066 DF93      		push r29
 118 0068 CF93      		push r28
 119 006a 2397      		sbiw r28,3
 120 006c 80E0      		ldi r24,lo8(.LC2)
 121 006e 90E0      		ldi r25,hi8(.LC2)
 122 0070 9F93      		push r25
 123 0072 8F93      		push r24
 124 0074 FF92      		push r15
 125 0076 EF92      		push r14
 126 0078 0E94 0000 		call fprintf
 127 007c 8B85      		ldd r24,Y+11
 128 007e 9C85      		ldd r25,Y+12
 129 0080 9F93      		push r25
 130 0082 8F93      		push r24
GAS LISTING C:\DOCUME~1\Arlind\LOCALS~1\Temp/ccWIXrEw.s 			page 5


 131 0084 80E0      		ldi r24,lo8(.LC3)
 132 0086 90E0      		ldi r25,hi8(.LC3)
 133 0088 9F93      		push r25
 134 008a 8F93      		push r24
 135 008c FF92      		push r15
 136 008e EF92      		push r14
 137 0090 0E94 0000 		call fprintf
 138 0094 8D85      		ldd r24,Y+13
 139 0096 9927      		clr r25
 140 0098 9F93      		push r25
 141 009a 8F93      		push r24
 142 009c 80E0      		ldi r24,lo8(.LC4)
 143 009e 90E0      		ldi r25,hi8(.LC4)
 144 00a0 9F93      		push r25
 145 00a2 8F93      		push r24
 146 00a4 FF92      		push r15
 147 00a6 EF92      		push r14
 148 00a8 0E94 0000 		call fprintf
 149 00ac 8E85      		ldd r24,Y+14
 150 00ae 9F85      		ldd r25,Y+15
 151 00b0 9F93      		push r25
 152 00b2 8F93      		push r24
 153 00b4 80E0      		ldi r24,lo8(.LC5)
 154 00b6 90E0      		ldi r25,hi8(.LC5)
 155 00b8 9F93      		push r25
 156 00ba 8F93      		push r24
 157 00bc FF92      		push r15
 158 00be EF92      		push r14
 159 00c0 0E94 0000 		call fprintf
 160 00c4 8DB7      		in r24,__SP_L__
 161 00c6 9EB7      		in r25,__SP_H__
 162 00c8 8296      		adiw r24,34
 163 00ca 0FB6      		in __tmp_reg__,__SREG__
 164 00cc F894      		cli
 165 00ce 9EBF      		out __SP_H__,r25
 166 00d0 0FBE      		out __SREG__,__tmp_reg__
 167 00d2 8DBF      		out __SP_L__,r24
 168 00d4 8889      		ldd r24,Y+16
 169 00d6 9927      		clr r25
 170 00d8 9F93      		push r25
 171 00da 8F93      		push r24
 172 00dc 80E0      		ldi r24,lo8(.LC6)
 173 00de 90E0      		ldi r25,hi8(.LC6)
 174 00e0 9F93      		push r25
 175 00e2 8F93      		push r24
 176 00e4 FF92      		push r15
 177 00e6 EF92      		push r14
 178 00e8 0E94 0000 		call fprintf
 179 00ec 8989      		ldd r24,Y+17
 180 00ee 9A89      		ldd r25,Y+18
 181 00f0 9F93      		push r25
 182 00f2 8F93      		push r24
 183 00f4 80E0      		ldi r24,lo8(.LC7)
 184 00f6 90E0      		ldi r25,hi8(.LC7)
 185 00f8 9F93      		push r25
 186 00fa 8F93      		push r24
 187 00fc FF92      		push r15
GAS LISTING C:\DOCUME~1\Arlind\LOCALS~1\Temp/ccWIXrEw.s 			page 6


 188 00fe EF92      		push r14
 189 0100 0E94 0000 		call fprintf
 190 0104 8B89      		ldd r24,Y+19
 191 0106 9C89      		ldd r25,Y+20
 192 0108 EDB7      		in r30,__SP_L__
 193 010a FEB7      		in r31,__SP_H__
 194 010c 3C96      		adiw r30,12
 195 010e 0FB6      		in __tmp_reg__,__SREG__
 196 0110 F894      		cli
 197 0112 FEBF      		out __SP_H__,r31
 198 0114 0FBE      		out __SREG__,__tmp_reg__
 199 0116 EDBF      		out __SP_L__,r30
 200 0118 0097      		sbiw r24,0
 201 011a 01F0      		breq .L4
 202 011c AA27      		clr r26
 203 011e BB27      		clr r27
 204 0120 00C0      		rjmp .L6
 205               	.L4:
 206 0122 88A1      		ldd r24,Y+32
 207 0124 99A1      		ldd r25,Y+33
 208 0126 AAA1      		ldd r26,Y+34
 209 0128 BBA1      		ldd r27,Y+35
 210               	.L6:
 211 012a BF93      		push r27
 212 012c AF93      		push r26
 213 012e 9F93      		push r25
 214 0130 8F93      		push r24
 215 0132 80E0      		ldi r24,lo8(.LC8)
 216 0134 90E0      		ldi r25,hi8(.LC8)
 217 0136 9F93      		push r25
 218 0138 8F93      		push r24
 219 013a FF92      		push r15
 220 013c EF92      		push r14
 221 013e 0E94 0000 		call fprintf
 222 0142 8D89      		ldd r24,Y+21
 223 0144 9927      		clr r25
 224 0146 9F93      		push r25
 225 0148 8F93      		push r24
 226 014a 80E0      		ldi r24,lo8(.LC9)
 227 014c 90E0      		ldi r25,hi8(.LC9)
 228 014e 9F93      		push r25
 229 0150 8F93      		push r24
 230 0152 FF92      		push r15
 231 0154 EF92      		push r14
 232 0156 0E94 0000 		call fprintf
 233 015a 8CA1      		ldd r24,Y+36
 234 015c 9DA1      		ldd r25,Y+37
 235 015e AEA1      		ldd r26,Y+38
 236 0160 BFA1      		ldd r27,Y+39
 237 0162 BF93      		push r27
 238 0164 AF93      		push r26
 239 0166 9F93      		push r25
 240 0168 8F93      		push r24
 241 016a 8E89      		ldd r24,Y+22
 242 016c 9F89      		ldd r25,Y+23
 243 016e 9F93      		push r25
 244 0170 8F93      		push r24
GAS LISTING C:\DOCUME~1\Arlind\LOCALS~1\Temp/ccWIXrEw.s 			page 7


 245 0172 80E0      		ldi r24,lo8(.LC10)
 246 0174 90E0      		ldi r25,hi8(.LC10)
 247 0176 9F93      		push r25
 248 0178 8F93      		push r24
 249 017a FF92      		push r15
 250 017c EF92      		push r14
 251 017e 0E94 0000 		call fprintf
 252 0182 888D      		ldd r24,Y+24
 253 0184 998D      		ldd r25,Y+25
 254 0186 9F93      		push r25
 255 0188 8F93      		push r24
 256 018a 80E0      		ldi r24,lo8(.LC11)
 257 018c 90E0      		ldi r25,hi8(.LC11)
 258 018e 9F93      		push r25
 259 0190 8F93      		push r24
 260 0192 FF92      		push r15
 261 0194 EF92      		push r14
 262 0196 0E94 0000 		call fprintf
 263 019a 8A8D      		ldd r24,Y+26
 264 019c 9B8D      		ldd r25,Y+27
 265 019e 9F93      		push r25
 266 01a0 8F93      		push r24
 267 01a2 80E0      		ldi r24,lo8(.LC12)
 268 01a4 90E0      		ldi r25,hi8(.LC12)
 269 01a6 9F93      		push r25
 270 01a8 8F93      		push r24
 271 01aa FF92      		push r15
 272 01ac EF92      		push r14
 273 01ae 0E94 0000 		call fprintf
 274 01b2 2DB7      		in r18,__SP_L__
 275 01b4 3EB7      		in r19,__SP_H__
 276 01b6 2C5D      		subi r18,lo8(-(36))
 277 01b8 3F4F      		sbci r19,hi8(-(36))
 278 01ba 0FB6      		in __tmp_reg__,__SREG__
 279 01bc F894      		cli
 280 01be 3EBF      		out __SP_H__,r19
 281 01c0 0FBE      		out __SREG__,__tmp_reg__
 282 01c2 2DBF      		out __SP_L__,r18
 283 01c4 8C8D      		ldd r24,Y+28
 284 01c6 9D8D      		ldd r25,Y+29
 285 01c8 AE8D      		ldd r26,Y+30
 286 01ca BF8D      		ldd r27,Y+31
 287 01cc BF93      		push r27
 288 01ce AF93      		push r26
 289 01d0 9F93      		push r25
 290 01d2 8F93      		push r24
 291 01d4 80E0      		ldi r24,lo8(.LC13)
 292 01d6 90E0      		ldi r25,hi8(.LC13)
 293 01d8 9F93      		push r25
 294 01da 8F93      		push r24
 295 01dc FF92      		push r15
 296 01de EF92      		push r14
 297 01e0 0E94 0000 		call fprintf
 298 01e4 88A5      		ldd r24,Y+40
 299 01e6 99A5      		ldd r25,Y+41
 300 01e8 9F93      		push r25
 301 01ea 8F93      		push r24
GAS LISTING C:\DOCUME~1\Arlind\LOCALS~1\Temp/ccWIXrEw.s 			page 8


 302 01ec 80E0      		ldi r24,lo8(.LC14)
 303 01ee 90E0      		ldi r25,hi8(.LC14)
 304 01f0 9F93      		push r25
 305 01f2 8F93      		push r24
 306 01f4 FF92      		push r15
 307 01f6 EF92      		push r14
 308 01f8 0E94 0000 		call fprintf
 309 01fc 8AA5      		ldd r24,Y+42
 310 01fe 9BA5      		ldd r25,Y+43
 311 0200 9F93      		push r25
 312 0202 8F93      		push r24
 313 0204 80E0      		ldi r24,lo8(.LC15)
 314 0206 90E0      		ldi r25,hi8(.LC15)
 315 0208 9F93      		push r25
 316 020a 8F93      		push r24
 317 020c FF92      		push r15
 318 020e EF92      		push r14
 319 0210 0E94 0000 		call fprintf
 320 0214 8CA5      		ldd r24,Y+44
 321 0216 9DA5      		ldd r25,Y+45
 322 0218 AEA5      		ldd r26,Y+46
 323 021a BFA5      		ldd r27,Y+47
 324 021c BF93      		push r27
 325 021e AF93      		push r26
 326 0220 9F93      		push r25
 327 0222 8F93      		push r24
 328 0224 80E0      		ldi r24,lo8(.LC16)
 329 0226 90E0      		ldi r25,hi8(.LC16)
 330 0228 9F93      		push r25
 331 022a 8F93      		push r24
 332 022c FF92      		push r15
 333 022e EF92      		push r14
 334 0230 0E94 0000 		call fprintf
 335 0234 88A9      		ldd r24,Y+48
 336 0236 99A9      		ldd r25,Y+49
 337 0238 9F93      		push r25
 338 023a 8F93      		push r24
 339 023c 80E0      		ldi r24,lo8(.LC17)
 340 023e 90E0      		ldi r25,hi8(.LC17)
 341 0240 9F93      		push r25
 342 0242 8F93      		push r24
 343 0244 FF92      		push r15
 344 0246 EF92      		push r14
 345 0248 0E94 0000 		call fprintf
 346 024c 8DB7      		in r24,__SP_L__
 347 024e 9EB7      		in r25,__SP_H__
 348 0250 8296      		adiw r24,34
 349 0252 0FB6      		in __tmp_reg__,__SREG__
 350 0254 F894      		cli
 351 0256 9EBF      		out __SP_H__,r25
 352 0258 0FBE      		out __SREG__,__tmp_reg__
 353 025a 8DBF      		out __SP_L__,r24
 354 025c 8AA9      		ldd r24,Y+50
 355 025e 9BA9      		ldd r25,Y+51
 356 0260 9F93      		push r25
 357 0262 8F93      		push r24
 358 0264 80E0      		ldi r24,lo8(.LC18)
GAS LISTING C:\DOCUME~1\Arlind\LOCALS~1\Temp/ccWIXrEw.s 			page 9


 359 0266 90E0      		ldi r25,hi8(.LC18)
 360 0268 9F93      		push r25
 361 026a 8F93      		push r24
 362 026c FF92      		push r15
 363 026e EF92      		push r14
 364 0270 0E94 0000 		call fprintf
 365 0274 C05C      		subi r28,lo8(-(64))
 366 0276 DF4F      		sbci r29,hi8(-(64))
 367 0278 8991      		ld r24,Y+
 368 027a 9927      		clr r25
 369 027c 9F93      		push r25
 370 027e 8F93      		push r24
 371 0280 80E0      		ldi r24,lo8(.LC19)
 372 0282 90E0      		ldi r25,hi8(.LC19)
 373 0284 9F93      		push r25
 374 0286 8F93      		push r24
 375 0288 FF92      		push r15
 376 028a EF92      		push r14
 377 028c 0E94 0000 		call fprintf
 378 0290 8881      		ld r24,Y
 379 0292 C154      		subi r28,lo8(-(-65))
 380 0294 D040      		sbci r29,hi8(-(-65))
 381 0296 9927      		clr r25
 382 0298 9F93      		push r25
 383 029a 8F93      		push r24
 384 029c 80E0      		ldi r24,lo8(.LC20)
 385 029e 90E0      		ldi r25,hi8(.LC20)
 386 02a0 9F93      		push r25
 387 02a2 8F93      		push r24
 388 02a4 FF92      		push r15
 389 02a6 EF92      		push r14
 390 02a8 0E94 0000 		call fprintf
 391 02ac 8E01      		movw r16,r28
 392 02ae 0E5B      		subi r16,lo8(-(66))
 393 02b0 1F4F      		sbci r17,hi8(-(66))
 394 02b2 F801      		movw r30,r16
 395 02b4 8081      		ld r24,Z
 396 02b6 9927      		clr r25
 397 02b8 9F93      		push r25
 398 02ba 8F93      		push r24
 399 02bc 80E0      		ldi r24,lo8(.LC21)
 400 02be 90E0      		ldi r25,hi8(.LC21)
 401 02c0 9F93      		push r25
 402 02c2 8F93      		push r24
 403 02c4 FF92      		push r15
 404 02c6 EF92      		push r14
 405 02c8 0E94 0000 		call fprintf
 406 02cc F801      		movw r30,r16
 407 02ce 8081      		ld r24,Z
 408 02d0 8852      		subi r24,lo8(-(-40))
 409 02d2 2DB7      		in r18,__SP_L__
 410 02d4 3EB7      		in r19,__SP_H__
 411 02d6 285E      		subi r18,lo8(-(24))
 412 02d8 3F4F      		sbci r19,hi8(-(24))
 413 02da 0FB6      		in __tmp_reg__,__SREG__
 414 02dc F894      		cli
 415 02de 3EBF      		out __SP_H__,r19
GAS LISTING C:\DOCUME~1\Arlind\LOCALS~1\Temp/ccWIXrEw.s 			page 10


 416 02e0 0FBE      		out __SREG__,__tmp_reg__
 417 02e2 2DBF      		out __SP_L__,r18
 418 02e4 8230      		cpi r24,lo8(2)
 419 02e6 00F4      		brsh .L9
 420 02e8 CD5B      		subi r28,lo8(-(67))
 421 02ea DF4F      		sbci r29,hi8(-(67))
 422 02ec 8991      		ld r24,Y+
 423 02ee 9991      		ld r25,Y+
 424 02f0 A991      		ld r26,Y+
 425 02f2 B991      		ld r27,Y+
 426 02f4 BF93      		push r27
 427 02f6 AF93      		push r26
 428 02f8 9F93      		push r25
 429 02fa 8F93      		push r24
 430 02fc 80E0      		ldi r24,lo8(.LC22)
 431 02fe 90E0      		ldi r25,hi8(.LC22)
 432 0300 9F93      		push r25
 433 0302 8F93      		push r24
 434 0304 FF92      		push r15
 435 0306 EF92      		push r14
 436 0308 0E94 0000 		call fprintf
 437 030c DF93      		push r29
 438 030e CF93      		push r28
 439 0310 80E0      		ldi r24,lo8(.LC23)
 440 0312 90E0      		ldi r25,hi8(.LC23)
 441 0314 9F93      		push r25
 442 0316 8F93      		push r24
 443 0318 FF92      		push r15
 444 031a EF92      		push r14
 445 031c 0E94 0000 		call fprintf
 446 0320 2B96      		adiw r28,11
 447 0322 DF93      		push r29
 448 0324 CF93      		push r28
 449 0326 80E0      		ldi r24,lo8(.LC24)
 450 0328 90E0      		ldi r25,hi8(.LC24)
 451 032a 9F93      		push r25
 452 032c 8F93      		push r24
 453 032e FF92      		push r15
 454 0330 EF92      		push r14
 455 0332 0E94 0000 		call fprintf
 456 0336 8DB7      		in r24,__SP_L__
 457 0338 9EB7      		in r25,__SP_H__
 458 033a 4496      		adiw r24,20
 459 033c 0FB6      		in __tmp_reg__,__SREG__
 460 033e F894      		cli
 461 0340 9EBF      		out __SP_H__,r25
 462 0342 0FBE      		out __SREG__,__tmp_reg__
 463 0344 8DBF      		out __SP_L__,r24
 464               	.L9:
 465               	/* epilogue: frame size=0 */
 466 0346 DF91      		pop r29
 467 0348 CF91      		pop r28
 468 034a 1F91      		pop r17
 469 034c 0F91      		pop r16
 470 034e FF90      		pop r15
 471 0350 EF90      		pop r14
 472 0352 0895      		ret
GAS LISTING C:\DOCUME~1\Arlind\LOCALS~1\Temp/ccWIXrEw.s 			page 11


 473               	/* epilogue end (size=7) */
 474               	/* function PhatDbgVbr size 426 (413) */
 475               		.size	PhatDbgVbr, .-PhatDbgVbr
 476               	.global	PhatDbgAttrList
 477               		.type	PhatDbgAttrList, @function
 478               	PhatDbgAttrList:
 479               	/* prologue: frame size=0 */
 480               	/* prologue end (size=0) */
 481 0354 262F      		mov r18,r22
 482 0356 3327      		clr r19
 483 0358 20FF      		sbrs r18,0
 484 035a 00C0      		rjmp .L11
 485 035c BC01      		movw r22,r24
 486 035e 82E5      		ldi r24,lo8(82)
 487 0360 90E0      		ldi r25,hi8(82)
 488 0362 00C0      		rjmp .L24
 489               	.L11:
 490 0364 21FF      		sbrs r18,1
 491 0366 00C0      		rjmp .L14
 492 0368 BC01      		movw r22,r24
 493 036a 88E4      		ldi r24,lo8(72)
 494 036c 90E0      		ldi r25,hi8(72)
 495 036e 00C0      		rjmp .L24
 496               	.L14:
 497 0370 22FF      		sbrs r18,2
 498 0372 00C0      		rjmp .L16
 499 0374 BC01      		movw r22,r24
 500 0376 83E5      		ldi r24,lo8(83)
 501 0378 90E0      		ldi r25,hi8(83)
 502 037a 00C0      		rjmp .L24
 503               	.L16:
 504 037c 23FF      		sbrs r18,3
 505 037e 00C0      		rjmp .L18
 506 0380 BC01      		movw r22,r24
 507 0382 86E5      		ldi r24,lo8(86)
 508 0384 90E0      		ldi r25,hi8(86)
 509 0386 00C0      		rjmp .L24
 510               	.L18:
 511 0388 24FF      		sbrs r18,4
 512 038a 00C0      		rjmp .L20
 513 038c BC01      		movw r22,r24
 514 038e 84E4      		ldi r24,lo8(68)
 515 0390 90E0      		ldi r25,hi8(68)
 516               	.L24:
 517 0392 0E94 0000 		call fputc
 518 0396 0895      		ret
 519               	.L20:
 520 0398 25FF      		sbrs r18,5
 521 039a 00C0      		rjmp .L23
 522 039c BC01      		movw r22,r24
 523 039e 81E4      		ldi r24,lo8(65)
 524 03a0 90E0      		ldi r25,hi8(65)
 525 03a2 0E94 0000 		call fputc
 526               	.L23:
 527 03a6 0895      		ret
 528               	/* epilogue: frame size=0 */
 529               	/* epilogue: noreturn */
GAS LISTING C:\DOCUME~1\Arlind\LOCALS~1\Temp/ccWIXrEw.s 			page 12


 530               	/* epilogue end (size=0) */
 531               	/* function PhatDbgAttrList size 42 (42) */
 532               		.size	PhatDbgAttrList, .-PhatDbgAttrList
 533               		.data
 534               	.LC25:
 535 022f 4465 6E74 		.string	"DentFName: '%.11s'\n"
 535      464E 616D 
 535      653A 2027 
 535      252E 3131 
 535      7327 0A00 
 536               	.LC26:
 537 0243 4465 6E74 		.string	"DentFAttr: "
 537      4641 7474 
 537      723A 2000 
 538               	.LC27:
 539 024f 4465 6E74 		.string	"DentRsrvd: 0x%02X\n"
 539      5273 7276 
 539      643A 2030 
 539      7825 3032 
 539      580A 00
 540               	.LC28:
 541 0262 4465 6E74 		.string	"DentCTime: 0x%04X 0x%04X 0x%02X\n"
 541      4354 696D 
 541      653A 2030 
 541      7825 3034 
 541      5820 3078 
 542               	.LC29:
 543 0283 4465 6E74 		.string	"DentADate: 0x%04X\n"
 543      4144 6174 
 543      653A 2030 
 543      7825 3034 
 543      580A 00
 544               	.LC30:
 545 0296 4465 6E74 		.string	"DentMTime: 0x%04X 0x%04X\n"
 545      4D54 696D 
 545      653A 2030 
 545      7825 3034 
 545      5820 3078 
 546               	.LC31:
 547 02b0 4465 6E74 		.string	"DentClust: %lu\n"
 547      436C 7573 
 547      743A 2025 
 547      6C75 0A00 
 548               	.LC32:
 549 02c0 4465 6E74 		.string	"DentFSize: %lu\n"
 549      4653 697A 
 549      653A 2025 
 549      6C75 0A00 
 550               		.text
 551               	.global	PhatDbgDirEntry
 552               		.type	PhatDbgDirEntry, @function
 553               	PhatDbgDirEntry:
 554               	/* prologue: frame size=0 */
 555 03a8 0F93      		push r16
 556 03aa 1F93      		push r17
 557 03ac CF93      		push r28
 558 03ae DF93      		push r29
GAS LISTING C:\DOCUME~1\Arlind\LOCALS~1\Temp/ccWIXrEw.s 			page 13


 559               	/* prologue end (size=4) */
 560 03b0 8C01      		movw r16,r24
 561 03b2 EA01      		movw r28,r20
 562 03b4 6115      		cp r22,__zero_reg__
 563 03b6 7105      		cpc r23,__zero_reg__
 564 03b8 01F0      		breq .L26
 565 03ba 7F93      		push r23
 566 03bc 6F93      		push r22
 567 03be 80E0      		ldi r24,lo8(.LC0)
 568 03c0 90E0      		ldi r25,hi8(.LC0)
 569 03c2 9F93      		push r25
 570 03c4 8F93      		push r24
 571 03c6 1F93      		push r17
 572 03c8 0F93      		push r16
 573 03ca 0E94 0000 		call fprintf
 574 03ce 8DB7      		in r24,__SP_L__
 575 03d0 9EB7      		in r25,__SP_H__
 576 03d2 0696      		adiw r24,6
 577 03d4 0FB6      		in __tmp_reg__,__SREG__
 578 03d6 F894      		cli
 579 03d8 9EBF      		out __SP_H__,r25
 580 03da 0FBE      		out __SREG__,__tmp_reg__
 581 03dc 8DBF      		out __SP_L__,r24
 582               	.L26:
 583 03de DF93      		push r29
 584 03e0 CF93      		push r28
 585 03e2 80E0      		ldi r24,lo8(.LC25)
 586 03e4 90E0      		ldi r25,hi8(.LC25)
 587 03e6 9F93      		push r25
 588 03e8 8F93      		push r24
 589 03ea 1F93      		push r17
 590 03ec 0F93      		push r16
 591 03ee 0E94 0000 		call fprintf
 592 03f2 B801      		movw r22,r16
 593 03f4 80E0      		ldi r24,lo8(.LC26)
 594 03f6 90E0      		ldi r25,hi8(.LC26)
 595 03f8 0E94 0000 		call fputs
 596 03fc 6B85      		ldd r22,Y+11
 597 03fe C801      		movw r24,r16
 598 0400 0E94 0000 		call PhatDbgAttrList
 599 0404 B801      		movw r22,r16
 600 0406 8AE0      		ldi r24,lo8(10)
 601 0408 90E0      		ldi r25,hi8(10)
 602 040a 0E94 0000 		call fputc
 603 040e 8C85      		ldd r24,Y+12
 604 0410 9927      		clr r25
 605 0412 9F93      		push r25
 606 0414 8F93      		push r24
 607 0416 80E0      		ldi r24,lo8(.LC27)
 608 0418 90E0      		ldi r25,hi8(.LC27)
 609 041a 9F93      		push r25
 610 041c 8F93      		push r24
 611 041e 1F93      		push r17
 612 0420 0F93      		push r16
 613 0422 0E94 0000 		call fprintf
 614 0426 8D85      		ldd r24,Y+13
 615 0428 9927      		clr r25
GAS LISTING C:\DOCUME~1\Arlind\LOCALS~1\Temp/ccWIXrEw.s 			page 14


 616 042a 9F93      		push r25
 617 042c 8F93      		push r24
 618 042e 8E85      		ldd r24,Y+14
 619 0430 9F85      		ldd r25,Y+15
 620 0432 9F93      		push r25
 621 0434 8F93      		push r24
 622 0436 8889      		ldd r24,Y+16
 623 0438 9989      		ldd r25,Y+17
 624 043a 9F93      		push r25
 625 043c 8F93      		push r24
 626 043e 80E0      		ldi r24,lo8(.LC28)
 627 0440 90E0      		ldi r25,hi8(.LC28)
 628 0442 9F93      		push r25
 629 0444 8F93      		push r24
 630 0446 1F93      		push r17
 631 0448 0F93      		push r16
 632 044a 0E94 0000 		call fprintf
 633 044e 8A89      		ldd r24,Y+18
 634 0450 9B89      		ldd r25,Y+19
 635 0452 9F93      		push r25
 636 0454 8F93      		push r24
 637 0456 80E0      		ldi r24,lo8(.LC29)
 638 0458 90E0      		ldi r25,hi8(.LC29)
 639 045a 9F93      		push r25
 640 045c 8F93      		push r24
 641 045e 1F93      		push r17
 642 0460 0F93      		push r16
 643 0462 0E94 0000 		call fprintf
 644 0466 8E89      		ldd r24,Y+22
 645 0468 9F89      		ldd r25,Y+23
 646 046a 9F93      		push r25
 647 046c 8F93      		push r24
 648 046e 888D      		ldd r24,Y+24
 649 0470 998D      		ldd r25,Y+25
 650 0472 9F93      		push r25
 651 0474 8F93      		push r24
 652 0476 80E0      		ldi r24,lo8(.LC30)
 653 0478 90E0      		ldi r25,hi8(.LC30)
 654 047a 9F93      		push r25
 655 047c 8F93      		push r24
 656 047e 1F93      		push r17
 657 0480 0F93      		push r16
 658 0482 0E94 0000 		call fprintf
 659 0486 8DB7      		in r24,__SP_L__
 660 0488 9EB7      		in r25,__SP_H__
 661 048a 8496      		adiw r24,36
 662 048c 0FB6      		in __tmp_reg__,__SREG__
 663 048e F894      		cli
 664 0490 9EBF      		out __SP_H__,r25
 665 0492 0FBE      		out __SREG__,__tmp_reg__
 666 0494 8DBF      		out __SP_L__,r24
 667 0496 2A8D      		ldd r18,Y+26
 668 0498 3B8D      		ldd r19,Y+27
 669 049a 4427      		clr r20
 670 049c 5527      		clr r21
 671 049e 8C89      		ldd r24,Y+20
 672 04a0 9D89      		ldd r25,Y+21
GAS LISTING C:\DOCUME~1\Arlind\LOCALS~1\Temp/ccWIXrEw.s 			page 15


 673 04a2 AA27      		clr r26
 674 04a4 BB27      		clr r27
 675 04a6 DC01      		movw r26,r24
 676 04a8 9927      		clr r25
 677 04aa 8827      		clr r24
 678 04ac 280F      		add r18,r24
 679 04ae 391F      		adc r19,r25
 680 04b0 4A1F      		adc r20,r26
 681 04b2 5B1F      		adc r21,r27
 682 04b4 5F93      		push r21
 683 04b6 4F93      		push r20
 684 04b8 3F93      		push r19
 685 04ba 2F93      		push r18
 686 04bc 80E0      		ldi r24,lo8(.LC31)
 687 04be 90E0      		ldi r25,hi8(.LC31)
 688 04c0 9F93      		push r25
 689 04c2 8F93      		push r24
 690 04c4 1F93      		push r17
 691 04c6 0F93      		push r16
 692 04c8 0E94 0000 		call fprintf
 693 04cc 8C8D      		ldd r24,Y+28
 694 04ce 9D8D      		ldd r25,Y+29
 695 04d0 AE8D      		ldd r26,Y+30
 696 04d2 BF8D      		ldd r27,Y+31
 697 04d4 BF93      		push r27
 698 04d6 AF93      		push r26
 699 04d8 9F93      		push r25
 700 04da 8F93      		push r24
 701 04dc 80E0      		ldi r24,lo8(.LC32)
 702 04de 90E0      		ldi r25,hi8(.LC32)
 703 04e0 9F93      		push r25
 704 04e2 8F93      		push r24
 705 04e4 1F93      		push r17
 706 04e6 0F93      		push r16
 707 04e8 0E94 0000 		call fprintf
 708 04ec 8DB7      		in r24,__SP_L__
 709 04ee 9EB7      		in r25,__SP_H__
 710 04f0 4096      		adiw r24,16
 711 04f2 0FB6      		in __tmp_reg__,__SREG__
 712 04f4 F894      		cli
 713 04f6 9EBF      		out __SP_H__,r25
 714 04f8 0FBE      		out __SREG__,__tmp_reg__
 715 04fa 8DBF      		out __SP_L__,r24
 716               	/* epilogue: frame size=0 */
 717 04fc DF91      		pop r29
 718 04fe CF91      		pop r28
 719 0500 1F91      		pop r17
 720 0502 0F91      		pop r16
 721 0504 0895      		ret
 722               	/* epilogue end (size=5) */
 723               	/* function PhatDbgDirEntry size 175 (166) */
 724               		.size	PhatDbgDirEntry, .-PhatDbgDirEntry
 725               		.data
 726               	.LC33:
 727 02d0 4669 6C65 		.string	"File Pos   : %lu\n"
 727      2050 6F73 
 727      2020 203A 
GAS LISTING C:\DOCUME~1\Arlind\LOCALS~1\Temp/ccWIXrEw.s 			page 16


 727      2025 6C75 
 727      0A00 
 728               	.LC34:
 729 02e2 436C 7573 		.string	"Cluster    : %lu  Prev %lu\n"
 729      7465 7220 
 729      2020 203A 
 729      2025 6C75 
 729      2020 5072 
 730               	.LC35:
 731 02fe 436C 7573 		.string	"Cluster Pos: %lu\n"
 731      7465 7220 
 731      506F 733A 
 731      2025 6C75 
 731      0A00 
 732               	.LC36:
 733 0310 5365 6374 		.string	"Sector Pos : %lu\n"
 733      6F72 2050 
 733      6F73 203A 
 733      2025 6C75 
 733      0A00 
 734               	.LC37:
 735 0322 5061 7265 		.string	"Parent Clust: %lu\n"
 735      6E74 2043 
 735      6C75 7374 
 735      3A20 256C 
 735      750A 00
 736               	.LC38:
 737 0335 4469 7245 		.string	"DirEnt Sect : %lu\n"
 737      6E74 2053 
 737      6563 7420 
 737      3A20 256C 
 737      750A 00
 738               	.LC39:
 739 0348 4469 7245 		.string	"DirEnt Offs : %lu\n"
 739      6E74 204F 
 739      6666 7320 
 739      3A20 256C 
 739      750A 00
 740               	.LC40:
 741 035b 4469 7245 		.string	"DirEnt Dirty: %u\n"
 741      6E74 2044 
 741      6972 7479 
 741      3A20 2575 
 741      0A00 
 742               		.text
 743               	.global	PhatDbgFileInfo
 744               		.type	PhatDbgFileInfo, @function
 745               	PhatDbgFileInfo:
 746               	/* prologue: frame size=0 */
 747 0506 0F93      		push r16
 748 0508 1F93      		push r17
 749 050a CF93      		push r28
 750 050c DF93      		push r29
 751               	/* prologue end (size=4) */
 752 050e 8C01      		movw r16,r24
 753 0510 EA01      		movw r28,r20
 754 0512 6115      		cp r22,__zero_reg__
GAS LISTING C:\DOCUME~1\Arlind\LOCALS~1\Temp/ccWIXrEw.s 			page 17


 755 0514 7105      		cpc r23,__zero_reg__
 756 0516 01F0      		breq .L30
 757 0518 7F93      		push r23
 758 051a 6F93      		push r22
 759 051c 80E0      		ldi r24,lo8(.LC0)
 760 051e 90E0      		ldi r25,hi8(.LC0)
 761 0520 9F93      		push r25
 762 0522 8F93      		push r24
 763 0524 1F93      		push r17
 764 0526 0F93      		push r16
 765 0528 0E94 0000 		call fprintf
 766 052c 8DB7      		in r24,__SP_L__
 767 052e 9EB7      		in r25,__SP_H__
 768 0530 0696      		adiw r24,6
 769 0532 0FB6      		in __tmp_reg__,__SREG__
 770 0534 F894      		cli
 771 0536 9EBF      		out __SP_H__,r25
 772 0538 0FBE      		out __SREG__,__tmp_reg__
 773 053a 8DBF      		out __SP_L__,r24
 774               	.L30:
 775 053c 8881      		ld r24,Y
 776 053e 9981      		ldd r25,Y+1
 777 0540 AA81      		ldd r26,Y+2
 778 0542 BB81      		ldd r27,Y+3
 779 0544 BF93      		push r27
 780 0546 AF93      		push r26
 781 0548 9F93      		push r25
 782 054a 8F93      		push r24
 783 054c 80E0      		ldi r24,lo8(.LC33)
 784 054e 90E0      		ldi r25,hi8(.LC33)
 785 0550 9F93      		push r25
 786 0552 8F93      		push r24
 787 0554 1F93      		push r17
 788 0556 0F93      		push r16
 789 0558 0E94 0000 		call fprintf
 790 055c 8889      		ldd r24,Y+16
 791 055e 9989      		ldd r25,Y+17
 792 0560 AA89      		ldd r26,Y+18
 793 0562 BB89      		ldd r27,Y+19
 794 0564 BF93      		push r27
 795 0566 AF93      		push r26
 796 0568 9F93      		push r25
 797 056a 8F93      		push r24
 798 056c 8C81      		ldd r24,Y+4
 799 056e 9D81      		ldd r25,Y+5
 800 0570 AE81      		ldd r26,Y+6
 801 0572 BF81      		ldd r27,Y+7
 802 0574 BF93      		push r27
 803 0576 AF93      		push r26
 804 0578 9F93      		push r25
 805 057a 8F93      		push r24
 806 057c 80E0      		ldi r24,lo8(.LC34)
 807 057e 90E0      		ldi r25,hi8(.LC34)
 808 0580 9F93      		push r25
 809 0582 8F93      		push r24
 810 0584 1F93      		push r17
 811 0586 0F93      		push r16
GAS LISTING C:\DOCUME~1\Arlind\LOCALS~1\Temp/ccWIXrEw.s 			page 18


 812 0588 0E94 0000 		call fprintf
 813 058c 8885      		ldd r24,Y+8
 814 058e 9985      		ldd r25,Y+9
 815 0590 AA85      		ldd r26,Y+10
 816 0592 BB85      		ldd r27,Y+11
 817 0594 BF93      		push r27
 818 0596 AF93      		push r26
 819 0598 9F93      		push r25
 820 059a 8F93      		push r24
 821 059c 80E0      		ldi r24,lo8(.LC35)
 822 059e 90E0      		ldi r25,hi8(.LC35)
 823 05a0 9F93      		push r25
 824 05a2 8F93      		push r24
 825 05a4 1F93      		push r17
 826 05a6 0F93      		push r16
 827 05a8 0E94 0000 		call fprintf
 828 05ac 8C85      		ldd r24,Y+12
 829 05ae 9D85      		ldd r25,Y+13
 830 05b0 AE85      		ldd r26,Y+14
 831 05b2 BF85      		ldd r27,Y+15
 832 05b4 BF93      		push r27
 833 05b6 AF93      		push r26
 834 05b8 9F93      		push r25
 835 05ba 8F93      		push r24
 836 05bc 80E0      		ldi r24,lo8(.LC36)
 837 05be 90E0      		ldi r25,hi8(.LC36)
 838 05c0 9F93      		push r25
 839 05c2 8F93      		push r24
 840 05c4 1F93      		push r17
 841 05c6 0F93      		push r16
 842 05c8 0E94 0000 		call fprintf
 843 05cc 8DB7      		in r24,__SP_L__
 844 05ce 9EB7      		in r25,__SP_H__
 845 05d0 8496      		adiw r24,36
 846 05d2 0FB6      		in __tmp_reg__,__SREG__
 847 05d4 F894      		cli
 848 05d6 9EBF      		out __SP_H__,r25
 849 05d8 0FBE      		out __SREG__,__tmp_reg__
 850 05da 8DBF      		out __SP_L__,r24
 851 05dc 6896      		adiw r28,24
 852 05de AE01      		movw r20,r28
 853 05e0 60E0      		ldi r22,lo8(0)
 854 05e2 70E0      		ldi r23,hi8(0)
 855 05e4 C801      		movw r24,r16
 856 05e6 0E94 0000 		call PhatDbgDirEntry
 857 05ea AA96      		adiw r28,42
 858 05ec 2991      		ld r18,Y+
 859 05ee 3991      		ld r19,Y+
 860 05f0 4427      		clr r20
 861 05f2 5527      		clr r21
 862 05f4 8881      		ld r24,Y
 863 05f6 9981      		ldd r25,Y+1
 864 05f8 C454      		subi r28,lo8(-(-68))
 865 05fa D040      		sbci r29,hi8(-(-68))
 866 05fc AA27      		clr r26
 867 05fe BB27      		clr r27
 868 0600 DC01      		movw r26,r24
GAS LISTING C:\DOCUME~1\Arlind\LOCALS~1\Temp/ccWIXrEw.s 			page 19


 869 0602 9927      		clr r25
 870 0604 8827      		clr r24
 871 0606 280F      		add r18,r24
 872 0608 391F      		adc r19,r25
 873 060a 4A1F      		adc r20,r26
 874 060c 5B1F      		adc r21,r27
 875 060e 5F93      		push r21
 876 0610 4F93      		push r20
 877 0612 3F93      		push r19
 878 0614 2F93      		push r18
 879 0616 80E0      		ldi r24,lo8(.LC37)
 880 0618 90E0      		ldi r25,hi8(.LC37)
 881 061a 9F93      		push r25
 882 061c 8F93      		push r24
 883 061e 1F93      		push r17
 884 0620 0F93      		push r16
 885 0622 0E94 0000 		call fprintf
 886 0626 88AD      		ldd r24,Y+56
 887 0628 99AD      		ldd r25,Y+57
 888 062a AAAD      		ldd r26,Y+58
 889 062c BBAD      		ldd r27,Y+59
 890 062e BF93      		push r27
 891 0630 AF93      		push r26
 892 0632 9F93      		push r25
 893 0634 8F93      		push r24
 894 0636 80E0      		ldi r24,lo8(.LC38)
 895 0638 90E0      		ldi r25,hi8(.LC38)
 896 063a 9F93      		push r25
 897 063c 8F93      		push r24
 898 063e 1F93      		push r17
 899 0640 0F93      		push r16
 900 0642 0E94 0000 		call fprintf
 901 0646 8CAD      		ldd r24,Y+60
 902 0648 9DAD      		ldd r25,Y+61
 903 064a AEAD      		ldd r26,Y+62
 904 064c BFAD      		ldd r27,Y+63
 905 064e BF93      		push r27
 906 0650 AF93      		push r26
 907 0652 9F93      		push r25
 908 0654 8F93      		push r24
 909 0656 80E0      		ldi r24,lo8(.LC39)
 910 0658 90E0      		ldi r25,hi8(.LC39)
 911 065a 9F93      		push r25
 912 065c 8F93      		push r24
 913 065e 1F93      		push r17
 914 0660 0F93      		push r16
 915 0662 0E94 0000 		call fprintf
 916 0666 C05C      		subi r28,lo8(-(64))
 917 0668 DF4F      		sbci r29,hi8(-(64))
 918 066a 8881      		ld r24,Y
 919 066c 9981      		ldd r25,Y+1
 920 066e 9F93      		push r25
 921 0670 8F93      		push r24
 922 0672 80E0      		ldi r24,lo8(.LC40)
 923 0674 90E0      		ldi r25,hi8(.LC40)
 924 0676 9F93      		push r25
 925 0678 8F93      		push r24
GAS LISTING C:\DOCUME~1\Arlind\LOCALS~1\Temp/ccWIXrEw.s 			page 20


 926 067a 1F93      		push r17
 927 067c 0F93      		push r16
 928 067e 0E94 0000 		call fprintf
 929 0682 8DB7      		in r24,__SP_L__
 930 0684 9EB7      		in r25,__SP_H__
 931 0686 4E96      		adiw r24,30
 932 0688 0FB6      		in __tmp_reg__,__SREG__
 933 068a F894      		cli
 934 068c 9EBF      		out __SP_H__,r25
 935 068e 0FBE      		out __SREG__,__tmp_reg__
 936 0690 8DBF      		out __SP_L__,r24
 937               	/* epilogue: frame size=0 */
 938 0692 DF91      		pop r29
 939 0694 CF91      		pop r28
 940 0696 1F91      		pop r17
 941 0698 0F91      		pop r16
 942 069a 0895      		ret
 943               	/* epilogue end (size=5) */
 944               	/* function PhatDbgFileInfo size 203 (194) */
 945               		.size	PhatDbgFileInfo, .-PhatDbgFileInfo
 946               	/* File "C:/ethernut-4.3.3/nut/fs/phatdbg.c": code  846 = 0x034e ( 815), prologues  14, epilogues  
GAS LISTING C:\DOCUME~1\Arlind\LOCALS~1\Temp/ccWIXrEw.s 			page 21


DEFINED SYMBOLS
                            *ABS*:00000000 phatdbg.c
C:\DOCUME~1\Arlind\LOCALS~1\Temp/ccWIXrEw.s:3      *ABS*:0000003f __SREG__
C:\DOCUME~1\Arlind\LOCALS~1\Temp/ccWIXrEw.s:4      *ABS*:0000003e __SP_H__
C:\DOCUME~1\Arlind\LOCALS~1\Temp/ccWIXrEw.s:5      *ABS*:0000003d __SP_L__
C:\DOCUME~1\Arlind\LOCALS~1\Temp/ccWIXrEw.s:6      *ABS*:00000000 __tmp_reg__
C:\DOCUME~1\Arlind\LOCALS~1\Temp/ccWIXrEw.s:7      *ABS*:00000001 __zero_reg__
C:\DOCUME~1\Arlind\LOCALS~1\Temp/ccWIXrEw.s:64     .text:00000000 PhatDbgVbr
C:\DOCUME~1\Arlind\LOCALS~1\Temp/ccWIXrEw.s:478    .text:00000354 PhatDbgAttrList
C:\DOCUME~1\Arlind\LOCALS~1\Temp/ccWIXrEw.s:553    .text:000003a8 PhatDbgDirEntry
C:\DOCUME~1\Arlind\LOCALS~1\Temp/ccWIXrEw.s:745    .text:00000506 PhatDbgFileInfo

UNDEFINED SYMBOLS
__do_copy_data
__do_clear_bss
fprintf
fputc
fputs
